69,CSC,CSC-ECA-00,pc-csc-ros-eca-00,0,128
69,CSC,CSC-ECA-00,pc-csc-ros-eca-00,1,129
69,CSC,CSC-ECA-00,pc-csc-ros-eca-00,2,130
69,CSC,CSC-ECA-00,pc-csc-ros-eca-00,3,131
69,CSC,CSC-ECA-00,pc-csc-ros-eca-00,4,132
69,CSC,CSC-ECA-00,pc-csc-ros-eca-00,5,133
69,CSC,CSC-ECA-00,pc-csc-ros-eca-00,6,134
69,CSC,CSC-ECA-00,pc-csc-ros-eca-00,7,135
69,CSC,CSC-ECA-00,pc-csc-ros-eca-00,12,136
69,CSC,CSC-ECA-00,pc-csc-ros-eca-00,13,137
69,CSC,CSC-ECA-00,pc-csc-ros-eca-00,14,138
69,CSC,CSC-ECA-00,pc-csc-ros-eca-00,15,139
69,CSC,CSC-ECA-00,pc-csc-ros-eca-00,16,140
69,CSC,CSC-ECA-00,pc-csc-ros-eca-00,17,141
69,CSC,CSC-ECA-00,pc-csc-ros-eca-00,18,142
69,CSC,CSC-ECA-00,pc-csc-ros-eca-00,19,143
6a,CSC,CSC-ECC-00,pc-csc-ros-ecc-00,0,128
6a,CSC,CSC-ECC-00,pc-csc-ros-ecc-00,1,129
6a,CSC,CSC-ECC-00,pc-csc-ros-ecc-00,2,130
6a,CSC,CSC-ECC-00,pc-csc-ros-ecc-00,3,131
6a,CSC,CSC-ECC-00,pc-csc-ros-ecc-00,4,132
6a,CSC,CSC-ECC-00,pc-csc-ros-ecc-00,5,133
6a,CSC,CSC-ECC-00,pc-csc-ros-ecc-00,6,134
6a,CSC,CSC-ECC-00,pc-csc-ros-ecc-00,7,135
6a,CSC,CSC-ECC-00,pc-csc-ros-ecc-00,12,136
6a,CSC,CSC-ECC-00,pc-csc-ros-ecc-00,13,137
6a,CSC,CSC-ECC-00,pc-csc-ros-ecc-00,14,138
6a,CSC,CSC-ECC-00,pc-csc-ros-ecc-00,15,139
6a,CSC,CSC-ECC-00,pc-csc-ros-ecc-00,16,140
6a,CSC,CSC-ECC-00,pc-csc-ros-ecc-00,17,141
6a,CSC,CSC-ECC-00,pc-csc-ros-ecc-00,18,142
6a,CSC,CSC-ECC-00,pc-csc-ros-ecc-00,19,143
85,FWD,FWD-AFP-00,pc-fwd-ros-afp-00,0,1
85,FWD,FWD-AFP-00,pc-fwd-ros-afp-00,1,2
84,FWD,FWD-ALFA-00,pc-fwd-ros-alfa-00,0,0
84,FWD,FWD-ALFA-00,pc-fwd-ros-alfa-00,1,1
81,FWD,FWD-BCM-00,pc-fwd-ros-bcm-00,0,74
81,FWD,FWD-BCM-00,pc-fwd-ros-bcm-00,1,76
83,FWD,FWD-ZDC-00,pc-fwd-ros-zdc-00,0,0
83,FWD,FWD-ZDC-00,pc-fwd-ros-zdc-00,1,1
83,FWD,FWD-ZDC-00,pc-fwd-ros-zdc-00,2,2
83,FWD,FWD-ZDC-00,pc-fwd-ros-zdc-00,3,3
14,IBL,IBL-B-00,pc-ibl-ros-b-00,0,96
14,IBL,IBL-B-00,pc-ibl-ros-b-00,1,97
14,IBL,IBL-B-00,pc-ibl-ros-b-00,2,98
14,IBL,IBL-B-00,pc-ibl-ros-b-00,3,99
14,IBL,IBL-B-00,pc-ibl-ros-b-00,4,112
14,IBL,IBL-B-00,pc-ibl-ros-b-00,5,113
14,IBL,IBL-B-00,pc-ibl-ros-b-00,6,114
14,IBL,IBL-B-00,pc-ibl-ros-b-00,7,115
14,IBL,IBL-B-00,pc-ibl-ros-b-00,8,128
14,IBL,IBL-B-00,pc-ibl-ros-b-00,9,129
14,IBL,IBL-B-00,pc-ibl-ros-b-00,10,130
14,IBL,IBL-B-00,pc-ibl-ros-b-00,11,131
14,IBL,IBL-B-00,pc-ibl-ros-b-00,12,144
14,IBL,IBL-B-00,pc-ibl-ros-b-00,13,145
14,IBL,IBL-B-00,pc-ibl-ros-b-00,14,146
14,IBL,IBL-B-00,pc-ibl-ros-b-00,15,147
14,IBL,IBL-B-00,pc-ibl-ros-b-00,16,256
14,IBL,IBL-B-00,pc-ibl-ros-b-00,17,257
14,IBL,IBL-B-00,pc-ibl-ros-b-00,18,258
14,IBL,IBL-B-00,pc-ibl-ros-b-00,19,259
14,IBL,IBL-B-00,pc-ibl-ros-b-00,20,272
14,IBL,IBL-B-00,pc-ibl-ros-b-00,21,273
14,IBL,IBL-B-00,pc-ibl-ros-b-00,22,274
14,IBL,IBL-B-00,pc-ibl-ros-b-00,23,275
14,IBL,IBL-B-01,pc-ibl-ros-b-01,0,288
14,IBL,IBL-B-01,pc-ibl-ros-b-01,1,289
14,IBL,IBL-B-01,pc-ibl-ros-b-01,2,290
14,IBL,IBL-B-01,pc-ibl-ros-b-01,3,291
14,IBL,IBL-B-01,pc-ibl-ros-b-01,4,320
14,IBL,IBL-B-01,pc-ibl-ros-b-01,5,321
14,IBL,IBL-B-01,pc-ibl-ros-b-01,6,322
14,IBL,IBL-B-01,pc-ibl-ros-b-01,7,323
14,IBL,IBL-B-01,pc-ibl-ros-b-01,8,336
14,IBL,IBL-B-01,pc-ibl-ros-b-01,9,337
14,IBL,IBL-B-01,pc-ibl-ros-b-01,10,338
14,IBL,IBL-B-01,pc-ibl-ros-b-01,11,339
14,IBL,IBL-B-01,pc-ibl-ros-b-01,12,352
14,IBL,IBL-B-01,pc-ibl-ros-b-01,13,353
14,IBL,IBL-B-01,pc-ibl-ros-b-01,14,354
14,IBL,IBL-B-01,pc-ibl-ros-b-01,15,355
14,IBL,IBL-B-01,pc-ibl-ros-b-01,16,368
14,IBL,IBL-B-01,pc-ibl-ros-b-01,17,369
14,IBL,IBL-B-01,pc-ibl-ros-b-01,18,370
14,IBL,IBL-B-01,pc-ibl-ros-b-01,19,371
14,IBL,IBL-B-01,pc-ibl-ros-b-01,20,384
14,IBL,IBL-B-01,pc-ibl-ros-b-01,21,385
14,IBL,IBL-B-01,pc-ibl-ros-b-01,22,386
14,IBL,IBL-B-01,pc-ibl-ros-b-01,23,387
14,IBL,IBL-B-02,pc-ibl-ros-b-02,0,400
14,IBL,IBL-B-02,pc-ibl-ros-b-02,1,401
14,IBL,IBL-B-02,pc-ibl-ros-b-02,2,402
14,IBL,IBL-B-02,pc-ibl-ros-b-02,3,403
14,IBL,IBL-B-02,pc-ibl-ros-b-02,4,512
14,IBL,IBL-B-02,pc-ibl-ros-b-02,5,513
14,IBL,IBL-B-02,pc-ibl-ros-b-02,6,514
14,IBL,IBL-B-02,pc-ibl-ros-b-02,7,515
15,IBL,IBL-B-02,pc-ibl-ros-b-02,8,528
15,IBL,IBL-B-02,pc-ibl-ros-b-02,9,529
15,IBL,IBL-B-02,pc-ibl-ros-b-02,10,530
15,IBL,IBL-B-02,pc-ibl-ros-b-02,11,531
41,LAR,LAR-EMBA-00,pc-lar-ros-emba-00,0,12
41,LAR,LAR-EMBA-00,pc-lar-ros-emba-00,1,13
41,LAR,LAR-EMBA-00,pc-lar-ros-emba-00,2,1
41,LAR,LAR-EMBA-00,pc-lar-ros-emba-00,3,15
41,LAR,LAR-EMBA-00,pc-lar-ros-emba-00,4,20
41,LAR,LAR-EMBA-00,pc-lar-ros-emba-00,5,21
41,LAR,LAR-EMBA-00,pc-lar-ros-emba-00,6,22
41,LAR,LAR-EMBA-00,pc-lar-ros-emba-00,7,23
41,LAR,LAR-EMBA-00,pc-lar-ros-emba-00,8,28
41,LAR,LAR-EMBA-00,pc-lar-ros-emba-00,9,29
41,LAR,LAR-EMBA-00,pc-lar-ros-emba-00,10,48
41,LAR,LAR-EMBA-00,pc-lar-ros-emba-00,11,49
41,LAR,LAR-EMBA-00,pc-lar-ros-emba-00,12,2
41,LAR,LAR-EMBA-00,pc-lar-ros-emba-00,13,3
41,LAR,LAR-EMBA-00,pc-lar-ros-emba-00,14,17
41,LAR,LAR-EMBA-00,pc-lar-ros-emba-00,15,19
41,LAR,LAR-EMBA-00,pc-lar-ros-emba-00,16,24
41,LAR,LAR-EMBA-00,pc-lar-ros-emba-00,17,25
41,LAR,LAR-EMBA-00,pc-lar-ros-emba-00,18,26
41,LAR,LAR-EMBA-00,pc-lar-ros-emba-00,19,27
41,LAR,LAR-EMBA-00,pc-lar-ros-emba-00,20,30
41,LAR,LAR-EMBA-00,pc-lar-ros-emba-00,21,31
41,LAR,LAR-EMBA-00,pc-lar-ros-emba-00,22,50
41,LAR,LAR-EMBA-00,pc-lar-ros-emba-00,23,51
41,LAR,LAR-EMBA-01,pc-lar-ros-emba-01,0,4
41,LAR,LAR-EMBA-01,pc-lar-ros-emba-01,1,5
41,LAR,LAR-EMBA-01,pc-lar-ros-emba-01,2,6
41,LAR,LAR-EMBA-01,pc-lar-ros-emba-01,3,7
41,LAR,LAR-EMBA-01,pc-lar-ros-emba-01,4,0
41,LAR,LAR-EMBA-01,pc-lar-ros-emba-01,5,14
41,LAR,LAR-EMBA-01,pc-lar-ros-emba-01,6,32
41,LAR,LAR-EMBA-01,pc-lar-ros-emba-01,7,33
41,LAR,LAR-EMBA-01,pc-lar-ros-emba-01,8,40
41,LAR,LAR-EMBA-01,pc-lar-ros-emba-01,9,41
41,LAR,LAR-EMBA-01,pc-lar-ros-emba-01,10,44
41,LAR,LAR-EMBA-01,pc-lar-ros-emba-01,11,45
41,LAR,LAR-EMBA-01,pc-lar-ros-emba-01,12,8
41,LAR,LAR-EMBA-01,pc-lar-ros-emba-01,13,9
41,LAR,LAR-EMBA-01,pc-lar-ros-emba-01,14,10
41,LAR,LAR-EMBA-01,pc-lar-ros-emba-01,15,11
41,LAR,LAR-EMBA-01,pc-lar-ros-emba-01,16,16
41,LAR,LAR-EMBA-01,pc-lar-ros-emba-01,17,18
41,LAR,LAR-EMBA-01,pc-lar-ros-emba-01,18,34
41,LAR,LAR-EMBA-01,pc-lar-ros-emba-01,19,35
41,LAR,LAR-EMBA-01,pc-lar-ros-emba-01,20,42
41,LAR,LAR-EMBA-01,pc-lar-ros-emba-01,21,43
41,LAR,LAR-EMBA-01,pc-lar-ros-emba-01,22,46
41,LAR,LAR-EMBA-01,pc-lar-ros-emba-01,23,47
41,LAR,LAR-EMBA-02,pc-lar-ros-emba-02,0,36
41,LAR,LAR-EMBA-02,pc-lar-ros-emba-02,1,37
41,LAR,LAR-EMBA-02,pc-lar-ros-emba-02,2,38
41,LAR,LAR-EMBA-02,pc-lar-ros-emba-02,3,39
41,LAR,LAR-EMBA-02,pc-lar-ros-emba-02,4,52
41,LAR,LAR-EMBA-02,pc-lar-ros-emba-02,5,53
41,LAR,LAR-EMBA-02,pc-lar-ros-emba-02,6,54
41,LAR,LAR-EMBA-02,pc-lar-ros-emba-02,7,55
41,LAR,LAR-EMBA-02,pc-lar-ros-emba-02,12,92
41,LAR,LAR-EMBA-02,pc-lar-ros-emba-02,13,93
41,LAR,LAR-EMBA-02,pc-lar-ros-emba-02,14,94
41,LAR,LAR-EMBA-02,pc-lar-ros-emba-02,15,95
41,LAR,LAR-EMBA-02,pc-lar-ros-emba-02,16,108
41,LAR,LAR-EMBA-02,pc-lar-ros-emba-02,17,109
41,LAR,LAR-EMBA-02,pc-lar-ros-emba-02,18,110
41,LAR,LAR-EMBA-02,pc-lar-ros-emba-02,19,111
41,LAR,LAR-EMBA-03,pc-lar-ros-emba-03,0,68
41,LAR,LAR-EMBA-03,pc-lar-ros-emba-03,1,69
41,LAR,LAR-EMBA-03,pc-lar-ros-emba-03,2,57
41,LAR,LAR-EMBA-03,pc-lar-ros-emba-03,3,71
41,LAR,LAR-EMBA-03,pc-lar-ros-emba-03,4,76
41,LAR,LAR-EMBA-03,pc-lar-ros-emba-03,5,77
41,LAR,LAR-EMBA-03,pc-lar-ros-emba-03,6,78
41,LAR,LAR-EMBA-03,pc-lar-ros-emba-03,7,79
41,LAR,LAR-EMBA-03,pc-lar-ros-emba-03,8,84
41,LAR,LAR-EMBA-03,pc-lar-ros-emba-03,9,85
41,LAR,LAR-EMBA-03,pc-lar-ros-emba-03,10,104
41,LAR,LAR-EMBA-03,pc-lar-ros-emba-03,11,105
41,LAR,LAR-EMBA-03,pc-lar-ros-emba-03,12,58
41,LAR,LAR-EMBA-03,pc-lar-ros-emba-03,13,59
41,LAR,LAR-EMBA-03,pc-lar-ros-emba-03,14,73
41,LAR,LAR-EMBA-03,pc-lar-ros-emba-03,15,75
41,LAR,LAR-EMBA-03,pc-lar-ros-emba-03,16,80
41,LAR,LAR-EMBA-03,pc-lar-ros-emba-03,17,81
41,LAR,LAR-EMBA-03,pc-lar-ros-emba-03,18,82
41,LAR,LAR-EMBA-03,pc-lar-ros-emba-03,19,83
41,LAR,LAR-EMBA-03,pc-lar-ros-emba-03,20,86
41,LAR,LAR-EMBA-03,pc-lar-ros-emba-03,21,87
41,LAR,LAR-EMBA-03,pc-lar-ros-emba-03,22,106
41,LAR,LAR-EMBA-03,pc-lar-ros-emba-03,23,107
41,LAR,LAR-EMBA-04,pc-lar-ros-emba-04,0,60
41,LAR,LAR-EMBA-04,pc-lar-ros-emba-04,1,61
41,LAR,LAR-EMBA-04,pc-lar-ros-emba-04,2,62
41,LAR,LAR-EMBA-04,pc-lar-ros-emba-04,3,63
41,LAR,LAR-EMBA-04,pc-lar-ros-emba-04,4,56
41,LAR,LAR-EMBA-04,pc-lar-ros-emba-04,5,70
41,LAR,LAR-EMBA-04,pc-lar-ros-emba-04,6,88
41,LAR,LAR-EMBA-04,pc-lar-ros-emba-04,7,89
41,LAR,LAR-EMBA-04,pc-lar-ros-emba-04,8,96
41,LAR,LAR-EMBA-04,pc-lar-ros-emba-04,9,97
41,LAR,LAR-EMBA-04,pc-lar-ros-emba-04,10,100
41,LAR,LAR-EMBA-04,pc-lar-ros-emba-04,11,101
41,LAR,LAR-EMBA-04,pc-lar-ros-emba-04,12,64
41,LAR,LAR-EMBA-04,pc-lar-ros-emba-04,13,65
41,LAR,LAR-EMBA-04,pc-lar-ros-emba-04,14,66
41,LAR,LAR-EMBA-04,pc-lar-ros-emba-04,15,67
41,LAR,LAR-EMBA-04,pc-lar-ros-emba-04,16,72
41,LAR,LAR-EMBA-04,pc-lar-ros-emba-04,17,74
41,LAR,LAR-EMBA-04,pc-lar-ros-emba-04,18,90
41,LAR,LAR-EMBA-04,pc-lar-ros-emba-04,19,91
41,LAR,LAR-EMBA-04,pc-lar-ros-emba-04,20,98
41,LAR,LAR-EMBA-04,pc-lar-ros-emba-04,21,99
41,LAR,LAR-EMBA-04,pc-lar-ros-emba-04,22,102
41,LAR,LAR-EMBA-04,pc-lar-ros-emba-04,23,103
41,LAR,LAR-EMBA-05,pc-lar-ros-emba-05,0,124
41,LAR,LAR-EMBA-05,pc-lar-ros-emba-05,1,125
41,LAR,LAR-EMBA-05,pc-lar-ros-emba-05,2,113
41,LAR,LAR-EMBA-05,pc-lar-ros-emba-05,3,127
41,LAR,LAR-EMBA-05,pc-lar-ros-emba-05,4,132
41,LAR,LAR-EMBA-05,pc-lar-ros-emba-05,5,133
41,LAR,LAR-EMBA-05,pc-lar-ros-emba-05,6,134
41,LAR,LAR-EMBA-05,pc-lar-ros-emba-05,7,135
41,LAR,LAR-EMBA-05,pc-lar-ros-emba-05,8,140
41,LAR,LAR-EMBA-05,pc-lar-ros-emba-05,9,141
41,LAR,LAR-EMBA-05,pc-lar-ros-emba-05,10,160
41,LAR,LAR-EMBA-05,pc-lar-ros-emba-05,11,161
41,LAR,LAR-EMBA-05,pc-lar-ros-emba-05,12,114
41,LAR,LAR-EMBA-05,pc-lar-ros-emba-05,13,115
41,LAR,LAR-EMBA-05,pc-lar-ros-emba-05,14,129
41,LAR,LAR-EMBA-05,pc-lar-ros-emba-05,15,131
41,LAR,LAR-EMBA-05,pc-lar-ros-emba-05,16,136
41,LAR,LAR-EMBA-05,pc-lar-ros-emba-05,17,137
41,LAR,LAR-EMBA-05,pc-lar-ros-emba-05,18,138
41,LAR,LAR-EMBA-05,pc-lar-ros-emba-05,19,139
41,LAR,LAR-EMBA-05,pc-lar-ros-emba-05,20,142
41,LAR,LAR-EMBA-05,pc-lar-ros-emba-05,21,143
41,LAR,LAR-EMBA-05,pc-lar-ros-emba-05,22,162
41,LAR,LAR-EMBA-05,pc-lar-ros-emba-05,23,163
41,LAR,LAR-EMBA-06,pc-lar-ros-emba-06,0,116
41,LAR,LAR-EMBA-06,pc-lar-ros-emba-06,1,117
41,LAR,LAR-EMBA-06,pc-lar-ros-emba-06,2,118
41,LAR,LAR-EMBA-06,pc-lar-ros-emba-06,3,119
41,LAR,LAR-EMBA-06,pc-lar-ros-emba-06,4,112
41,LAR,LAR-EMBA-06,pc-lar-ros-emba-06,5,126
41,LAR,LAR-EMBA-06,pc-lar-ros-emba-06,6,144
41,LAR,LAR-EMBA-06,pc-lar-ros-emba-06,7,145
41,LAR,LAR-EMBA-06,pc-lar-ros-emba-06,8,152
41,LAR,LAR-EMBA-06,pc-lar-ros-emba-06,9,153
41,LAR,LAR-EMBA-06,pc-lar-ros-emba-06,10,156
41,LAR,LAR-EMBA-06,pc-lar-ros-emba-06,11,157
41,LAR,LAR-EMBA-06,pc-lar-ros-emba-06,12,120
41,LAR,LAR-EMBA-06,pc-lar-ros-emba-06,13,121
41,LAR,LAR-EMBA-06,pc-lar-ros-emba-06,14,122
41,LAR,LAR-EMBA-06,pc-lar-ros-emba-06,15,123
41,LAR,LAR-EMBA-06,pc-lar-ros-emba-06,16,128
41,LAR,LAR-EMBA-06,pc-lar-ros-emba-06,17,130
41,LAR,LAR-EMBA-06,pc-lar-ros-emba-06,18,146
41,LAR,LAR-EMBA-06,pc-lar-ros-emba-06,19,147
41,LAR,LAR-EMBA-06,pc-lar-ros-emba-06,20,154
41,LAR,LAR-EMBA-06,pc-lar-ros-emba-06,21,155
41,LAR,LAR-EMBA-06,pc-lar-ros-emba-06,22,158
41,LAR,LAR-EMBA-06,pc-lar-ros-emba-06,23,159
41,LAR,LAR-EMBA-07,pc-lar-ros-emba-07,0,148
41,LAR,LAR-EMBA-07,pc-lar-ros-emba-07,1,149
41,LAR,LAR-EMBA-07,pc-lar-ros-emba-07,2,150
41,LAR,LAR-EMBA-07,pc-lar-ros-emba-07,3,151
41,LAR,LAR-EMBA-07,pc-lar-ros-emba-07,4,164
41,LAR,LAR-EMBA-07,pc-lar-ros-emba-07,5,165
41,LAR,LAR-EMBA-07,pc-lar-ros-emba-07,6,166
41,LAR,LAR-EMBA-07,pc-lar-ros-emba-07,7,167
41,LAR,LAR-EMBA-07,pc-lar-ros-emba-07,12,204
41,LAR,LAR-EMBA-07,pc-lar-ros-emba-07,13,205
41,LAR,LAR-EMBA-07,pc-lar-ros-emba-07,14,206
41,LAR,LAR-EMBA-07,pc-lar-ros-emba-07,15,207
41,LAR,LAR-EMBA-07,pc-lar-ros-emba-07,16,220
41,LAR,LAR-EMBA-07,pc-lar-ros-emba-07,17,221
41,LAR,LAR-EMBA-07,pc-lar-ros-emba-07,18,222
41,LAR,LAR-EMBA-07,pc-lar-ros-emba-07,19,223
41,LAR,LAR-EMBA-08,pc-lar-ros-emba-08,0,180
41,LAR,LAR-EMBA-08,pc-lar-ros-emba-08,1,181
41,LAR,LAR-EMBA-08,pc-lar-ros-emba-08,2,169
41,LAR,LAR-EMBA-08,pc-lar-ros-emba-08,3,183
41,LAR,LAR-EMBA-08,pc-lar-ros-emba-08,4,188
41,LAR,LAR-EMBA-08,pc-lar-ros-emba-08,5,189
41,LAR,LAR-EMBA-08,pc-lar-ros-emba-08,6,190
41,LAR,LAR-EMBA-08,pc-lar-ros-emba-08,7,191
41,LAR,LAR-EMBA-08,pc-lar-ros-emba-08,8,196
41,LAR,LAR-EMBA-08,pc-lar-ros-emba-08,9,197
41,LAR,LAR-EMBA-08,pc-lar-ros-emba-08,10,216
41,LAR,LAR-EMBA-08,pc-lar-ros-emba-08,11,217
41,LAR,LAR-EMBA-08,pc-lar-ros-emba-08,12,170
41,LAR,LAR-EMBA-08,pc-lar-ros-emba-08,13,171
41,LAR,LAR-EMBA-08,pc-lar-ros-emba-08,14,185
41,LAR,LAR-EMBA-08,pc-lar-ros-emba-08,15,187
41,LAR,LAR-EMBA-08,pc-lar-ros-emba-08,16,192
41,LAR,LAR-EMBA-08,pc-lar-ros-emba-08,17,193
41,LAR,LAR-EMBA-08,pc-lar-ros-emba-08,18,194
41,LAR,LAR-EMBA-08,pc-lar-ros-emba-08,19,195
41,LAR,LAR-EMBA-08,pc-lar-ros-emba-08,20,198
41,LAR,LAR-EMBA-08,pc-lar-ros-emba-08,21,199
41,LAR,LAR-EMBA-08,pc-lar-ros-emba-08,22,218
41,LAR,LAR-EMBA-08,pc-lar-ros-emba-08,23,219
41,LAR,LAR-EMBA-09,pc-lar-ros-emba-09,0,172
41,LAR,LAR-EMBA-09,pc-lar-ros-emba-09,1,173
41,LAR,LAR-EMBA-09,pc-lar-ros-emba-09,2,174
41,LAR,LAR-EMBA-09,pc-lar-ros-emba-09,3,175
41,LAR,LAR-EMBA-09,pc-lar-ros-emba-09,4,168
41,LAR,LAR-EMBA-09,pc-lar-ros-emba-09,5,182
41,LAR,LAR-EMBA-09,pc-lar-ros-emba-09,6,200
41,LAR,LAR-EMBA-09,pc-lar-ros-emba-09,7,201
41,LAR,LAR-EMBA-09,pc-lar-ros-emba-09,8,208
41,LAR,LAR-EMBA-09,pc-lar-ros-emba-09,9,209
41,LAR,LAR-EMBA-09,pc-lar-ros-emba-09,10,212
41,LAR,LAR-EMBA-09,pc-lar-ros-emba-09,11,213
41,LAR,LAR-EMBA-09,pc-lar-ros-emba-09,12,176
41,LAR,LAR-EMBA-09,pc-lar-ros-emba-09,13,177
41,LAR,LAR-EMBA-09,pc-lar-ros-emba-09,14,178
41,LAR,LAR-EMBA-09,pc-lar-ros-emba-09,15,179
41,LAR,LAR-EMBA-09,pc-lar-ros-emba-09,16,184
41,LAR,LAR-EMBA-09,pc-lar-ros-emba-09,17,186
41,LAR,LAR-EMBA-09,pc-lar-ros-emba-09,18,202
41,LAR,LAR-EMBA-09,pc-lar-ros-emba-09,19,203
41,LAR,LAR-EMBA-09,pc-lar-ros-emba-09,20,210
41,LAR,LAR-EMBA-09,pc-lar-ros-emba-09,21,211
41,LAR,LAR-EMBA-09,pc-lar-ros-emba-09,22,214
41,LAR,LAR-EMBA-09,pc-lar-ros-emba-09,23,215
42,LAR,LAR-EMBC-00,pc-lar-ros-embc-00,0,12
42,LAR,LAR-EMBC-00,pc-lar-ros-embc-00,1,13
42,LAR,LAR-EMBC-00,pc-lar-ros-embc-00,2,1
42,LAR,LAR-EMBC-00,pc-lar-ros-embc-00,3,15
42,LAR,LAR-EMBC-00,pc-lar-ros-embc-00,4,20
42,LAR,LAR-EMBC-00,pc-lar-ros-embc-00,5,21
42,LAR,LAR-EMBC-00,pc-lar-ros-embc-00,6,22
42,LAR,LAR-EMBC-00,pc-lar-ros-embc-00,7,23
42,LAR,LAR-EMBC-00,pc-lar-ros-embc-00,8,28
42,LAR,LAR-EMBC-00,pc-lar-ros-embc-00,9,29
42,LAR,LAR-EMBC-00,pc-lar-ros-embc-00,10,48
42,LAR,LAR-EMBC-00,pc-lar-ros-embc-00,11,49
42,LAR,LAR-EMBC-00,pc-lar-ros-embc-00,12,2
42,LAR,LAR-EMBC-00,pc-lar-ros-embc-00,13,3
42,LAR,LAR-EMBC-00,pc-lar-ros-embc-00,14,17
42,LAR,LAR-EMBC-00,pc-lar-ros-embc-00,15,19
42,LAR,LAR-EMBC-00,pc-lar-ros-embc-00,16,24
42,LAR,LAR-EMBC-00,pc-lar-ros-embc-00,17,25
42,LAR,LAR-EMBC-00,pc-lar-ros-embc-00,18,26
42,LAR,LAR-EMBC-00,pc-lar-ros-embc-00,19,27
42,LAR,LAR-EMBC-00,pc-lar-ros-embc-00,20,30
42,LAR,LAR-EMBC-00,pc-lar-ros-embc-00,21,31
42,LAR,LAR-EMBC-00,pc-lar-ros-embc-00,22,50
42,LAR,LAR-EMBC-00,pc-lar-ros-embc-00,23,51
42,LAR,LAR-EMBC-01,pc-lar-ros-embc-01,0,4
42,LAR,LAR-EMBC-01,pc-lar-ros-embc-01,1,5
42,LAR,LAR-EMBC-01,pc-lar-ros-embc-01,2,6
42,LAR,LAR-EMBC-01,pc-lar-ros-embc-01,3,7
42,LAR,LAR-EMBC-01,pc-lar-ros-embc-01,4,0
42,LAR,LAR-EMBC-01,pc-lar-ros-embc-01,5,14
42,LAR,LAR-EMBC-01,pc-lar-ros-embc-01,6,32
42,LAR,LAR-EMBC-01,pc-lar-ros-embc-01,7,33
42,LAR,LAR-EMBC-01,pc-lar-ros-embc-01,8,40
42,LAR,LAR-EMBC-01,pc-lar-ros-embc-01,9,41
42,LAR,LAR-EMBC-01,pc-lar-ros-embc-01,10,44
42,LAR,LAR-EMBC-01,pc-lar-ros-embc-01,11,45
42,LAR,LAR-EMBC-01,pc-lar-ros-embc-01,12,8
42,LAR,LAR-EMBC-01,pc-lar-ros-embc-01,13,9
42,LAR,LAR-EMBC-01,pc-lar-ros-embc-01,14,10
42,LAR,LAR-EMBC-01,pc-lar-ros-embc-01,15,11
42,LAR,LAR-EMBC-01,pc-lar-ros-embc-01,16,16
42,LAR,LAR-EMBC-01,pc-lar-ros-embc-01,17,18
42,LAR,LAR-EMBC-01,pc-lar-ros-embc-01,18,34
42,LAR,LAR-EMBC-01,pc-lar-ros-embc-01,19,35
42,LAR,LAR-EMBC-01,pc-lar-ros-embc-01,20,42
42,LAR,LAR-EMBC-01,pc-lar-ros-embc-01,21,43
42,LAR,LAR-EMBC-01,pc-lar-ros-embc-01,22,46
42,LAR,LAR-EMBC-01,pc-lar-ros-embc-01,23,47
42,LAR,LAR-EMBC-02,pc-lar-ros-embc-02,0,36
42,LAR,LAR-EMBC-02,pc-lar-ros-embc-02,1,37
42,LAR,LAR-EMBC-02,pc-lar-ros-embc-02,2,38
42,LAR,LAR-EMBC-02,pc-lar-ros-embc-02,3,39
42,LAR,LAR-EMBC-02,pc-lar-ros-embc-02,4,52
42,LAR,LAR-EMBC-02,pc-lar-ros-embc-02,5,53
42,LAR,LAR-EMBC-02,pc-lar-ros-embc-02,6,54
42,LAR,LAR-EMBC-02,pc-lar-ros-embc-02,7,55
42,LAR,LAR-EMBC-02,pc-lar-ros-embc-02,12,92
42,LAR,LAR-EMBC-02,pc-lar-ros-embc-02,13,93
42,LAR,LAR-EMBC-02,pc-lar-ros-embc-02,14,94
42,LAR,LAR-EMBC-02,pc-lar-ros-embc-02,15,95
42,LAR,LAR-EMBC-02,pc-lar-ros-embc-02,16,108
42,LAR,LAR-EMBC-02,pc-lar-ros-embc-02,17,109
42,LAR,LAR-EMBC-02,pc-lar-ros-embc-02,18,110
42,LAR,LAR-EMBC-02,pc-lar-ros-embc-02,19,111
42,LAR,LAR-EMBC-03,pc-lar-ros-embc-03,0,68
42,LAR,LAR-EMBC-03,pc-lar-ros-embc-03,1,69
42,LAR,LAR-EMBC-03,pc-lar-ros-embc-03,2,57
42,LAR,LAR-EMBC-03,pc-lar-ros-embc-03,3,71
42,LAR,LAR-EMBC-03,pc-lar-ros-embc-03,4,76
42,LAR,LAR-EMBC-03,pc-lar-ros-embc-03,5,77
42,LAR,LAR-EMBC-03,pc-lar-ros-embc-03,6,78
42,LAR,LAR-EMBC-03,pc-lar-ros-embc-03,7,79
42,LAR,LAR-EMBC-03,pc-lar-ros-embc-03,8,84
42,LAR,LAR-EMBC-03,pc-lar-ros-embc-03,9,85
42,LAR,LAR-EMBC-03,pc-lar-ros-embc-03,10,104
42,LAR,LAR-EMBC-03,pc-lar-ros-embc-03,11,105
42,LAR,LAR-EMBC-03,pc-lar-ros-embc-03,12,58
42,LAR,LAR-EMBC-03,pc-lar-ros-embc-03,13,59
42,LAR,LAR-EMBC-03,pc-lar-ros-embc-03,14,73
42,LAR,LAR-EMBC-03,pc-lar-ros-embc-03,15,75
42,LAR,LAR-EMBC-03,pc-lar-ros-embc-03,16,80
42,LAR,LAR-EMBC-03,pc-lar-ros-embc-03,17,81
42,LAR,LAR-EMBC-03,pc-lar-ros-embc-03,18,82
42,LAR,LAR-EMBC-03,pc-lar-ros-embc-03,19,83
42,LAR,LAR-EMBC-03,pc-lar-ros-embc-03,20,86
42,LAR,LAR-EMBC-03,pc-lar-ros-embc-03,21,87
42,LAR,LAR-EMBC-03,pc-lar-ros-embc-03,22,106
42,LAR,LAR-EMBC-03,pc-lar-ros-embc-03,23,107
42,LAR,LAR-EMBC-04,pc-lar-ros-embc-04,0,60
42,LAR,LAR-EMBC-04,pc-lar-ros-embc-04,1,61
42,LAR,LAR-EMBC-04,pc-lar-ros-embc-04,2,62
42,LAR,LAR-EMBC-04,pc-lar-ros-embc-04,3,63
42,LAR,LAR-EMBC-04,pc-lar-ros-embc-04,4,56
42,LAR,LAR-EMBC-04,pc-lar-ros-embc-04,5,70
42,LAR,LAR-EMBC-04,pc-lar-ros-embc-04,6,88
42,LAR,LAR-EMBC-04,pc-lar-ros-embc-04,7,89
42,LAR,LAR-EMBC-04,pc-lar-ros-embc-04,8,96
42,LAR,LAR-EMBC-04,pc-lar-ros-embc-04,9,97
42,LAR,LAR-EMBC-04,pc-lar-ros-embc-04,10,100
42,LAR,LAR-EMBC-04,pc-lar-ros-embc-04,11,101
42,LAR,LAR-EMBC-04,pc-lar-ros-embc-04,12,64
42,LAR,LAR-EMBC-04,pc-lar-ros-embc-04,13,65
42,LAR,LAR-EMBC-04,pc-lar-ros-embc-04,14,66
42,LAR,LAR-EMBC-04,pc-lar-ros-embc-04,15,67
42,LAR,LAR-EMBC-04,pc-lar-ros-embc-04,16,72
42,LAR,LAR-EMBC-04,pc-lar-ros-embc-04,17,74
42,LAR,LAR-EMBC-04,pc-lar-ros-embc-04,18,90
42,LAR,LAR-EMBC-04,pc-lar-ros-embc-04,19,91
42,LAR,LAR-EMBC-04,pc-lar-ros-embc-04,20,98
42,LAR,LAR-EMBC-04,pc-lar-ros-embc-04,21,99
42,LAR,LAR-EMBC-04,pc-lar-ros-embc-04,22,102
42,LAR,LAR-EMBC-04,pc-lar-ros-embc-04,23,103
42,LAR,LAR-EMBC-05,pc-lar-ros-embc-05,0,124
42,LAR,LAR-EMBC-05,pc-lar-ros-embc-05,1,125
42,LAR,LAR-EMBC-05,pc-lar-ros-embc-05,2,113
42,LAR,LAR-EMBC-05,pc-lar-ros-embc-05,3,127
42,LAR,LAR-EMBC-05,pc-lar-ros-embc-05,4,132
42,LAR,LAR-EMBC-05,pc-lar-ros-embc-05,5,133
42,LAR,LAR-EMBC-05,pc-lar-ros-embc-05,6,134
42,LAR,LAR-EMBC-05,pc-lar-ros-embc-05,7,135
42,LAR,LAR-EMBC-05,pc-lar-ros-embc-05,8,140
42,LAR,LAR-EMBC-05,pc-lar-ros-embc-05,9,141
42,LAR,LAR-EMBC-05,pc-lar-ros-embc-05,10,160
42,LAR,LAR-EMBC-05,pc-lar-ros-embc-05,11,161
42,LAR,LAR-EMBC-05,pc-lar-ros-embc-05,12,114
42,LAR,LAR-EMBC-05,pc-lar-ros-embc-05,13,115
42,LAR,LAR-EMBC-05,pc-lar-ros-embc-05,14,129
42,LAR,LAR-EMBC-05,pc-lar-ros-embc-05,15,131
42,LAR,LAR-EMBC-05,pc-lar-ros-embc-05,16,136
42,LAR,LAR-EMBC-05,pc-lar-ros-embc-05,17,137
42,LAR,LAR-EMBC-05,pc-lar-ros-embc-05,18,138
42,LAR,LAR-EMBC-05,pc-lar-ros-embc-05,19,139
42,LAR,LAR-EMBC-05,pc-lar-ros-embc-05,20,142
42,LAR,LAR-EMBC-05,pc-lar-ros-embc-05,21,143
42,LAR,LAR-EMBC-05,pc-lar-ros-embc-05,22,162
42,LAR,LAR-EMBC-05,pc-lar-ros-embc-05,23,163
42,LAR,LAR-EMBC-06,pc-lar-ros-embc-06,0,116
42,LAR,LAR-EMBC-06,pc-lar-ros-embc-06,1,117
42,LAR,LAR-EMBC-06,pc-lar-ros-embc-06,2,118
42,LAR,LAR-EMBC-06,pc-lar-ros-embc-06,3,119
42,LAR,LAR-EMBC-06,pc-lar-ros-embc-06,4,112
42,LAR,LAR-EMBC-06,pc-lar-ros-embc-06,5,126
42,LAR,LAR-EMBC-06,pc-lar-ros-embc-06,6,144
42,LAR,LAR-EMBC-06,pc-lar-ros-embc-06,7,145
42,LAR,LAR-EMBC-06,pc-lar-ros-embc-06,8,152
42,LAR,LAR-EMBC-06,pc-lar-ros-embc-06,9,153
42,LAR,LAR-EMBC-06,pc-lar-ros-embc-06,10,156
42,LAR,LAR-EMBC-06,pc-lar-ros-embc-06,11,157
42,LAR,LAR-EMBC-06,pc-lar-ros-embc-06,12,120
42,LAR,LAR-EMBC-06,pc-lar-ros-embc-06,13,121
42,LAR,LAR-EMBC-06,pc-lar-ros-embc-06,14,122
42,LAR,LAR-EMBC-06,pc-lar-ros-embc-06,15,123
42,LAR,LAR-EMBC-06,pc-lar-ros-embc-06,16,128
42,LAR,LAR-EMBC-06,pc-lar-ros-embc-06,17,130
42,LAR,LAR-EMBC-06,pc-lar-ros-embc-06,18,146
42,LAR,LAR-EMBC-06,pc-lar-ros-embc-06,19,147
42,LAR,LAR-EMBC-06,pc-lar-ros-embc-06,20,154
42,LAR,LAR-EMBC-06,pc-lar-ros-embc-06,21,155
42,LAR,LAR-EMBC-06,pc-lar-ros-embc-06,22,158
42,LAR,LAR-EMBC-06,pc-lar-ros-embc-06,23,159
42,LAR,LAR-EMBC-07,pc-lar-ros-embc-07,0,148
42,LAR,LAR-EMBC-07,pc-lar-ros-embc-07,1,149
42,LAR,LAR-EMBC-07,pc-lar-ros-embc-07,2,150
42,LAR,LAR-EMBC-07,pc-lar-ros-embc-07,3,151
42,LAR,LAR-EMBC-07,pc-lar-ros-embc-07,4,164
42,LAR,LAR-EMBC-07,pc-lar-ros-embc-07,5,165
42,LAR,LAR-EMBC-07,pc-lar-ros-embc-07,6,166
42,LAR,LAR-EMBC-07,pc-lar-ros-embc-07,7,167
42,LAR,LAR-EMBC-07,pc-lar-ros-embc-07,12,204
42,LAR,LAR-EMBC-07,pc-lar-ros-embc-07,13,205
42,LAR,LAR-EMBC-07,pc-lar-ros-embc-07,14,206
42,LAR,LAR-EMBC-07,pc-lar-ros-embc-07,15,207
42,LAR,LAR-EMBC-07,pc-lar-ros-embc-07,16,220
42,LAR,LAR-EMBC-07,pc-lar-ros-embc-07,17,221
42,LAR,LAR-EMBC-07,pc-lar-ros-embc-07,18,222
42,LAR,LAR-EMBC-07,pc-lar-ros-embc-07,19,223
42,LAR,LAR-EMBC-08,pc-lar-ros-embc-08,0,180
42,LAR,LAR-EMBC-08,pc-lar-ros-embc-08,1,181
42,LAR,LAR-EMBC-08,pc-lar-ros-embc-08,2,169
42,LAR,LAR-EMBC-08,pc-lar-ros-embc-08,3,183
42,LAR,LAR-EMBC-08,pc-lar-ros-embc-08,4,188
42,LAR,LAR-EMBC-08,pc-lar-ros-embc-08,5,189
42,LAR,LAR-EMBC-08,pc-lar-ros-embc-08,6,190
42,LAR,LAR-EMBC-08,pc-lar-ros-embc-08,7,191
42,LAR,LAR-EMBC-08,pc-lar-ros-embc-08,8,196
42,LAR,LAR-EMBC-08,pc-lar-ros-embc-08,9,197
42,LAR,LAR-EMBC-08,pc-lar-ros-embc-08,10,216
42,LAR,LAR-EMBC-08,pc-lar-ros-embc-08,11,217
42,LAR,LAR-EMBC-08,pc-lar-ros-embc-08,12,170
42,LAR,LAR-EMBC-08,pc-lar-ros-embc-08,13,171
42,LAR,LAR-EMBC-08,pc-lar-ros-embc-08,14,185
42,LAR,LAR-EMBC-08,pc-lar-ros-embc-08,15,187
42,LAR,LAR-EMBC-08,pc-lar-ros-embc-08,16,192
42,LAR,LAR-EMBC-08,pc-lar-ros-embc-08,17,193
42,LAR,LAR-EMBC-08,pc-lar-ros-embc-08,18,194
42,LAR,LAR-EMBC-08,pc-lar-ros-embc-08,19,195
42,LAR,LAR-EMBC-08,pc-lar-ros-embc-08,20,198
42,LAR,LAR-EMBC-08,pc-lar-ros-embc-08,21,199
42,LAR,LAR-EMBC-08,pc-lar-ros-embc-08,22,218
42,LAR,LAR-EMBC-08,pc-lar-ros-embc-08,23,219
42,LAR,LAR-EMBC-09,pc-lar-ros-embc-09,0,172
42,LAR,LAR-EMBC-09,pc-lar-ros-embc-09,1,173
42,LAR,LAR-EMBC-09,pc-lar-ros-embc-09,2,174
42,LAR,LAR-EMBC-09,pc-lar-ros-embc-09,3,175
42,LAR,LAR-EMBC-09,pc-lar-ros-embc-09,4,168
42,LAR,LAR-EMBC-09,pc-lar-ros-embc-09,5,182
42,LAR,LAR-EMBC-09,pc-lar-ros-embc-09,6,200
42,LAR,LAR-EMBC-09,pc-lar-ros-embc-09,7,201
42,LAR,LAR-EMBC-09,pc-lar-ros-embc-09,8,208
42,LAR,LAR-EMBC-09,pc-lar-ros-embc-09,9,209
42,LAR,LAR-EMBC-09,pc-lar-ros-embc-09,10,212
42,LAR,LAR-EMBC-09,pc-lar-ros-embc-09,11,213
42,LAR,LAR-EMBC-09,pc-lar-ros-embc-09,12,176
42,LAR,LAR-EMBC-09,pc-lar-ros-embc-09,13,177
42,LAR,LAR-EMBC-09,pc-lar-ros-embc-09,14,178
42,LAR,LAR-EMBC-09,pc-lar-ros-embc-09,15,179
42,LAR,LAR-EMBC-09,pc-lar-ros-embc-09,16,184
42,LAR,LAR-EMBC-09,pc-lar-ros-embc-09,17,186
42,LAR,LAR-EMBC-09,pc-lar-ros-embc-09,18,202
42,LAR,LAR-EMBC-09,pc-lar-ros-embc-09,19,203
42,LAR,LAR-EMBC-09,pc-lar-ros-embc-09,20,210
42,LAR,LAR-EMBC-09,pc-lar-ros-embc-09,21,211
42,LAR,LAR-EMBC-09,pc-lar-ros-embc-09,22,214
42,LAR,LAR-EMBC-09,pc-lar-ros-embc-09,23,215
43,LAR,LAR-EMECA-00,pc-lar-ros-emeca-00,0,0
43,LAR,LAR-EMECA-00,pc-lar-ros-emeca-00,1,1
43,LAR,LAR-EMECA-00,pc-lar-ros-emeca-00,2,36
43,LAR,LAR-EMECA-00,pc-lar-ros-emeca-00,3,37
43,LAR,LAR-EMECA-00,pc-lar-ros-emeca-00,4,38
43,LAR,LAR-EMECA-00,pc-lar-ros-emeca-00,5,39
43,LAR,LAR-EMECA-00,pc-lar-ros-emeca-00,6,104
43,LAR,LAR-EMECA-00,pc-lar-ros-emeca-00,7,106
43,LAR,LAR-EMECA-00,pc-lar-ros-emeca-00,8,108
43,LAR,LAR-EMECA-00,pc-lar-ros-emeca-00,9,109
43,LAR,LAR-EMECA-00,pc-lar-ros-emeca-00,10,120
43,LAR,LAR-EMECA-00,pc-lar-ros-emeca-00,11,121
43,LAR,LAR-EMECA-00,pc-lar-ros-emeca-00,12,2
43,LAR,LAR-EMECA-00,pc-lar-ros-emeca-00,13,3
43,LAR,LAR-EMECA-00,pc-lar-ros-emeca-00,14,40
43,LAR,LAR-EMECA-00,pc-lar-ros-emeca-00,15,41
43,LAR,LAR-EMECA-00,pc-lar-ros-emeca-00,16,42
43,LAR,LAR-EMECA-00,pc-lar-ros-emeca-00,17,43
43,LAR,LAR-EMECA-00,pc-lar-ros-emeca-00,18,110
43,LAR,LAR-EMECA-00,pc-lar-ros-emeca-00,19,111
43,LAR,LAR-EMECA-00,pc-lar-ros-emeca-00,20,122
43,LAR,LAR-EMECA-00,pc-lar-ros-emeca-00,21,123
43,LAR,LAR-EMECA-00,pc-lar-ros-emeca-00,22,105
43,LAR,LAR-EMECA-01,pc-lar-ros-emeca-01,0,4
43,LAR,LAR-EMECA-01,pc-lar-ros-emeca-01,1,5
43,LAR,LAR-EMECA-01,pc-lar-ros-emeca-01,2,6
43,LAR,LAR-EMECA-01,pc-lar-ros-emeca-01,3,7
43,LAR,LAR-EMECA-01,pc-lar-ros-emeca-01,4,8
43,LAR,LAR-EMECA-01,pc-lar-ros-emeca-01,5,9
43,LAR,LAR-EMECA-01,pc-lar-ros-emeca-01,6,10
43,LAR,LAR-EMECA-01,pc-lar-ros-emeca-01,7,11
43,LAR,LAR-EMECA-01,pc-lar-ros-emeca-01,8,28
43,LAR,LAR-EMECA-01,pc-lar-ros-emeca-01,9,29
43,LAR,LAR-EMECA-01,pc-lar-ros-emeca-01,10,30
43,LAR,LAR-EMECA-01,pc-lar-ros-emeca-01,11,31
43,LAR,LAR-EMECA-01,pc-lar-ros-emeca-01,12,12
43,LAR,LAR-EMECA-01,pc-lar-ros-emeca-01,13,13
43,LAR,LAR-EMECA-01,pc-lar-ros-emeca-01,14,14
43,LAR,LAR-EMECA-01,pc-lar-ros-emeca-01,15,15
43,LAR,LAR-EMECA-01,pc-lar-ros-emeca-01,16,16
43,LAR,LAR-EMECA-01,pc-lar-ros-emeca-01,17,17
43,LAR,LAR-EMECA-01,pc-lar-ros-emeca-01,18,18
43,LAR,LAR-EMECA-01,pc-lar-ros-emeca-01,19,19
43,LAR,LAR-EMECA-01,pc-lar-ros-emeca-01,20,32
43,LAR,LAR-EMECA-01,pc-lar-ros-emeca-01,21,33
43,LAR,LAR-EMECA-01,pc-lar-ros-emeca-01,22,34
43,LAR,LAR-EMECA-01,pc-lar-ros-emeca-01,23,35
43,LAR,LAR-EMECA-02,pc-lar-ros-emeca-02,0,20
43,LAR,LAR-EMECA-02,pc-lar-ros-emeca-02,1,21
43,LAR,LAR-EMECA-02,pc-lar-ros-emeca-02,2,22
43,LAR,LAR-EMECA-02,pc-lar-ros-emeca-02,3,23
43,LAR,LAR-EMECA-02,pc-lar-ros-emeca-02,4,44
43,LAR,LAR-EMECA-02,pc-lar-ros-emeca-02,5,45
43,LAR,LAR-EMECA-02,pc-lar-ros-emeca-02,6,46
43,LAR,LAR-EMECA-02,pc-lar-ros-emeca-02,7,47
43,LAR,LAR-EMECA-02,pc-lar-ros-emeca-02,8,125
43,LAR,LAR-EMECA-02,pc-lar-ros-emeca-02,9,124
43,LAR,LAR-EMECA-02,pc-lar-ros-emeca-02,10,119
43,LAR,LAR-EMECA-02,pc-lar-ros-emeca-02,12,24
43,LAR,LAR-EMECA-02,pc-lar-ros-emeca-02,13,25
43,LAR,LAR-EMECA-02,pc-lar-ros-emeca-02,14,26
43,LAR,LAR-EMECA-02,pc-lar-ros-emeca-02,15,27
43,LAR,LAR-EMECA-02,pc-lar-ros-emeca-02,16,48
43,LAR,LAR-EMECA-02,pc-lar-ros-emeca-02,17,49
43,LAR,LAR-EMECA-02,pc-lar-ros-emeca-02,18,50
43,LAR,LAR-EMECA-02,pc-lar-ros-emeca-02,19,51
43,LAR,LAR-EMECA-02,pc-lar-ros-emeca-02,20,116
43,LAR,LAR-EMECA-02,pc-lar-ros-emeca-02,21,118
43,LAR,LAR-EMECA-02,pc-lar-ros-emeca-02,22,117
43,LAR,LAR-EMECA-03,pc-lar-ros-emeca-03,0,52
43,LAR,LAR-EMECA-03,pc-lar-ros-emeca-03,1,53
43,LAR,LAR-EMECA-03,pc-lar-ros-emeca-03,2,88
43,LAR,LAR-EMECA-03,pc-lar-ros-emeca-03,3,89
43,LAR,LAR-EMECA-03,pc-lar-ros-emeca-03,4,90
43,LAR,LAR-EMECA-03,pc-lar-ros-emeca-03,5,91
43,LAR,LAR-EMECA-03,pc-lar-ros-emeca-03,6,134
43,LAR,LAR-EMECA-03,pc-lar-ros-emeca-03,7,56
43,LAR,LAR-EMECA-03,pc-lar-ros-emeca-03,8,112
43,LAR,LAR-EMECA-03,pc-lar-ros-emeca-03,9,113
43,LAR,LAR-EMECA-03,pc-lar-ros-emeca-03,10,129
43,LAR,LAR-EMECA-03,pc-lar-ros-emeca-03,11,128
43,LAR,LAR-EMECA-03,pc-lar-ros-emeca-03,12,54
43,LAR,LAR-EMECA-03,pc-lar-ros-emeca-03,13,55
43,LAR,LAR-EMECA-03,pc-lar-ros-emeca-03,14,92
43,LAR,LAR-EMECA-03,pc-lar-ros-emeca-03,15,93
43,LAR,LAR-EMECA-03,pc-lar-ros-emeca-03,16,94
43,LAR,LAR-EMECA-03,pc-lar-ros-emeca-03,17,95
43,LAR,LAR-EMECA-03,pc-lar-ros-emeca-03,18,114
43,LAR,LAR-EMECA-03,pc-lar-ros-emeca-03,19,115
43,LAR,LAR-EMECA-03,pc-lar-ros-emeca-03,20,126
43,LAR,LAR-EMECA-03,pc-lar-ros-emeca-03,21,127
43,LAR,LAR-EMECA-03,pc-lar-ros-emeca-03,22,135
43,LAR,LAR-EMECA-04,pc-lar-ros-emeca-04,0,107
43,LAR,LAR-EMECA-04,pc-lar-ros-emeca-04,1,57
43,LAR,LAR-EMECA-04,pc-lar-ros-emeca-04,2,58
43,LAR,LAR-EMECA-04,pc-lar-ros-emeca-04,3,59
43,LAR,LAR-EMECA-04,pc-lar-ros-emeca-04,4,60
43,LAR,LAR-EMECA-04,pc-lar-ros-emeca-04,5,61
43,LAR,LAR-EMECA-04,pc-lar-ros-emeca-04,6,62
43,LAR,LAR-EMECA-04,pc-lar-ros-emeca-04,7,63
43,LAR,LAR-EMECA-04,pc-lar-ros-emeca-04,8,80
43,LAR,LAR-EMECA-04,pc-lar-ros-emeca-04,9,81
43,LAR,LAR-EMECA-04,pc-lar-ros-emeca-04,10,82
43,LAR,LAR-EMECA-04,pc-lar-ros-emeca-04,11,83
43,LAR,LAR-EMECA-04,pc-lar-ros-emeca-04,12,64
43,LAR,LAR-EMECA-04,pc-lar-ros-emeca-04,13,65
43,LAR,LAR-EMECA-04,pc-lar-ros-emeca-04,14,66
43,LAR,LAR-EMECA-04,pc-lar-ros-emeca-04,15,67
43,LAR,LAR-EMECA-04,pc-lar-ros-emeca-04,16,68
43,LAR,LAR-EMECA-04,pc-lar-ros-emeca-04,17,69
43,LAR,LAR-EMECA-04,pc-lar-ros-emeca-04,18,70
43,LAR,LAR-EMECA-04,pc-lar-ros-emeca-04,19,71
43,LAR,LAR-EMECA-04,pc-lar-ros-emeca-04,20,84
43,LAR,LAR-EMECA-04,pc-lar-ros-emeca-04,21,85
43,LAR,LAR-EMECA-04,pc-lar-ros-emeca-04,22,86
43,LAR,LAR-EMECA-04,pc-lar-ros-emeca-04,23,87
43,LAR,LAR-EMECA-05,pc-lar-ros-emeca-05,0,72
43,LAR,LAR-EMECA-05,pc-lar-ros-emeca-05,1,73
43,LAR,LAR-EMECA-05,pc-lar-ros-emeca-05,2,74
43,LAR,LAR-EMECA-05,pc-lar-ros-emeca-05,3,75
43,LAR,LAR-EMECA-05,pc-lar-ros-emeca-05,4,96
43,LAR,LAR-EMECA-05,pc-lar-ros-emeca-05,5,97
43,LAR,LAR-EMECA-05,pc-lar-ros-emeca-05,6,98
43,LAR,LAR-EMECA-05,pc-lar-ros-emeca-05,7,99
43,LAR,LAR-EMECA-05,pc-lar-ros-emeca-05,8,130
43,LAR,LAR-EMECA-05,pc-lar-ros-emeca-05,9,131
43,LAR,LAR-EMECA-05,pc-lar-ros-emeca-05,10,133
43,LAR,LAR-EMECA-05,pc-lar-ros-emeca-05,12,76
43,LAR,LAR-EMECA-05,pc-lar-ros-emeca-05,13,77
43,LAR,LAR-EMECA-05,pc-lar-ros-emeca-05,14,78
43,LAR,LAR-EMECA-05,pc-lar-ros-emeca-05,15,79
43,LAR,LAR-EMECA-05,pc-lar-ros-emeca-05,16,100
43,LAR,LAR-EMECA-05,pc-lar-ros-emeca-05,17,101
43,LAR,LAR-EMECA-05,pc-lar-ros-emeca-05,18,102
43,LAR,LAR-EMECA-05,pc-lar-ros-emeca-05,19,103
43,LAR,LAR-EMECA-05,pc-lar-ros-emeca-05,20,136
43,LAR,LAR-EMECA-05,pc-lar-ros-emeca-05,21,132
43,LAR,LAR-EMECA-05,pc-lar-ros-emeca-05,22,137
44,LAR,LAR-EMECC-00,pc-lar-ros-emecc-00,0,0
44,LAR,LAR-EMECC-00,pc-lar-ros-emecc-00,1,1
44,LAR,LAR-EMECC-00,pc-lar-ros-emecc-00,2,37
44,LAR,LAR-EMECC-00,pc-lar-ros-emecc-00,3,38
44,LAR,LAR-EMECC-00,pc-lar-ros-emecc-00,4,39
44,LAR,LAR-EMECC-00,pc-lar-ros-emecc-00,5,40
44,LAR,LAR-EMECC-00,pc-lar-ros-emecc-00,6,104
44,LAR,LAR-EMECC-00,pc-lar-ros-emecc-00,7,106
44,LAR,LAR-EMECC-00,pc-lar-ros-emecc-00,8,108
44,LAR,LAR-EMECC-00,pc-lar-ros-emecc-00,9,109
44,LAR,LAR-EMECC-00,pc-lar-ros-emecc-00,10,120
44,LAR,LAR-EMECC-00,pc-lar-ros-emecc-00,11,121
44,LAR,LAR-EMECC-00,pc-lar-ros-emecc-00,12,2
44,LAR,LAR-EMECC-00,pc-lar-ros-emecc-00,13,3
44,LAR,LAR-EMECC-00,pc-lar-ros-emecc-00,14,41
44,LAR,LAR-EMECC-00,pc-lar-ros-emecc-00,15,42
44,LAR,LAR-EMECC-00,pc-lar-ros-emecc-00,16,43
44,LAR,LAR-EMECC-00,pc-lar-ros-emecc-00,17,88
44,LAR,LAR-EMECC-00,pc-lar-ros-emecc-00,18,110
44,LAR,LAR-EMECC-00,pc-lar-ros-emecc-00,19,111
44,LAR,LAR-EMECC-00,pc-lar-ros-emecc-00,20,122
44,LAR,LAR-EMECC-00,pc-lar-ros-emecc-00,21,123
44,LAR,LAR-EMECC-00,pc-lar-ros-emecc-00,22,105
44,LAR,LAR-EMECC-01,pc-lar-ros-emecc-01,0,4
44,LAR,LAR-EMECC-01,pc-lar-ros-emecc-01,1,5
44,LAR,LAR-EMECC-01,pc-lar-ros-emecc-01,2,6
44,LAR,LAR-EMECC-01,pc-lar-ros-emecc-01,3,7
44,LAR,LAR-EMECC-01,pc-lar-ros-emecc-01,4,8
44,LAR,LAR-EMECC-01,pc-lar-ros-emecc-01,5,9
44,LAR,LAR-EMECC-01,pc-lar-ros-emecc-01,6,10
44,LAR,LAR-EMECC-01,pc-lar-ros-emecc-01,7,11
44,LAR,LAR-EMECC-01,pc-lar-ros-emecc-01,8,28
44,LAR,LAR-EMECC-01,pc-lar-ros-emecc-01,9,29
44,LAR,LAR-EMECC-01,pc-lar-ros-emecc-01,10,30
44,LAR,LAR-EMECC-01,pc-lar-ros-emecc-01,11,31
44,LAR,LAR-EMECC-01,pc-lar-ros-emecc-01,12,12
44,LAR,LAR-EMECC-01,pc-lar-ros-emecc-01,13,13
44,LAR,LAR-EMECC-01,pc-lar-ros-emecc-01,14,14
44,LAR,LAR-EMECC-01,pc-lar-ros-emecc-01,15,15
44,LAR,LAR-EMECC-01,pc-lar-ros-emecc-01,16,16
44,LAR,LAR-EMECC-01,pc-lar-ros-emecc-01,17,17
44,LAR,LAR-EMECC-01,pc-lar-ros-emecc-01,18,18
44,LAR,LAR-EMECC-01,pc-lar-ros-emecc-01,19,19
44,LAR,LAR-EMECC-01,pc-lar-ros-emecc-01,20,32
44,LAR,LAR-EMECC-01,pc-lar-ros-emecc-01,21,33
44,LAR,LAR-EMECC-01,pc-lar-ros-emecc-01,22,34
44,LAR,LAR-EMECC-01,pc-lar-ros-emecc-01,23,35
44,LAR,LAR-EMECC-02,pc-lar-ros-emecc-02,0,21
44,LAR,LAR-EMECC-02,pc-lar-ros-emecc-02,1,22
44,LAR,LAR-EMECC-02,pc-lar-ros-emecc-02,2,23
44,LAR,LAR-EMECC-02,pc-lar-ros-emecc-02,3,24
44,LAR,LAR-EMECC-02,pc-lar-ros-emecc-02,4,45
44,LAR,LAR-EMECC-02,pc-lar-ros-emecc-02,5,46
44,LAR,LAR-EMECC-02,pc-lar-ros-emecc-02,6,47
44,LAR,LAR-EMECC-02,pc-lar-ros-emecc-02,7,48
44,LAR,LAR-EMECC-02,pc-lar-ros-emecc-02,8,125
44,LAR,LAR-EMECC-02,pc-lar-ros-emecc-02,9,124
44,LAR,LAR-EMECC-02,pc-lar-ros-emecc-02,10,119
44,LAR,LAR-EMECC-02,pc-lar-ros-emecc-02,12,25
44,LAR,LAR-EMECC-02,pc-lar-ros-emecc-02,13,26
44,LAR,LAR-EMECC-02,pc-lar-ros-emecc-02,14,27
44,LAR,LAR-EMECC-02,pc-lar-ros-emecc-02,15,49
44,LAR,LAR-EMECC-02,pc-lar-ros-emecc-02,16,50
44,LAR,LAR-EMECC-02,pc-lar-ros-emecc-02,17,51
44,LAR,LAR-EMECC-02,pc-lar-ros-emecc-02,18,72
44,LAR,LAR-EMECC-02,pc-lar-ros-emecc-02,19,96
44,LAR,LAR-EMECC-02,pc-lar-ros-emecc-02,20,116
44,LAR,LAR-EMECC-02,pc-lar-ros-emecc-02,21,118
44,LAR,LAR-EMECC-02,pc-lar-ros-emecc-02,22,117
44,LAR,LAR-EMECC-03,pc-lar-ros-emecc-03,0,52
44,LAR,LAR-EMECC-03,pc-lar-ros-emecc-03,1,53
44,LAR,LAR-EMECC-03,pc-lar-ros-emecc-03,2,89
44,LAR,LAR-EMECC-03,pc-lar-ros-emecc-03,3,90
44,LAR,LAR-EMECC-03,pc-lar-ros-emecc-03,4,91
44,LAR,LAR-EMECC-03,pc-lar-ros-emecc-03,5,92
44,LAR,LAR-EMECC-03,pc-lar-ros-emecc-03,6,134
44,LAR,LAR-EMECC-03,pc-lar-ros-emecc-03,7,56
44,LAR,LAR-EMECC-03,pc-lar-ros-emecc-03,8,112
44,LAR,LAR-EMECC-03,pc-lar-ros-emecc-03,9,113
44,LAR,LAR-EMECC-03,pc-lar-ros-emecc-03,10,129
44,LAR,LAR-EMECC-03,pc-lar-ros-emecc-03,11,128
44,LAR,LAR-EMECC-03,pc-lar-ros-emecc-03,12,36
44,LAR,LAR-EMECC-03,pc-lar-ros-emecc-03,13,54
44,LAR,LAR-EMECC-03,pc-lar-ros-emecc-03,14,55
44,LAR,LAR-EMECC-03,pc-lar-ros-emecc-03,15,93
44,LAR,LAR-EMECC-03,pc-lar-ros-emecc-03,16,94
44,LAR,LAR-EMECC-03,pc-lar-ros-emecc-03,17,95
44,LAR,LAR-EMECC-03,pc-lar-ros-emecc-03,18,114
44,LAR,LAR-EMECC-03,pc-lar-ros-emecc-03,19,115
44,LAR,LAR-EMECC-03,pc-lar-ros-emecc-03,20,126
44,LAR,LAR-EMECC-03,pc-lar-ros-emecc-03,21,127
44,LAR,LAR-EMECC-03,pc-lar-ros-emecc-03,22,135
44,LAR,LAR-EMECC-04,pc-lar-ros-emecc-04,0,107
44,LAR,LAR-EMECC-04,pc-lar-ros-emecc-04,1,57
44,LAR,LAR-EMECC-04,pc-lar-ros-emecc-04,2,58
44,LAR,LAR-EMECC-04,pc-lar-ros-emecc-04,3,59
44,LAR,LAR-EMECC-04,pc-lar-ros-emecc-04,4,60
44,LAR,LAR-EMECC-04,pc-lar-ros-emecc-04,5,61
44,LAR,LAR-EMECC-04,pc-lar-ros-emecc-04,6,62
44,LAR,LAR-EMECC-04,pc-lar-ros-emecc-04,7,63
44,LAR,LAR-EMECC-04,pc-lar-ros-emecc-04,8,80
44,LAR,LAR-EMECC-04,pc-lar-ros-emecc-04,9,81
44,LAR,LAR-EMECC-04,pc-lar-ros-emecc-04,10,82
44,LAR,LAR-EMECC-04,pc-lar-ros-emecc-04,11,83
44,LAR,LAR-EMECC-04,pc-lar-ros-emecc-04,12,64
44,LAR,LAR-EMECC-04,pc-lar-ros-emecc-04,13,65
44,LAR,LAR-EMECC-04,pc-lar-ros-emecc-04,14,66
44,LAR,LAR-EMECC-04,pc-lar-ros-emecc-04,15,67
44,LAR,LAR-EMECC-04,pc-lar-ros-emecc-04,16,68
44,LAR,LAR-EMECC-04,pc-lar-ros-emecc-04,17,69
44,LAR,LAR-EMECC-04,pc-lar-ros-emecc-04,18,70
44,LAR,LAR-EMECC-04,pc-lar-ros-emecc-04,19,71
44,LAR,LAR-EMECC-04,pc-lar-ros-emecc-04,20,84
44,LAR,LAR-EMECC-04,pc-lar-ros-emecc-04,21,85
44,LAR,LAR-EMECC-04,pc-lar-ros-emecc-04,22,86
44,LAR,LAR-EMECC-04,pc-lar-ros-emecc-04,23,87
44,LAR,LAR-EMECC-05,pc-lar-ros-emecc-05,0,73
44,LAR,LAR-EMECC-05,pc-lar-ros-emecc-05,1,74
44,LAR,LAR-EMECC-05,pc-lar-ros-emecc-05,2,75
44,LAR,LAR-EMECC-05,pc-lar-ros-emecc-05,3,76
44,LAR,LAR-EMECC-05,pc-lar-ros-emecc-05,4,97
44,LAR,LAR-EMECC-05,pc-lar-ros-emecc-05,5,98
44,LAR,LAR-EMECC-05,pc-lar-ros-emecc-05,6,99
44,LAR,LAR-EMECC-05,pc-lar-ros-emecc-05,7,100
44,LAR,LAR-EMECC-05,pc-lar-ros-emecc-05,8,130
44,LAR,LAR-EMECC-05,pc-lar-ros-emecc-05,9,131
44,LAR,LAR-EMECC-05,pc-lar-ros-emecc-05,10,133
44,LAR,LAR-EMECC-05,pc-lar-ros-emecc-05,12,20
44,LAR,LAR-EMECC-05,pc-lar-ros-emecc-05,13,44
44,LAR,LAR-EMECC-05,pc-lar-ros-emecc-05,14,77
44,LAR,LAR-EMECC-05,pc-lar-ros-emecc-05,15,78
44,LAR,LAR-EMECC-05,pc-lar-ros-emecc-05,16,79
44,LAR,LAR-EMECC-05,pc-lar-ros-emecc-05,17,101
44,LAR,LAR-EMECC-05,pc-lar-ros-emecc-05,18,102
44,LAR,LAR-EMECC-05,pc-lar-ros-emecc-05,19,103
44,LAR,LAR-EMECC-05,pc-lar-ros-emecc-05,20,136
44,LAR,LAR-EMECC-05,pc-lar-ros-emecc-05,21,132
44,LAR,LAR-EMECC-05,pc-lar-ros-emecc-05,22,137
45,LAR,LAR-HECFCAL-00,pc-lar-ros-hecfcal-00,0,0
45,LAR,LAR-HECFCAL-00,pc-lar-ros-hecfcal-00,1,1
45,LAR,LAR-HECFCAL-00,pc-lar-ros-hecfcal-00,2,2
45,LAR,LAR-HECFCAL-00,pc-lar-ros-hecfcal-00,3,3
45,LAR,LAR-HECFCAL-00,pc-lar-ros-hecfcal-00,4,4
45,LAR,LAR-HECFCAL-00,pc-lar-ros-hecfcal-00,5,5
45,LAR,LAR-HECFCAL-00,pc-lar-ros-hecfcal-00,6,6
45,LAR,LAR-HECFCAL-00,pc-lar-ros-hecfcal-00,7,7
45,LAR,LAR-HECFCAL-00,pc-lar-ros-hecfcal-00,8,8
45,LAR,LAR-HECFCAL-00,pc-lar-ros-hecfcal-00,9,9
45,LAR,LAR-HECFCAL-00,pc-lar-ros-hecfcal-00,10,10
45,LAR,LAR-HECFCAL-00,pc-lar-ros-hecfcal-00,11,11
46,LAR,LAR-HECFCAL-00,pc-lar-ros-hecfcal-00,12,0
46,LAR,LAR-HECFCAL-00,pc-lar-ros-hecfcal-00,13,1
46,LAR,LAR-HECFCAL-00,pc-lar-ros-hecfcal-00,14,2
46,LAR,LAR-HECFCAL-00,pc-lar-ros-hecfcal-00,15,3
46,LAR,LAR-HECFCAL-00,pc-lar-ros-hecfcal-00,16,4
46,LAR,LAR-HECFCAL-00,pc-lar-ros-hecfcal-00,17,5
46,LAR,LAR-HECFCAL-00,pc-lar-ros-hecfcal-00,18,6
46,LAR,LAR-HECFCAL-00,pc-lar-ros-hecfcal-00,19,7
46,LAR,LAR-HECFCAL-00,pc-lar-ros-hecfcal-00,20,8
46,LAR,LAR-HECFCAL-00,pc-lar-ros-hecfcal-00,21,9
46,LAR,LAR-HECFCAL-00,pc-lar-ros-hecfcal-00,22,10
46,LAR,LAR-HECFCAL-00,pc-lar-ros-hecfcal-00,23,11
47,LAR,LAR-HECFCAL-01,pc-lar-ros-hecfcal-01,0,0
47,LAR,LAR-HECFCAL-01,pc-lar-ros-hecfcal-01,1,1
47,LAR,LAR-HECFCAL-01,pc-lar-ros-hecfcal-01,2,2
47,LAR,LAR-HECFCAL-01,pc-lar-ros-hecfcal-01,3,3
47,LAR,LAR-HECFCAL-01,pc-lar-ros-hecfcal-01,4,4
47,LAR,LAR-HECFCAL-01,pc-lar-ros-hecfcal-01,5,5
47,LAR,LAR-HECFCAL-01,pc-lar-ros-hecfcal-01,6,6
48,LAR,LAR-HECFCAL-01,pc-lar-ros-hecfcal-01,12,0
48,LAR,LAR-HECFCAL-01,pc-lar-ros-hecfcal-01,13,1
48,LAR,LAR-HECFCAL-01,pc-lar-ros-hecfcal-01,14,2
48,LAR,LAR-HECFCAL-01,pc-lar-ros-hecfcal-01,15,3
48,LAR,LAR-HECFCAL-01,pc-lar-ros-hecfcal-01,16,4
48,LAR,LAR-HECFCAL-01,pc-lar-ros-hecfcal-01,17,5
48,LAR,LAR-HECFCAL-01,pc-lar-ros-hecfcal-01,18,6
61,MDT,MDT-BA-00,pc-mdt-ros-ba-00,0,0
61,MDT,MDT-BA-00,pc-mdt-ros-ba-00,1,1
61,MDT,MDT-BA-00,pc-mdt-ros-ba-00,2,8
61,MDT,MDT-BA-00,pc-mdt-ros-ba-00,3,9
61,MDT,MDT-BA-00,pc-mdt-ros-ba-00,4,16
61,MDT,MDT-BA-00,pc-mdt-ros-ba-00,5,17
61,MDT,MDT-BA-00,pc-mdt-ros-ba-00,6,24
61,MDT,MDT-BA-00,pc-mdt-ros-ba-00,7,25
61,MDT,MDT-BA-00,pc-mdt-ros-ba-00,8,32
61,MDT,MDT-BA-00,pc-mdt-ros-ba-00,9,33
61,MDT,MDT-BA-00,pc-mdt-ros-ba-00,10,40
61,MDT,MDT-BA-00,pc-mdt-ros-ba-00,11,41
61,MDT,MDT-BA-00,pc-mdt-ros-ba-00,12,2
61,MDT,MDT-BA-00,pc-mdt-ros-ba-00,13,3
61,MDT,MDT-BA-00,pc-mdt-ros-ba-00,14,10
61,MDT,MDT-BA-00,pc-mdt-ros-ba-00,15,11
61,MDT,MDT-BA-00,pc-mdt-ros-ba-00,16,18
61,MDT,MDT-BA-00,pc-mdt-ros-ba-00,17,19
61,MDT,MDT-BA-00,pc-mdt-ros-ba-00,18,26
61,MDT,MDT-BA-00,pc-mdt-ros-ba-00,19,27
61,MDT,MDT-BA-00,pc-mdt-ros-ba-00,20,34
61,MDT,MDT-BA-00,pc-mdt-ros-ba-00,21,35
61,MDT,MDT-BA-00,pc-mdt-ros-ba-00,22,42
61,MDT,MDT-BA-00,pc-mdt-ros-ba-00,23,43
61,MDT,MDT-BA-01,pc-mdt-ros-ba-01,0,4
61,MDT,MDT-BA-01,pc-mdt-ros-ba-01,1,5
61,MDT,MDT-BA-01,pc-mdt-ros-ba-01,2,12
61,MDT,MDT-BA-01,pc-mdt-ros-ba-01,3,13
61,MDT,MDT-BA-01,pc-mdt-ros-ba-01,4,20
61,MDT,MDT-BA-01,pc-mdt-ros-ba-01,5,21
61,MDT,MDT-BA-01,pc-mdt-ros-ba-01,6,28
61,MDT,MDT-BA-01,pc-mdt-ros-ba-01,7,29
61,MDT,MDT-BA-01,pc-mdt-ros-ba-01,8,36
61,MDT,MDT-BA-01,pc-mdt-ros-ba-01,9,37
61,MDT,MDT-BA-01,pc-mdt-ros-ba-01,10,44
61,MDT,MDT-BA-01,pc-mdt-ros-ba-01,11,45
61,MDT,MDT-BA-01,pc-mdt-ros-ba-01,12,6
61,MDT,MDT-BA-01,pc-mdt-ros-ba-01,13,7
61,MDT,MDT-BA-01,pc-mdt-ros-ba-01,14,14
61,MDT,MDT-BA-01,pc-mdt-ros-ba-01,15,15
61,MDT,MDT-BA-01,pc-mdt-ros-ba-01,16,22
61,MDT,MDT-BA-01,pc-mdt-ros-ba-01,17,23
61,MDT,MDT-BA-01,pc-mdt-ros-ba-01,18,30
61,MDT,MDT-BA-01,pc-mdt-ros-ba-01,19,31
61,MDT,MDT-BA-01,pc-mdt-ros-ba-01,20,38
61,MDT,MDT-BA-01,pc-mdt-ros-ba-01,21,39
61,MDT,MDT-BA-01,pc-mdt-ros-ba-01,22,46
61,MDT,MDT-BA-01,pc-mdt-ros-ba-01,23,47
61,MDT,MDT-BA-02,pc-mdt-ros-ba-02,0,48
61,MDT,MDT-BA-02,pc-mdt-ros-ba-02,1,49
61,MDT,MDT-BA-02,pc-mdt-ros-ba-02,2,128
61,MDT,MDT-BA-02,pc-mdt-ros-ba-02,3,50
61,MDT,MDT-BA-02,pc-mdt-ros-ba-02,4,51
62,MDT,MDT-BC-00,pc-mdt-ros-bc-00,0,0
62,MDT,MDT-BC-00,pc-mdt-ros-bc-00,1,1
62,MDT,MDT-BC-00,pc-mdt-ros-bc-00,2,8
62,MDT,MDT-BC-00,pc-mdt-ros-bc-00,3,9
62,MDT,MDT-BC-00,pc-mdt-ros-bc-00,4,16
62,MDT,MDT-BC-00,pc-mdt-ros-bc-00,5,17
62,MDT,MDT-BC-00,pc-mdt-ros-bc-00,6,24
62,MDT,MDT-BC-00,pc-mdt-ros-bc-00,7,25
62,MDT,MDT-BC-00,pc-mdt-ros-bc-00,8,32
62,MDT,MDT-BC-00,pc-mdt-ros-bc-00,9,33
62,MDT,MDT-BC-00,pc-mdt-ros-bc-00,10,40
62,MDT,MDT-BC-00,pc-mdt-ros-bc-00,11,41
62,MDT,MDT-BC-00,pc-mdt-ros-bc-00,12,2
62,MDT,MDT-BC-00,pc-mdt-ros-bc-00,13,3
62,MDT,MDT-BC-00,pc-mdt-ros-bc-00,14,10
62,MDT,MDT-BC-00,pc-mdt-ros-bc-00,15,11
62,MDT,MDT-BC-00,pc-mdt-ros-bc-00,16,18
62,MDT,MDT-BC-00,pc-mdt-ros-bc-00,17,19
62,MDT,MDT-BC-00,pc-mdt-ros-bc-00,18,26
62,MDT,MDT-BC-00,pc-mdt-ros-bc-00,19,27
62,MDT,MDT-BC-00,pc-mdt-ros-bc-00,20,34
62,MDT,MDT-BC-00,pc-mdt-ros-bc-00,21,35
62,MDT,MDT-BC-00,pc-mdt-ros-bc-00,22,42
62,MDT,MDT-BC-00,pc-mdt-ros-bc-00,23,43
62,MDT,MDT-BC-01,pc-mdt-ros-bc-01,0,4
62,MDT,MDT-BC-01,pc-mdt-ros-bc-01,1,5
62,MDT,MDT-BC-01,pc-mdt-ros-bc-01,2,12
62,MDT,MDT-BC-01,pc-mdt-ros-bc-01,3,13
62,MDT,MDT-BC-01,pc-mdt-ros-bc-01,4,20
62,MDT,MDT-BC-01,pc-mdt-ros-bc-01,5,21
62,MDT,MDT-BC-01,pc-mdt-ros-bc-01,6,28
62,MDT,MDT-BC-01,pc-mdt-ros-bc-01,7,29
62,MDT,MDT-BC-01,pc-mdt-ros-bc-01,8,36
62,MDT,MDT-BC-01,pc-mdt-ros-bc-01,9,37
62,MDT,MDT-BC-01,pc-mdt-ros-bc-01,10,44
62,MDT,MDT-BC-01,pc-mdt-ros-bc-01,11,45
62,MDT,MDT-BC-01,pc-mdt-ros-bc-01,12,6
62,MDT,MDT-BC-01,pc-mdt-ros-bc-01,13,7
62,MDT,MDT-BC-01,pc-mdt-ros-bc-01,14,14
62,MDT,MDT-BC-01,pc-mdt-ros-bc-01,15,15
62,MDT,MDT-BC-01,pc-mdt-ros-bc-01,16,22
62,MDT,MDT-BC-01,pc-mdt-ros-bc-01,17,23
62,MDT,MDT-BC-01,pc-mdt-ros-bc-01,18,30
62,MDT,MDT-BC-01,pc-mdt-ros-bc-01,19,31
62,MDT,MDT-BC-01,pc-mdt-ros-bc-01,20,38
62,MDT,MDT-BC-01,pc-mdt-ros-bc-01,21,39
62,MDT,MDT-BC-01,pc-mdt-ros-bc-01,22,46
62,MDT,MDT-BC-01,pc-mdt-ros-bc-01,23,47
62,MDT,MDT-BC-02,pc-mdt-ros-bc-02,0,48
62,MDT,MDT-BC-02,pc-mdt-ros-bc-02,1,49
62,MDT,MDT-BC-02,pc-mdt-ros-bc-02,2,128
62,MDT,MDT-BC-02,pc-mdt-ros-bc-02,3,50
62,MDT,MDT-BC-02,pc-mdt-ros-bc-02,4,51
63,MDT,MDT-ECA-00,pc-mdt-ros-eca-00,0,17
63,MDT,MDT-ECA-00,pc-mdt-ros-eca-00,1,24
63,MDT,MDT-ECA-00,pc-mdt-ros-eca-00,2,25
63,MDT,MDT-ECA-00,pc-mdt-ros-eca-00,3,32
63,MDT,MDT-ECA-00,pc-mdt-ros-eca-00,4,33
63,MDT,MDT-ECA-00,pc-mdt-ros-eca-00,5,40
63,MDT,MDT-ECA-00,pc-mdt-ros-eca-00,6,41
63,MDT,MDT-ECA-00,pc-mdt-ros-eca-00,7,81
63,MDT,MDT-ECA-00,pc-mdt-ros-eca-00,8,88
63,MDT,MDT-ECA-00,pc-mdt-ros-eca-00,9,89
63,MDT,MDT-ECA-00,pc-mdt-ros-eca-00,10,96
63,MDT,MDT-ECA-00,pc-mdt-ros-eca-00,11,97
63,MDT,MDT-ECA-00,pc-mdt-ros-eca-00,12,19
63,MDT,MDT-ECA-00,pc-mdt-ros-eca-00,13,26
63,MDT,MDT-ECA-00,pc-mdt-ros-eca-00,14,27
63,MDT,MDT-ECA-00,pc-mdt-ros-eca-00,15,34
63,MDT,MDT-ECA-00,pc-mdt-ros-eca-00,16,35
63,MDT,MDT-ECA-00,pc-mdt-ros-eca-00,17,42
63,MDT,MDT-ECA-00,pc-mdt-ros-eca-00,18,43
63,MDT,MDT-ECA-00,pc-mdt-ros-eca-00,19,83
63,MDT,MDT-ECA-00,pc-mdt-ros-eca-00,20,90
63,MDT,MDT-ECA-00,pc-mdt-ros-eca-00,21,91
63,MDT,MDT-ECA-00,pc-mdt-ros-eca-00,22,98
63,MDT,MDT-ECA-00,pc-mdt-ros-eca-00,23,99
63,MDT,MDT-ECA-01,pc-mdt-ros-eca-01,0,21
63,MDT,MDT-ECA-01,pc-mdt-ros-eca-01,1,28
63,MDT,MDT-ECA-01,pc-mdt-ros-eca-01,2,29
63,MDT,MDT-ECA-01,pc-mdt-ros-eca-01,3,36
63,MDT,MDT-ECA-01,pc-mdt-ros-eca-01,4,37
63,MDT,MDT-ECA-01,pc-mdt-ros-eca-01,5,44
63,MDT,MDT-ECA-01,pc-mdt-ros-eca-01,6,45
63,MDT,MDT-ECA-01,pc-mdt-ros-eca-01,7,85
63,MDT,MDT-ECA-01,pc-mdt-ros-eca-01,8,92
63,MDT,MDT-ECA-01,pc-mdt-ros-eca-01,9,93
63,MDT,MDT-ECA-01,pc-mdt-ros-eca-01,10,100
63,MDT,MDT-ECA-01,pc-mdt-ros-eca-01,11,101
63,MDT,MDT-ECA-01,pc-mdt-ros-eca-01,12,23
63,MDT,MDT-ECA-01,pc-mdt-ros-eca-01,13,30
63,MDT,MDT-ECA-01,pc-mdt-ros-eca-01,14,31
63,MDT,MDT-ECA-01,pc-mdt-ros-eca-01,15,38
63,MDT,MDT-ECA-01,pc-mdt-ros-eca-01,16,39
63,MDT,MDT-ECA-01,pc-mdt-ros-eca-01,17,46
63,MDT,MDT-ECA-01,pc-mdt-ros-eca-01,18,47
63,MDT,MDT-ECA-01,pc-mdt-ros-eca-01,19,87
63,MDT,MDT-ECA-01,pc-mdt-ros-eca-01,20,94
63,MDT,MDT-ECA-01,pc-mdt-ros-eca-01,21,95
63,MDT,MDT-ECA-01,pc-mdt-ros-eca-01,22,102
63,MDT,MDT-ECA-01,pc-mdt-ros-eca-01,23,103
63,MDT,MDT-ECA-02,pc-mdt-ros-eca-02,0,48
63,MDT,MDT-ECA-02,pc-mdt-ros-eca-02,1,0
63,MDT,MDT-ECA-02,pc-mdt-ros-eca-02,2,1
63,MDT,MDT-ECA-02,pc-mdt-ros-eca-02,3,8
63,MDT,MDT-ECA-02,pc-mdt-ros-eca-02,4,9
63,MDT,MDT-ECA-02,pc-mdt-ros-eca-02,5,16
63,MDT,MDT-ECA-02,pc-mdt-ros-eca-02,6,49
63,MDT,MDT-ECA-02,pc-mdt-ros-eca-02,7,2
63,MDT,MDT-ECA-02,pc-mdt-ros-eca-02,8,3
63,MDT,MDT-ECA-02,pc-mdt-ros-eca-02,9,112
63,MDT,MDT-ECA-02,pc-mdt-ros-eca-02,10,80
63,MDT,MDT-ECA-02,pc-mdt-ros-eca-02,11,113
63,MDT,MDT-ECA-02,pc-mdt-ros-eca-02,12,10
63,MDT,MDT-ECA-02,pc-mdt-ros-eca-02,13,11
63,MDT,MDT-ECA-02,pc-mdt-ros-eca-02,14,18
63,MDT,MDT-ECA-02,pc-mdt-ros-eca-02,15,50
63,MDT,MDT-ECA-02,pc-mdt-ros-eca-02,16,4
63,MDT,MDT-ECA-02,pc-mdt-ros-eca-02,17,5
63,MDT,MDT-ECA-02,pc-mdt-ros-eca-02,18,12
63,MDT,MDT-ECA-02,pc-mdt-ros-eca-02,19,13
63,MDT,MDT-ECA-02,pc-mdt-ros-eca-02,20,20
63,MDT,MDT-ECA-02,pc-mdt-ros-eca-02,21,82
63,MDT,MDT-ECA-02,pc-mdt-ros-eca-02,22,114
63,MDT,MDT-ECA-02,pc-mdt-ros-eca-02,23,84
63,MDT,MDT-ECA-03,pc-mdt-ros-eca-03,0,51
63,MDT,MDT-ECA-03,pc-mdt-ros-eca-03,1,6
63,MDT,MDT-ECA-03,pc-mdt-ros-eca-03,2,7
63,MDT,MDT-ECA-03,pc-mdt-ros-eca-03,3,14
63,MDT,MDT-ECA-03,pc-mdt-ros-eca-03,4,15
63,MDT,MDT-ECA-03,pc-mdt-ros-eca-03,5,22
63,MDT,MDT-ECA-03,pc-mdt-ros-eca-03,6,115
63,MDT,MDT-ECA-03,pc-mdt-ros-eca-03,7,86
64,MDT,MDT-ECC-00,pc-mdt-ros-ecc-00,0,23
64,MDT,MDT-ECC-00,pc-mdt-ros-ecc-00,1,30
64,MDT,MDT-ECC-00,pc-mdt-ros-ecc-00,2,31
64,MDT,MDT-ECC-00,pc-mdt-ros-ecc-00,3,38
64,MDT,MDT-ECC-00,pc-mdt-ros-ecc-00,4,39
64,MDT,MDT-ECC-00,pc-mdt-ros-ecc-00,5,46
64,MDT,MDT-ECC-00,pc-mdt-ros-ecc-00,6,47
64,MDT,MDT-ECC-00,pc-mdt-ros-ecc-00,7,87
64,MDT,MDT-ECC-00,pc-mdt-ros-ecc-00,8,94
64,MDT,MDT-ECC-00,pc-mdt-ros-ecc-00,9,95
64,MDT,MDT-ECC-00,pc-mdt-ros-ecc-00,10,102
64,MDT,MDT-ECC-00,pc-mdt-ros-ecc-00,11,103
64,MDT,MDT-ECC-00,pc-mdt-ros-ecc-00,12,17
64,MDT,MDT-ECC-00,pc-mdt-ros-ecc-00,13,24
64,MDT,MDT-ECC-00,pc-mdt-ros-ecc-00,14,25
64,MDT,MDT-ECC-00,pc-mdt-ros-ecc-00,15,32
64,MDT,MDT-ECC-00,pc-mdt-ros-ecc-00,16,33
64,MDT,MDT-ECC-00,pc-mdt-ros-ecc-00,17,40
64,MDT,MDT-ECC-00,pc-mdt-ros-ecc-00,18,41
64,MDT,MDT-ECC-00,pc-mdt-ros-ecc-00,19,81
64,MDT,MDT-ECC-00,pc-mdt-ros-ecc-00,20,88
64,MDT,MDT-ECC-00,pc-mdt-ros-ecc-00,21,89
64,MDT,MDT-ECC-00,pc-mdt-ros-ecc-00,22,96
64,MDT,MDT-ECC-00,pc-mdt-ros-ecc-00,23,97
64,MDT,MDT-ECC-01,pc-mdt-ros-ecc-01,0,19
64,MDT,MDT-ECC-01,pc-mdt-ros-ecc-01,1,26
64,MDT,MDT-ECC-01,pc-mdt-ros-ecc-01,2,27
64,MDT,MDT-ECC-01,pc-mdt-ros-ecc-01,3,34
64,MDT,MDT-ECC-01,pc-mdt-ros-ecc-01,4,35
64,MDT,MDT-ECC-01,pc-mdt-ros-ecc-01,5,42
64,MDT,MDT-ECC-01,pc-mdt-ros-ecc-01,6,43
64,MDT,MDT-ECC-01,pc-mdt-ros-ecc-01,7,83
64,MDT,MDT-ECC-01,pc-mdt-ros-ecc-01,8,90
64,MDT,MDT-ECC-01,pc-mdt-ros-ecc-01,9,91
64,MDT,MDT-ECC-01,pc-mdt-ros-ecc-01,10,98
64,MDT,MDT-ECC-01,pc-mdt-ros-ecc-01,11,99
64,MDT,MDT-ECC-01,pc-mdt-ros-ecc-01,12,21
64,MDT,MDT-ECC-01,pc-mdt-ros-ecc-01,13,28
64,MDT,MDT-ECC-01,pc-mdt-ros-ecc-01,14,29
64,MDT,MDT-ECC-01,pc-mdt-ros-ecc-01,15,36
64,MDT,MDT-ECC-01,pc-mdt-ros-ecc-01,16,37
64,MDT,MDT-ECC-01,pc-mdt-ros-ecc-01,17,44
64,MDT,MDT-ECC-01,pc-mdt-ros-ecc-01,18,45
64,MDT,MDT-ECC-01,pc-mdt-ros-ecc-01,19,85
64,MDT,MDT-ECC-01,pc-mdt-ros-ecc-01,20,92
64,MDT,MDT-ECC-01,pc-mdt-ros-ecc-01,21,93
64,MDT,MDT-ECC-01,pc-mdt-ros-ecc-01,22,100
64,MDT,MDT-ECC-01,pc-mdt-ros-ecc-01,23,101
64,MDT,MDT-ECC-02,pc-mdt-ros-ecc-02,0,51
64,MDT,MDT-ECC-02,pc-mdt-ros-ecc-02,1,6
64,MDT,MDT-ECC-02,pc-mdt-ros-ecc-02,2,7
64,MDT,MDT-ECC-02,pc-mdt-ros-ecc-02,3,14
64,MDT,MDT-ECC-02,pc-mdt-ros-ecc-02,4,15
64,MDT,MDT-ECC-02,pc-mdt-ros-ecc-02,5,22
64,MDT,MDT-ECC-02,pc-mdt-ros-ecc-02,6,48
64,MDT,MDT-ECC-02,pc-mdt-ros-ecc-02,7,0
64,MDT,MDT-ECC-02,pc-mdt-ros-ecc-02,8,1
64,MDT,MDT-ECC-02,pc-mdt-ros-ecc-02,9,115
64,MDT,MDT-ECC-02,pc-mdt-ros-ecc-02,10,86
64,MDT,MDT-ECC-02,pc-mdt-ros-ecc-02,11,112
64,MDT,MDT-ECC-02,pc-mdt-ros-ecc-02,12,8
64,MDT,MDT-ECC-02,pc-mdt-ros-ecc-02,13,9
64,MDT,MDT-ECC-02,pc-mdt-ros-ecc-02,14,16
64,MDT,MDT-ECC-02,pc-mdt-ros-ecc-02,15,49
64,MDT,MDT-ECC-02,pc-mdt-ros-ecc-02,16,2
64,MDT,MDT-ECC-02,pc-mdt-ros-ecc-02,17,3
64,MDT,MDT-ECC-02,pc-mdt-ros-ecc-02,18,10
64,MDT,MDT-ECC-02,pc-mdt-ros-ecc-02,19,11
64,MDT,MDT-ECC-02,pc-mdt-ros-ecc-02,20,18
64,MDT,MDT-ECC-02,pc-mdt-ros-ecc-02,21,80
64,MDT,MDT-ECC-02,pc-mdt-ros-ecc-02,22,113
64,MDT,MDT-ECC-02,pc-mdt-ros-ecc-02,23,82
64,MDT,MDT-ECC-03,pc-mdt-ros-ecc-03,0,50
64,MDT,MDT-ECC-03,pc-mdt-ros-ecc-03,1,4
64,MDT,MDT-ECC-03,pc-mdt-ros-ecc-03,2,5
64,MDT,MDT-ECC-03,pc-mdt-ros-ecc-03,3,12
64,MDT,MDT-ECC-03,pc-mdt-ros-ecc-03,4,13
64,MDT,MDT-ECC-03,pc-mdt-ros-ecc-03,5,20
64,MDT,MDT-ECC-03,pc-mdt-ros-ecc-03,6,114
64,MDT,MDT-ECC-03,pc-mdt-ros-ecc-03,7,84
11,PIX,PIX-B-00,pc-pix-ros-b-00,0,5896
11,PIX,PIX-B-00,pc-pix-ros-b-00,1,5904
11,PIX,PIX-B-00,pc-pix-ros-b-00,2,5906
11,PIX,PIX-B-00,pc-pix-ros-b-00,3,5960
11,PIX,PIX-B-00,pc-pix-ros-b-00,4,5968
11,PIX,PIX-B-00,pc-pix-ros-b-00,5,5970
11,PIX,PIX-B-00,pc-pix-ros-b-00,6,9495
11,PIX,PIX-B-00,pc-pix-ros-b-00,7,9497
11,PIX,PIX-B-00,pc-pix-ros-b-00,8,9559
11,PIX,PIX-B-00,pc-pix-ros-b-00,9,9561
11,PIX,PIX-B-00,pc-pix-ros-b-00,12,5909
11,PIX,PIX-B-00,pc-pix-ros-b-00,13,5911
11,PIX,PIX-B-00,pc-pix-ros-b-00,14,5973
11,PIX,PIX-B-00,pc-pix-ros-b-00,15,6162
11,PIX,PIX-B-00,pc-pix-ros-b-00,16,6224
11,PIX,PIX-B-00,pc-pix-ros-b-00,17,6226
11,PIX,PIX-B-00,pc-pix-ros-b-00,18,9222
11,PIX,PIX-B-00,pc-pix-ros-b-00,19,9224
11,PIX,PIX-B-00,pc-pix-ros-b-00,20,9286
11,PIX,PIX-B-00,pc-pix-ros-b-00,21,9505
11,PIX,PIX-B-00,pc-pix-ros-b-00,22,9569
11,PIX,PIX-B-01,pc-pix-ros-b-01,0,5895
11,PIX,PIX-B-01,pc-pix-ros-b-01,1,5897
11,PIX,PIX-B-01,pc-pix-ros-b-01,2,5905
11,PIX,PIX-B-01,pc-pix-ros-b-01,3,5959
11,PIX,PIX-B-01,pc-pix-ros-b-01,4,5961
11,PIX,PIX-B-01,pc-pix-ros-b-01,5,5969
11,PIX,PIX-B-01,pc-pix-ros-b-01,6,9494
11,PIX,PIX-B-01,pc-pix-ros-b-01,7,9496
11,PIX,PIX-B-01,pc-pix-ros-b-01,8,9558
11,PIX,PIX-B-01,pc-pix-ros-b-01,9,9560
11,PIX,PIX-B-01,pc-pix-ros-b-01,12,5908
11,PIX,PIX-B-01,pc-pix-ros-b-01,13,5910
11,PIX,PIX-B-01,pc-pix-ros-b-01,14,5972
11,PIX,PIX-B-01,pc-pix-ros-b-01,15,6161
11,PIX,PIX-B-01,pc-pix-ros-b-01,16,6217
11,PIX,PIX-B-01,pc-pix-ros-b-01,17,6225
11,PIX,PIX-B-01,pc-pix-ros-b-01,18,9221
11,PIX,PIX-B-01,pc-pix-ros-b-01,19,9223
11,PIX,PIX-B-01,pc-pix-ros-b-01,20,9285
11,PIX,PIX-B-01,pc-pix-ros-b-01,21,9504
11,PIX,PIX-B-01,pc-pix-ros-b-01,22,9568
11,PIX,PIX-B-02,pc-pix-ros-b-02,0,5921
11,PIX,PIX-B-02,pc-pix-ros-b-02,1,5977
11,PIX,PIX-B-02,pc-pix-ros-b-02,2,5985
11,PIX,PIX-B-02,pc-pix-ros-b-02,3,6169
11,PIX,PIX-B-02,pc-pix-ros-b-02,4,6177
11,PIX,PIX-B-02,pc-pix-ros-b-02,5,6233
11,PIX,PIX-B-02,pc-pix-ros-b-02,6,6241
11,PIX,PIX-B-02,pc-pix-ros-b-02,7,9241
11,PIX,PIX-B-02,pc-pix-ros-b-02,8,9249
11,PIX,PIX-B-02,pc-pix-ros-b-02,9,9305
11,PIX,PIX-B-02,pc-pix-ros-b-02,10,9313
11,PIX,PIX-B-02,pc-pix-ros-b-02,12,5894
11,PIX,PIX-B-02,pc-pix-ros-b-02,13,5958
11,PIX,PIX-B-02,pc-pix-ros-b-02,14,6150
11,PIX,PIX-B-02,pc-pix-ros-b-02,15,6152
11,PIX,PIX-B-02,pc-pix-ros-b-02,16,6160
11,PIX,PIX-B-02,pc-pix-ros-b-02,17,6214
11,PIX,PIX-B-02,pc-pix-ros-b-02,18,6216
11,PIX,PIX-B-02,pc-pix-ros-b-02,19,9490
11,PIX,PIX-B-02,pc-pix-ros-b-02,20,9493
11,PIX,PIX-B-02,pc-pix-ros-b-02,21,9554
11,PIX,PIX-B-02,pc-pix-ros-b-02,22,9557
11,PIX,PIX-B-03,pc-pix-ros-b-03,0,5920
11,PIX,PIX-B-03,pc-pix-ros-b-03,1,5976
11,PIX,PIX-B-03,pc-pix-ros-b-03,2,5984
11,PIX,PIX-B-03,pc-pix-ros-b-03,3,6168
11,PIX,PIX-B-03,pc-pix-ros-b-03,4,6176
11,PIX,PIX-B-03,pc-pix-ros-b-03,5,6232
11,PIX,PIX-B-03,pc-pix-ros-b-03,6,6240
11,PIX,PIX-B-03,pc-pix-ros-b-03,7,9240
11,PIX,PIX-B-03,pc-pix-ros-b-03,8,9248
11,PIX,PIX-B-03,pc-pix-ros-b-03,9,9304
11,PIX,PIX-B-03,pc-pix-ros-b-03,10,9312
11,PIX,PIX-B-03,pc-pix-ros-b-03,12,5893
11,PIX,PIX-B-03,pc-pix-ros-b-03,13,5957
11,PIX,PIX-B-03,pc-pix-ros-b-03,14,6149
11,PIX,PIX-B-03,pc-pix-ros-b-03,15,6151
11,PIX,PIX-B-03,pc-pix-ros-b-03,16,6153
11,PIX,PIX-B-03,pc-pix-ros-b-03,17,6213
11,PIX,PIX-B-03,pc-pix-ros-b-03,18,6215
11,PIX,PIX-B-03,pc-pix-ros-b-03,19,9489
11,PIX,PIX-B-03,pc-pix-ros-b-03,20,9492
11,PIX,PIX-B-03,pc-pix-ros-b-03,21,9553
11,PIX,PIX-B-03,pc-pix-ros-b-03,22,9556
11,PIX,PIX-B-04,pc-pix-ros-b-04,0,6165
11,PIX,PIX-B-04,pc-pix-ros-b-04,1,6229
11,PIX,PIX-B-04,pc-pix-ros-b-04,2,6231
11,PIX,PIX-B-04,pc-pix-ros-b-04,3,9232
11,PIX,PIX-B-04,pc-pix-ros-b-04,4,9234
11,PIX,PIX-B-04,pc-pix-ros-b-04,5,9288
11,PIX,PIX-B-04,pc-pix-ros-b-04,6,9296
11,PIX,PIX-B-04,pc-pix-ros-b-04,7,9298
11,PIX,PIX-B-04,pc-pix-ros-b-04,8,9477
11,PIX,PIX-B-04,pc-pix-ros-b-04,9,9541
11,PIX,PIX-B-04,pc-pix-ros-b-04,10,9545
11,PIX,PIX-B-04,pc-pix-ros-b-04,12,5913
11,PIX,PIX-B-04,pc-pix-ros-b-04,13,5975
11,PIX,PIX-B-04,pc-pix-ros-b-04,14,6167
11,PIX,PIX-B-04,pc-pix-ros-b-04,15,9237
11,PIX,PIX-B-04,pc-pix-ros-b-04,16,9239
11,PIX,PIX-B-04,pc-pix-ros-b-04,17,9301
11,PIX,PIX-B-04,pc-pix-ros-b-04,18,9303
11,PIX,PIX-B-04,pc-pix-ros-b-04,19,9479
11,PIX,PIX-B-04,pc-pix-ros-b-04,20,9481
11,PIX,PIX-B-04,pc-pix-ros-b-04,21,9543
11,PIX,PIX-B-05,pc-pix-ros-b-05,0,6164
11,PIX,PIX-B-05,pc-pix-ros-b-05,1,6228
11,PIX,PIX-B-05,pc-pix-ros-b-05,2,6230
11,PIX,PIX-B-05,pc-pix-ros-b-05,3,9225
11,PIX,PIX-B-05,pc-pix-ros-b-05,4,9233
11,PIX,PIX-B-05,pc-pix-ros-b-05,5,9287
11,PIX,PIX-B-05,pc-pix-ros-b-05,6,9289
11,PIX,PIX-B-05,pc-pix-ros-b-05,7,9297
11,PIX,PIX-B-05,pc-pix-ros-b-05,8,9478
11,PIX,PIX-B-05,pc-pix-ros-b-05,9,9542
11,PIX,PIX-B-05,pc-pix-ros-b-05,10,9552
11,PIX,PIX-B-05,pc-pix-ros-b-05,12,5912
11,PIX,PIX-B-05,pc-pix-ros-b-05,13,5974
11,PIX,PIX-B-05,pc-pix-ros-b-05,14,6166
11,PIX,PIX-B-05,pc-pix-ros-b-05,15,9236
11,PIX,PIX-B-05,pc-pix-ros-b-05,16,9238
11,PIX,PIX-B-05,pc-pix-ros-b-05,17,9300
11,PIX,PIX-B-05,pc-pix-ros-b-05,18,9302
11,PIX,PIX-B-05,pc-pix-ros-b-05,19,9480
11,PIX,PIX-B-05,pc-pix-ros-b-05,20,9488
11,PIX,PIX-B-05,pc-pix-ros-b-05,21,9544
13,PIX,PIX-BL-00,pc-pix-ros-bl-00,0,264
13,PIX,PIX-BL-00,pc-pix-ros-bl-00,1,337
13,PIX,PIX-BL-00,pc-pix-ros-bl-00,2,273
13,PIX,PIX-BL-00,pc-pix-ros-bl-00,3,274
13,PIX,PIX-BL-00,pc-pix-ros-bl-00,4,338
13,PIX,PIX-BL-00,pc-pix-ros-bl-00,5,342
13,PIX,PIX-BL-00,pc-pix-ros-bl-00,6,278
13,PIX,PIX-BL-00,pc-pix-ros-bl-00,7,279
13,PIX,PIX-BL-00,pc-pix-ros-bl-00,8,343
13,PIX,PIX-BL-00,pc-pix-ros-bl-00,9,352
13,PIX,PIX-BL-00,pc-pix-ros-bl-00,10,288
13,PIX,PIX-BL-00,pc-pix-ros-bl-00,12,592
13,PIX,PIX-BL-00,pc-pix-ros-bl-00,13,528
13,PIX,PIX-BL-00,pc-pix-ros-bl-00,14,529
13,PIX,PIX-BL-00,pc-pix-ros-bl-00,15,593
13,PIX,PIX-BL-00,pc-pix-ros-bl-00,16,594
13,PIX,PIX-BL-00,pc-pix-ros-bl-00,17,289
13,PIX,PIX-BL-00,pc-pix-ros-bl-00,18,353
13,PIX,PIX-BL-00,pc-pix-ros-bl-00,19,325
13,PIX,PIX-BL-00,pc-pix-ros-bl-00,20,261
13,PIX,PIX-BL-00,pc-pix-ros-bl-00,21,534
13,PIX,PIX-BL-00,pc-pix-ros-bl-00,22,598
13,PIX,PIX-BL-01,pc-pix-ros-bl-01,0,530
13,PIX,PIX-BL-01,pc-pix-ros-bl-01,1,532
13,PIX,PIX-BL-01,pc-pix-ros-bl-01,2,596
13,PIX,PIX-BL-01,pc-pix-ros-bl-01,3,597
13,PIX,PIX-BL-01,pc-pix-ros-bl-01,4,533
13,PIX,PIX-BL-01,pc-pix-ros-bl-01,5,262
13,PIX,PIX-BL-01,pc-pix-ros-bl-01,6,326
13,PIX,PIX-BL-01,pc-pix-ros-bl-01,7,329
13,PIX,PIX-BL-01,pc-pix-ros-bl-01,8,265
13,PIX,PIX-BL-01,pc-pix-ros-bl-01,9,272
13,PIX,PIX-BL-01,pc-pix-ros-bl-01,10,336
13,PIX,PIX-BL-01,pc-pix-ros-bl-01,12,327
13,PIX,PIX-BL-01,pc-pix-ros-bl-01,13,263
13,PIX,PIX-BL-01,pc-pix-ros-bl-01,14,328
13,PIX,PIX-BL-01,pc-pix-ros-bl-01,15,340
13,PIX,PIX-BL-01,pc-pix-ros-bl-01,16,276
13,PIX,PIX-BL-01,pc-pix-ros-bl-01,17,277
13,PIX,PIX-BL-01,pc-pix-ros-bl-01,18,341
13,PIX,PIX-BL-01,pc-pix-ros-bl-01,19,344
13,PIX,PIX-BL-01,pc-pix-ros-bl-01,20,280
13,PIX,PIX-BL-01,pc-pix-ros-bl-01,21,281
13,PIX,PIX-BL-01,pc-pix-ros-bl-01,22,345
12,PIX,PIX-DISK-00,pc-pix-ros-disk-00,0,777
12,PIX,PIX-DISK-00,pc-pix-ros-disk-00,1,841
12,PIX,PIX-DISK-00,pc-pix-ros-disk-00,2,785
12,PIX,PIX-DISK-00,pc-pix-ros-disk-00,3,849
12,PIX,PIX-DISK-00,pc-pix-ros-disk-00,4,788
12,PIX,PIX-DISK-00,pc-pix-ros-disk-00,5,852
12,PIX,PIX-DISK-00,pc-pix-ros-disk-00,6,790
12,PIX,PIX-DISK-00,pc-pix-ros-disk-00,7,854
12,PIX,PIX-DISK-00,pc-pix-ros-disk-00,12,5705
12,PIX,PIX-DISK-00,pc-pix-ros-disk-00,13,5713
12,PIX,PIX-DISK-00,pc-pix-ros-disk-00,14,5716
12,PIX,PIX-DISK-00,pc-pix-ros-disk-00,15,5718
12,PIX,PIX-DISK-00,pc-pix-ros-disk-00,16,5654
12,PIX,PIX-DISK-00,pc-pix-ros-disk-00,17,5652
12,PIX,PIX-DISK-00,pc-pix-ros-disk-00,18,5649
12,PIX,PIX-DISK-00,pc-pix-ros-disk-00,19,5641
12,PIX,PIX-DISK-01,pc-pix-ros-disk-01,0,5648
12,PIX,PIX-DISK-01,pc-pix-ros-disk-01,1,5650
12,PIX,PIX-DISK-01,pc-pix-ros-disk-01,2,5653
12,PIX,PIX-DISK-01,pc-pix-ros-disk-01,3,5655
12,PIX,PIX-DISK-01,pc-pix-ros-disk-01,4,5712
12,PIX,PIX-DISK-01,pc-pix-ros-disk-01,5,5714
12,PIX,PIX-DISK-01,pc-pix-ros-disk-01,6,5717
12,PIX,PIX-DISK-01,pc-pix-ros-disk-01,7,5719
12,PIX,PIX-DISK-01,pc-pix-ros-disk-01,12,784
12,PIX,PIX-DISK-01,pc-pix-ros-disk-01,13,848
12,PIX,PIX-DISK-01,pc-pix-ros-disk-01,14,786
12,PIX,PIX-DISK-01,pc-pix-ros-disk-01,15,850
12,PIX,PIX-DISK-01,pc-pix-ros-disk-01,16,789
12,PIX,PIX-DISK-01,pc-pix-ros-disk-01,17,853
12,PIX,PIX-DISK-01,pc-pix-ros-disk-01,18,791
12,PIX,PIX-DISK-01,pc-pix-ros-disk-01,19,855
65,RPC,RPC-BA-00,pc-rpc-ros-ba-00,0,0
65,RPC,RPC-BA-00,pc-rpc-ros-ba-00,1,1
65,RPC,RPC-BA-00,pc-rpc-ros-ba-00,2,2
65,RPC,RPC-BA-00,pc-rpc-ros-ba-00,3,3
65,RPC,RPC-BA-00,pc-rpc-ros-ba-00,4,4
65,RPC,RPC-BA-00,pc-rpc-ros-ba-00,5,5
65,RPC,RPC-BA-00,pc-rpc-ros-ba-00,6,6
65,RPC,RPC-BA-00,pc-rpc-ros-ba-00,7,7
65,RPC,RPC-BA-00,pc-rpc-ros-ba-00,12,8
65,RPC,RPC-BA-00,pc-rpc-ros-ba-00,13,9
65,RPC,RPC-BA-00,pc-rpc-ros-ba-00,14,10
65,RPC,RPC-BA-00,pc-rpc-ros-ba-00,15,11
65,RPC,RPC-BA-00,pc-rpc-ros-ba-00,16,12
65,RPC,RPC-BA-00,pc-rpc-ros-ba-00,17,13
65,RPC,RPC-BA-00,pc-rpc-ros-ba-00,18,14
65,RPC,RPC-BA-00,pc-rpc-ros-ba-00,19,15
66,RPC,RPC-BC-00,pc-rpc-ros-bc-00,0,0
66,RPC,RPC-BC-00,pc-rpc-ros-bc-00,1,1
66,RPC,RPC-BC-00,pc-rpc-ros-bc-00,2,2
66,RPC,RPC-BC-00,pc-rpc-ros-bc-00,3,3
66,RPC,RPC-BC-00,pc-rpc-ros-bc-00,4,4
66,RPC,RPC-BC-00,pc-rpc-ros-bc-00,5,5
66,RPC,RPC-BC-00,pc-rpc-ros-bc-00,6,6
66,RPC,RPC-BC-00,pc-rpc-ros-bc-00,7,7
66,RPC,RPC-BC-00,pc-rpc-ros-bc-00,12,8
66,RPC,RPC-BC-00,pc-rpc-ros-bc-00,13,9
66,RPC,RPC-BC-00,pc-rpc-ros-bc-00,14,10
66,RPC,RPC-BC-00,pc-rpc-ros-bc-00,15,11
66,RPC,RPC-BC-00,pc-rpc-ros-bc-00,16,12
66,RPC,RPC-BC-00,pc-rpc-ros-bc-00,17,13
66,RPC,RPC-BC-00,pc-rpc-ros-bc-00,18,14
66,RPC,RPC-BC-00,pc-rpc-ros-bc-00,19,15
22,SCT,SCT-B-00,pc-sct-ros-b-00,0,256
22,SCT,SCT-B-00,pc-sct-ros-b-00,1,257
22,SCT,SCT-B-00,pc-sct-ros-b-00,2,258
22,SCT,SCT-B-00,pc-sct-ros-b-00,3,259
22,SCT,SCT-B-00,pc-sct-ros-b-00,4,260
22,SCT,SCT-B-00,pc-sct-ros-b-00,5,261
22,SCT,SCT-B-00,pc-sct-ros-b-00,6,262
22,SCT,SCT-B-00,pc-sct-ros-b-00,7,263
22,SCT,SCT-B-00,pc-sct-ros-b-00,8,264
22,SCT,SCT-B-00,pc-sct-ros-b-00,9,265
22,SCT,SCT-B-00,pc-sct-ros-b-00,10,266
21,SCT,SCT-B-00,pc-sct-ros-b-00,11,256
21,SCT,SCT-B-00,pc-sct-ros-b-00,12,257
21,SCT,SCT-B-00,pc-sct-ros-b-00,13,258
21,SCT,SCT-B-00,pc-sct-ros-b-00,14,259
21,SCT,SCT-B-00,pc-sct-ros-b-00,15,260
21,SCT,SCT-B-00,pc-sct-ros-b-00,16,261
21,SCT,SCT-B-00,pc-sct-ros-b-00,17,262
21,SCT,SCT-B-00,pc-sct-ros-b-00,18,263
21,SCT,SCT-B-00,pc-sct-ros-b-00,19,264
21,SCT,SCT-B-00,pc-sct-ros-b-00,20,265
21,SCT,SCT-B-00,pc-sct-ros-b-00,21,266
22,SCT,SCT-B-01,pc-sct-ros-b-01,0,5
22,SCT,SCT-B-01,pc-sct-ros-b-01,1,6
22,SCT,SCT-B-01,pc-sct-ros-b-01,2,7
22,SCT,SCT-B-01,pc-sct-ros-b-01,3,8
22,SCT,SCT-B-01,pc-sct-ros-b-01,4,9
22,SCT,SCT-B-01,pc-sct-ros-b-01,5,10
22,SCT,SCT-B-01,pc-sct-ros-b-01,6,11
22,SCT,SCT-B-01,pc-sct-ros-b-01,7,12
22,SCT,SCT-B-01,pc-sct-ros-b-01,8,13
22,SCT,SCT-B-01,pc-sct-ros-b-01,9,14
22,SCT,SCT-B-01,pc-sct-ros-b-01,10,15
21,SCT,SCT-B-01,pc-sct-ros-b-01,11,5
21,SCT,SCT-B-01,pc-sct-ros-b-01,12,6
21,SCT,SCT-B-01,pc-sct-ros-b-01,13,7
21,SCT,SCT-B-01,pc-sct-ros-b-01,14,8
21,SCT,SCT-B-01,pc-sct-ros-b-01,15,9
21,SCT,SCT-B-01,pc-sct-ros-b-01,16,10
21,SCT,SCT-B-01,pc-sct-ros-b-01,17,11
21,SCT,SCT-B-01,pc-sct-ros-b-01,18,12
21,SCT,SCT-B-01,pc-sct-ros-b-01,19,13
21,SCT,SCT-B-01,pc-sct-ros-b-01,20,14
21,SCT,SCT-B-01,pc-sct-ros-b-01,21,15
22,SCT,SCT-B-02,pc-sct-ros-b-02,0,267
22,SCT,SCT-B-02,pc-sct-ros-b-02,1,268
22,SCT,SCT-B-02,pc-sct-ros-b-02,2,269
22,SCT,SCT-B-02,pc-sct-ros-b-02,3,270
22,SCT,SCT-B-02,pc-sct-ros-b-02,4,271
21,SCT,SCT-B-02,pc-sct-ros-b-02,5,267
21,SCT,SCT-B-02,pc-sct-ros-b-02,6,268
21,SCT,SCT-B-02,pc-sct-ros-b-02,7,269
21,SCT,SCT-B-02,pc-sct-ros-b-02,8,270
21,SCT,SCT-B-02,pc-sct-ros-b-02,9,271
22,SCT,SCT-B-02,pc-sct-ros-b-02,10,0
22,SCT,SCT-B-02,pc-sct-ros-b-02,11,1
22,SCT,SCT-B-02,pc-sct-ros-b-02,12,2
22,SCT,SCT-B-02,pc-sct-ros-b-02,13,3
22,SCT,SCT-B-02,pc-sct-ros-b-02,14,4
21,SCT,SCT-B-02,pc-sct-ros-b-02,15,0
21,SCT,SCT-B-02,pc-sct-ros-b-02,16,1
21,SCT,SCT-B-02,pc-sct-ros-b-02,17,2
21,SCT,SCT-B-02,pc-sct-ros-b-02,18,3
21,SCT,SCT-B-02,pc-sct-ros-b-02,19,4
23,SCT,SCT-ECA-00,pc-sct-ros-eca-00,0,8
23,SCT,SCT-ECA-00,pc-sct-ros-eca-00,1,9
23,SCT,SCT-ECA-00,pc-sct-ros-eca-00,2,11
23,SCT,SCT-ECA-00,pc-sct-ros-eca-00,3,12
23,SCT,SCT-ECA-00,pc-sct-ros-eca-00,4,256
23,SCT,SCT-ECA-00,pc-sct-ros-eca-00,5,257
23,SCT,SCT-ECA-00,pc-sct-ros-eca-00,6,258
23,SCT,SCT-ECA-00,pc-sct-ros-eca-00,7,259
23,SCT,SCT-ECA-00,pc-sct-ros-eca-00,8,260
23,SCT,SCT-ECA-00,pc-sct-ros-eca-00,9,261
23,SCT,SCT-ECA-00,pc-sct-ros-eca-00,10,262
23,SCT,SCT-ECA-00,pc-sct-ros-eca-00,11,263
23,SCT,SCT-ECA-00,pc-sct-ros-eca-00,12,264
23,SCT,SCT-ECA-00,pc-sct-ros-eca-00,13,265
23,SCT,SCT-ECA-00,pc-sct-ros-eca-00,14,266
23,SCT,SCT-ECA-00,pc-sct-ros-eca-00,15,267
23,SCT,SCT-ECA-00,pc-sct-ros-eca-00,16,268
23,SCT,SCT-ECA-00,pc-sct-ros-eca-00,17,269
23,SCT,SCT-ECA-00,pc-sct-ros-eca-00,18,270
23,SCT,SCT-ECA-00,pc-sct-ros-eca-00,19,271
23,SCT,SCT-ECA-01,pc-sct-ros-eca-01,0,0
23,SCT,SCT-ECA-01,pc-sct-ros-eca-01,1,1
23,SCT,SCT-ECA-01,pc-sct-ros-eca-01,2,2
23,SCT,SCT-ECA-01,pc-sct-ros-eca-01,3,3
23,SCT,SCT-ECA-01,pc-sct-ros-eca-01,4,4
23,SCT,SCT-ECA-01,pc-sct-ros-eca-01,5,5
23,SCT,SCT-ECA-01,pc-sct-ros-eca-01,6,6
23,SCT,SCT-ECA-01,pc-sct-ros-eca-01,7,7
23,SCT,SCT-ECA-01,pc-sct-ros-eca-01,8,10
23,SCT,SCT-ECA-01,pc-sct-ros-eca-01,9,13
23,SCT,SCT-ECA-01,pc-sct-ros-eca-01,10,14
23,SCT,SCT-ECA-01,pc-sct-ros-eca-01,11,15
24,SCT,SCT-ECC-00,pc-sct-ros-ecc-00,0,256
24,SCT,SCT-ECC-00,pc-sct-ros-ecc-00,1,257
24,SCT,SCT-ECC-00,pc-sct-ros-ecc-00,2,258
24,SCT,SCT-ECC-00,pc-sct-ros-ecc-00,3,259
24,SCT,SCT-ECC-00,pc-sct-ros-ecc-00,4,260
24,SCT,SCT-ECC-00,pc-sct-ros-ecc-00,5,261
24,SCT,SCT-ECC-00,pc-sct-ros-ecc-00,6,262
24,SCT,SCT-ECC-00,pc-sct-ros-ecc-00,7,263
24,SCT,SCT-ECC-00,pc-sct-ros-ecc-00,8,266
24,SCT,SCT-ECC-00,pc-sct-ros-ecc-00,9,269
24,SCT,SCT-ECC-00,pc-sct-ros-ecc-00,10,270
24,SCT,SCT-ECC-00,pc-sct-ros-ecc-00,11,271
24,SCT,SCT-ECC-01,pc-sct-ros-ecc-01,0,0
24,SCT,SCT-ECC-01,pc-sct-ros-ecc-01,1,1
24,SCT,SCT-ECC-01,pc-sct-ros-ecc-01,2,2
24,SCT,SCT-ECC-01,pc-sct-ros-ecc-01,3,3
24,SCT,SCT-ECC-01,pc-sct-ros-ecc-01,4,4
24,SCT,SCT-ECC-01,pc-sct-ros-ecc-01,5,5
24,SCT,SCT-ECC-01,pc-sct-ros-ecc-01,6,6
24,SCT,SCT-ECC-01,pc-sct-ros-ecc-01,7,7
24,SCT,SCT-ECC-01,pc-sct-ros-ecc-01,8,8
24,SCT,SCT-ECC-01,pc-sct-ros-ecc-01,9,9
24,SCT,SCT-ECC-01,pc-sct-ros-ecc-01,10,10
24,SCT,SCT-ECC-01,pc-sct-ros-ecc-01,11,11
24,SCT,SCT-ECC-01,pc-sct-ros-ecc-01,12,12
24,SCT,SCT-ECC-01,pc-sct-ros-ecc-01,13,13
24,SCT,SCT-ECC-01,pc-sct-ros-ecc-01,14,14
24,SCT,SCT-ECC-01,pc-sct-ros-ecc-01,15,15
24,SCT,SCT-ECC-01,pc-sct-ros-ecc-01,16,264
24,SCT,SCT-ECC-01,pc-sct-ros-ecc-01,17,265
24,SCT,SCT-ECC-01,pc-sct-ros-ecc-01,18,267
24,SCT,SCT-ECC-01,pc-sct-ros-ecc-01,19,268
72,TDQ,TDQ-CALCJ-00,pc-tdq-ros-calcj-00,0,8
72,TDQ,TDQ-CALCJ-00,pc-tdq-ros-calcj-00,1,40
72,TDQ,TDQ-CALCJ-00,pc-tdq-ros-calcj-00,2,9
72,TDQ,TDQ-CALCJ-00,pc-tdq-ros-calcj-00,3,41
72,TDQ,TDQ-CALCJ-00,pc-tdq-ros-calcj-00,4,10
72,TDQ,TDQ-CALCJ-00,pc-tdq-ros-calcj-00,5,42
72,TDQ,TDQ-CALCJ-00,pc-tdq-ros-calcj-00,6,11
72,TDQ,TDQ-CALCJ-00,pc-tdq-ros-calcj-00,7,43
73,TDQ,TDQ-CALCJ-00,pc-tdq-ros-calcj-00,8,136
73,TDQ,TDQ-CALCJ-00,pc-tdq-ros-calcj-00,9,137
73,TDQ,TDQ-CALCJ-00,pc-tdq-ros-calcj-00,10,138
73,TDQ,TDQ-CALCJ-00,pc-tdq-ros-calcj-00,11,139
74,TDQ,TDQ-CALCJ-00,pc-tdq-ros-calcj-00,12,12
74,TDQ,TDQ-CALCJ-00,pc-tdq-ros-calcj-00,13,28
74,TDQ,TDQ-CALCJ-00,pc-tdq-ros-calcj-00,14,44
74,TDQ,TDQ-CALCJ-00,pc-tdq-ros-calcj-00,15,60
74,TDQ,TDQ-CALCJ-00,pc-tdq-ros-calcj-00,16,13
74,TDQ,TDQ-CALCJ-00,pc-tdq-ros-calcj-00,17,29
74,TDQ,TDQ-CALCJ-00,pc-tdq-ros-calcj-00,18,45
74,TDQ,TDQ-CALCJ-00,pc-tdq-ros-calcj-00,19,61
75,TDQ,TDQ-CALCJ-00,pc-tdq-ros-calcj-00,20,140
75,TDQ,TDQ-CALCJ-00,pc-tdq-ros-calcj-00,21,141
71,TDQ,TDQ-CALPP-00,pc-tdq-ros-calpp-00,0,0
71,TDQ,TDQ-CALPP-00,pc-tdq-ros-calpp-00,1,16
71,TDQ,TDQ-CALPP-00,pc-tdq-ros-calpp-00,2,32
71,TDQ,TDQ-CALPP-00,pc-tdq-ros-calpp-00,3,48
71,TDQ,TDQ-CALPP-00,pc-tdq-ros-calpp-00,4,1
71,TDQ,TDQ-CALPP-00,pc-tdq-ros-calpp-00,5,17
71,TDQ,TDQ-CALPP-00,pc-tdq-ros-calpp-00,6,33
71,TDQ,TDQ-CALPP-00,pc-tdq-ros-calpp-00,7,49
71,TDQ,TDQ-CALPP-00,pc-tdq-ros-calpp-00,8,2
71,TDQ,TDQ-CALPP-00,pc-tdq-ros-calpp-00,9,18
71,TDQ,TDQ-CALPP-00,pc-tdq-ros-calpp-00,10,34
71,TDQ,TDQ-CALPP-00,pc-tdq-ros-calpp-00,11,50
71,TDQ,TDQ-CALPP-01,pc-tdq-ros-calpp-01,0,3
71,TDQ,TDQ-CALPP-01,pc-tdq-ros-calpp-01,1,19
71,TDQ,TDQ-CALPP-01,pc-tdq-ros-calpp-01,2,35
71,TDQ,TDQ-CALPP-01,pc-tdq-ros-calpp-01,3,51
71,TDQ,TDQ-CALPP-01,pc-tdq-ros-calpp-01,4,4
71,TDQ,TDQ-CALPP-01,pc-tdq-ros-calpp-01,5,20
71,TDQ,TDQ-CALPP-01,pc-tdq-ros-calpp-01,6,36
71,TDQ,TDQ-CALPP-01,pc-tdq-ros-calpp-01,7,52
71,TDQ,TDQ-CALPP-01,pc-tdq-ros-calpp-01,8,5
71,TDQ,TDQ-CALPP-01,pc-tdq-ros-calpp-01,9,21
71,TDQ,TDQ-CALPP-01,pc-tdq-ros-calpp-01,12,37
71,TDQ,TDQ-CALPP-01,pc-tdq-ros-calpp-01,13,53
71,TDQ,TDQ-CALPP-01,pc-tdq-ros-calpp-01,14,6
71,TDQ,TDQ-CALPP-01,pc-tdq-ros-calpp-01,15,22
71,TDQ,TDQ-CALPP-01,pc-tdq-ros-calpp-01,16,38
71,TDQ,TDQ-CALPP-01,pc-tdq-ros-calpp-01,17,54
71,TDQ,TDQ-CALPP-01,pc-tdq-ros-calpp-01,18,7
71,TDQ,TDQ-CALPP-01,pc-tdq-ros-calpp-01,19,23
71,TDQ,TDQ-CALPP-01,pc-tdq-ros-calpp-01,20,39
71,TDQ,TDQ-CALPP-01,pc-tdq-ros-calpp-01,21,55
77,TDQ,TDQ-CTP-00,pc-tdq-ros-ctp-00,0,0
7f,TDQ,TDQ-FTK-00,pc-tdq-ros-ftk-00,0,1
7f,TDQ,TDQ-FTK-00,pc-tdq-ros-ftk-00,1,2
7f,TDQ,TDQ-FTK-00,pc-tdq-ros-ftk-00,6,3
7f,TDQ,TDQ-FTK-00,pc-tdq-ros-ftk-00,7,4
7f,TDQ,TDQ-FTK-00,pc-tdq-ros-ftk-00,12,5
7f,TDQ,TDQ-FTK-00,pc-tdq-ros-ftk-00,13,6
7f,TDQ,TDQ-FTK-00,pc-tdq-ros-ftk-00,18,7
7f,TDQ,TDQ-FTK-00,pc-tdq-ros-ftk-00,19,8
7f,TDQ,TDQ-FTK-01,pc-tdq-ros-ftk-01,0,9
7f,TDQ,TDQ-FTK-01,pc-tdq-ros-ftk-01,1,10
7f,TDQ,TDQ-FTK-01,pc-tdq-ros-ftk-01,6,11
7f,TDQ,TDQ-FTK-01,pc-tdq-ros-ftk-01,7,12
7f,TDQ,TDQ-FTK-01,pc-tdq-ros-ftk-01,12,13
7f,TDQ,TDQ-FTK-01,pc-tdq-ros-ftk-01,13,14
7f,TDQ,TDQ-FTK-01,pc-tdq-ros-ftk-01,18,15
7f,TDQ,TDQ-FTK-01,pc-tdq-ros-ftk-01,19,16
76,TDQ,TDQ-MUCTPI-00,pc-tdq-ros-muctpi-00,0,0
91,TDQ,TDQ-TOPO-00,pc-tdq-ros-topo-00,0,0
91,TDQ,TDQ-TOPO-00,pc-tdq-ros-topo-00,2,16
67,TGC,TGC-EC-00,pc-tgc-ros-ec-00,0,1
67,TGC,TGC-EC-00,pc-tgc-ros-ec-00,1,2
67,TGC,TGC-EC-00,pc-tgc-ros-ec-00,2,3
67,TGC,TGC-EC-00,pc-tgc-ros-ec-00,3,4
67,TGC,TGC-EC-00,pc-tgc-ros-ec-00,4,5
67,TGC,TGC-EC-00,pc-tgc-ros-ec-00,5,6
67,TGC,TGC-EC-00,pc-tgc-ros-ec-00,6,7
67,TGC,TGC-EC-00,pc-tgc-ros-ec-00,7,8
67,TGC,TGC-EC-00,pc-tgc-ros-ec-00,8,9
67,TGC,TGC-EC-00,pc-tgc-ros-ec-00,9,10
67,TGC,TGC-EC-00,pc-tgc-ros-ec-00,10,11
67,TGC,TGC-EC-00,pc-tgc-ros-ec-00,11,12
68,TGC,TGC-EC-00,pc-tgc-ros-ec-00,12,1
68,TGC,TGC-EC-00,pc-tgc-ros-ec-00,13,2
68,TGC,TGC-EC-00,pc-tgc-ros-ec-00,14,3
68,TGC,TGC-EC-00,pc-tgc-ros-ec-00,15,4
68,TGC,TGC-EC-00,pc-tgc-ros-ec-00,16,5
68,TGC,TGC-EC-00,pc-tgc-ros-ec-00,17,6
68,TGC,TGC-EC-00,pc-tgc-ros-ec-00,18,7
68,TGC,TGC-EC-00,pc-tgc-ros-ec-00,19,8
68,TGC,TGC-EC-00,pc-tgc-ros-ec-00,20,9
68,TGC,TGC-EC-00,pc-tgc-ros-ec-00,21,10
68,TGC,TGC-EC-00,pc-tgc-ros-ec-00,22,11
68,TGC,TGC-EC-00,pc-tgc-ros-ec-00,23,12
67,TGC,TGC-SL-00,pc-tgc-ros-sl-00,0,17
67,TGC,TGC-SL-00,pc-tgc-ros-sl-00,1,18
67,TGC,TGC-SL-00,pc-tgc-ros-sl-00,2,19
68,TGC,TGC-SL-00,pc-tgc-ros-sl-00,3,17
68,TGC,TGC-SL-00,pc-tgc-ros-sl-00,4,18
68,TGC,TGC-SL-00,pc-tgc-ros-sl-00,5,19
53,TIL,TIL-EBA-00,pc-til-ros-eba-00,0,8
53,TIL,TIL-EBA-00,pc-til-ros-eba-00,1,9
53,TIL,TIL-EBA-00,pc-til-ros-eba-00,2,10
53,TIL,TIL-EBA-00,pc-til-ros-eba-00,3,11
53,TIL,TIL-EBA-00,pc-til-ros-eba-00,4,256
53,TIL,TIL-EBA-00,pc-til-ros-eba-00,6,12
53,TIL,TIL-EBA-00,pc-til-ros-eba-00,7,13
53,TIL,TIL-EBA-00,pc-til-ros-eba-00,8,14
53,TIL,TIL-EBA-00,pc-til-ros-eba-00,9,15
53,TIL,TIL-EBA-00,pc-til-ros-eba-00,10,257
53,TIL,TIL-EBA-00,pc-til-ros-eba-00,12,16
53,TIL,TIL-EBA-00,pc-til-ros-eba-00,13,17
53,TIL,TIL-EBA-00,pc-til-ros-eba-00,14,18
53,TIL,TIL-EBA-00,pc-til-ros-eba-00,15,19
53,TIL,TIL-EBA-00,pc-til-ros-eba-00,16,258
53,TIL,TIL-EBA-00,pc-til-ros-eba-00,18,20
53,TIL,TIL-EBA-00,pc-til-ros-eba-00,19,21
53,TIL,TIL-EBA-00,pc-til-ros-eba-00,20,22
53,TIL,TIL-EBA-00,pc-til-ros-eba-00,21,23
53,TIL,TIL-EBA-00,pc-til-ros-eba-00,22,259
53,TIL,TIL-EBA-01,pc-til-ros-eba-01,0,24
53,TIL,TIL-EBA-01,pc-til-ros-eba-01,1,25
53,TIL,TIL-EBA-01,pc-til-ros-eba-01,2,26
53,TIL,TIL-EBA-01,pc-til-ros-eba-01,3,27
53,TIL,TIL-EBA-01,pc-til-ros-eba-01,4,260
53,TIL,TIL-EBA-01,pc-til-ros-eba-01,6,28
53,TIL,TIL-EBA-01,pc-til-ros-eba-01,7,29
53,TIL,TIL-EBA-01,pc-til-ros-eba-01,8,30
53,TIL,TIL-EBA-01,pc-til-ros-eba-01,9,31
53,TIL,TIL-EBA-01,pc-til-ros-eba-01,10,261
53,TIL,TIL-EBA-01,pc-til-ros-eba-01,12,0
53,TIL,TIL-EBA-01,pc-til-ros-eba-01,13,1
53,TIL,TIL-EBA-01,pc-til-ros-eba-01,14,2
53,TIL,TIL-EBA-01,pc-til-ros-eba-01,15,3
53,TIL,TIL-EBA-01,pc-til-ros-eba-01,16,262
53,TIL,TIL-EBA-01,pc-til-ros-eba-01,18,4
53,TIL,TIL-EBA-01,pc-til-ros-eba-01,19,5
53,TIL,TIL-EBA-01,pc-til-ros-eba-01,20,6
53,TIL,TIL-EBA-01,pc-til-ros-eba-01,21,7
53,TIL,TIL-EBA-01,pc-til-ros-eba-01,22,263
54,TIL,TIL-EBC-00,pc-til-ros-ebc-00,0,8
54,TIL,TIL-EBC-00,pc-til-ros-ebc-00,1,9
54,TIL,TIL-EBC-00,pc-til-ros-ebc-00,2,10
54,TIL,TIL-EBC-00,pc-til-ros-ebc-00,3,11
54,TIL,TIL-EBC-00,pc-til-ros-ebc-00,4,256
54,TIL,TIL-EBC-00,pc-til-ros-ebc-00,6,12
54,TIL,TIL-EBC-00,pc-til-ros-ebc-00,7,13
54,TIL,TIL-EBC-00,pc-til-ros-ebc-00,8,14
54,TIL,TIL-EBC-00,pc-til-ros-ebc-00,9,15
54,TIL,TIL-EBC-00,pc-til-ros-ebc-00,10,257
54,TIL,TIL-EBC-00,pc-til-ros-ebc-00,12,16
54,TIL,TIL-EBC-00,pc-til-ros-ebc-00,13,17
54,TIL,TIL-EBC-00,pc-til-ros-ebc-00,14,18
54,TIL,TIL-EBC-00,pc-til-ros-ebc-00,15,19
54,TIL,TIL-EBC-00,pc-til-ros-ebc-00,16,258
54,TIL,TIL-EBC-00,pc-til-ros-ebc-00,18,20
54,TIL,TIL-EBC-00,pc-til-ros-ebc-00,19,21
54,TIL,TIL-EBC-00,pc-til-ros-ebc-00,20,22
54,TIL,TIL-EBC-00,pc-til-ros-ebc-00,21,23
54,TIL,TIL-EBC-00,pc-til-ros-ebc-00,22,259
54,TIL,TIL-EBC-01,pc-til-ros-ebc-01,0,24
54,TIL,TIL-EBC-01,pc-til-ros-ebc-01,1,25
54,TIL,TIL-EBC-01,pc-til-ros-ebc-01,2,26
54,TIL,TIL-EBC-01,pc-til-ros-ebc-01,3,27
54,TIL,TIL-EBC-01,pc-til-ros-ebc-01,4,260
54,TIL,TIL-EBC-01,pc-til-ros-ebc-01,6,28
54,TIL,TIL-EBC-01,pc-til-ros-ebc-01,7,29
54,TIL,TIL-EBC-01,pc-til-ros-ebc-01,8,30
54,TIL,TIL-EBC-01,pc-til-ros-ebc-01,9,31
54,TIL,TIL-EBC-01,pc-til-ros-ebc-01,10,261
54,TIL,TIL-EBC-01,pc-til-ros-ebc-01,12,0
54,TIL,TIL-EBC-01,pc-til-ros-ebc-01,13,1
54,TIL,TIL-EBC-01,pc-til-ros-ebc-01,14,2
54,TIL,TIL-EBC-01,pc-til-ros-ebc-01,15,3
54,TIL,TIL-EBC-01,pc-til-ros-ebc-01,16,262
54,TIL,TIL-EBC-01,pc-til-ros-ebc-01,18,4
54,TIL,TIL-EBC-01,pc-til-ros-ebc-01,19,5
54,TIL,TIL-EBC-01,pc-til-ros-ebc-01,20,6
54,TIL,TIL-EBC-01,pc-til-ros-ebc-01,21,7
54,TIL,TIL-EBC-01,pc-til-ros-ebc-01,22,263
51,TIL,TIL-LBA-00,pc-til-ros-lba-00,0,8
51,TIL,TIL-LBA-00,pc-til-ros-lba-00,1,9
51,TIL,TIL-LBA-00,pc-til-ros-lba-00,2,10
51,TIL,TIL-LBA-00,pc-til-ros-lba-00,3,11
51,TIL,TIL-LBA-00,pc-til-ros-lba-00,4,260
51,TIL,TIL-LBA-00,pc-til-ros-lba-00,6,12
51,TIL,TIL-LBA-00,pc-til-ros-lba-00,7,13
51,TIL,TIL-LBA-00,pc-til-ros-lba-00,8,14
51,TIL,TIL-LBA-00,pc-til-ros-lba-00,9,15
51,TIL,TIL-LBA-00,pc-til-ros-lba-00,10,261
51,TIL,TIL-LBA-00,pc-til-ros-lba-00,12,16
51,TIL,TIL-LBA-00,pc-til-ros-lba-00,13,17
51,TIL,TIL-LBA-00,pc-til-ros-lba-00,14,18
51,TIL,TIL-LBA-00,pc-til-ros-lba-00,15,19
51,TIL,TIL-LBA-00,pc-til-ros-lba-00,18,20
51,TIL,TIL-LBA-00,pc-til-ros-lba-00,19,21
51,TIL,TIL-LBA-00,pc-til-ros-lba-00,20,22
51,TIL,TIL-LBA-00,pc-til-ros-lba-00,21,23
51,TIL,TIL-LBA-01,pc-til-ros-lba-01,0,24
51,TIL,TIL-LBA-01,pc-til-ros-lba-01,1,25
51,TIL,TIL-LBA-01,pc-til-ros-lba-01,2,26
51,TIL,TIL-LBA-01,pc-til-ros-lba-01,3,27
51,TIL,TIL-LBA-01,pc-til-ros-lba-01,4,262
51,TIL,TIL-LBA-01,pc-til-ros-lba-01,6,28
51,TIL,TIL-LBA-01,pc-til-ros-lba-01,7,29
51,TIL,TIL-LBA-01,pc-til-ros-lba-01,8,30
51,TIL,TIL-LBA-01,pc-til-ros-lba-01,9,31
51,TIL,TIL-LBA-01,pc-til-ros-lba-01,12,0
51,TIL,TIL-LBA-01,pc-til-ros-lba-01,13,1
51,TIL,TIL-LBA-01,pc-til-ros-lba-01,14,2
51,TIL,TIL-LBA-01,pc-til-ros-lba-01,15,3
51,TIL,TIL-LBA-01,pc-til-ros-lba-01,18,4
51,TIL,TIL-LBA-01,pc-til-ros-lba-01,19,5
51,TIL,TIL-LBA-01,pc-til-ros-lba-01,20,6
51,TIL,TIL-LBA-01,pc-til-ros-lba-01,21,7
52,TIL,TIL-LBC-00,pc-til-ros-lbc-00,0,8
52,TIL,TIL-LBC-00,pc-til-ros-lbc-00,1,9
52,TIL,TIL-LBC-00,pc-til-ros-lbc-00,2,10
52,TIL,TIL-LBC-00,pc-til-ros-lbc-00,3,11
52,TIL,TIL-LBC-00,pc-til-ros-lbc-00,4,260
52,TIL,TIL-LBC-00,pc-til-ros-lbc-00,6,12
52,TIL,TIL-LBC-00,pc-til-ros-lbc-00,7,13
52,TIL,TIL-LBC-00,pc-til-ros-lbc-00,8,14
52,TIL,TIL-LBC-00,pc-til-ros-lbc-00,9,15
52,TIL,TIL-LBC-00,pc-til-ros-lbc-00,10,261
52,TIL,TIL-LBC-00,pc-til-ros-lbc-00,12,16
52,TIL,TIL-LBC-00,pc-til-ros-lbc-00,13,17
52,TIL,TIL-LBC-00,pc-til-ros-lbc-00,14,18
52,TIL,TIL-LBC-00,pc-til-ros-lbc-00,15,19
52,TIL,TIL-LBC-00,pc-til-ros-lbc-00,18,20
52,TIL,TIL-LBC-00,pc-til-ros-lbc-00,19,21
52,TIL,TIL-LBC-00,pc-til-ros-lbc-00,20,22
52,TIL,TIL-LBC-00,pc-til-ros-lbc-00,21,23
52,TIL,TIL-LBC-01,pc-til-ros-lbc-01,0,24
52,TIL,TIL-LBC-01,pc-til-ros-lbc-01,1,25
52,TIL,TIL-LBC-01,pc-til-ros-lbc-01,2,26
52,TIL,TIL-LBC-01,pc-til-ros-lbc-01,3,27
52,TIL,TIL-LBC-01,pc-til-ros-lbc-01,4,262
52,TIL,TIL-LBC-01,pc-til-ros-lbc-01,6,28
52,TIL,TIL-LBC-01,pc-til-ros-lbc-01,7,29
52,TIL,TIL-LBC-01,pc-til-ros-lbc-01,8,30
52,TIL,TIL-LBC-01,pc-til-ros-lbc-01,9,31
52,TIL,TIL-LBC-01,pc-til-ros-lbc-01,10,32
52,TIL,TIL-LBC-01,pc-til-ros-lbc-01,12,0
52,TIL,TIL-LBC-01,pc-til-ros-lbc-01,13,1
52,TIL,TIL-LBC-01,pc-til-ros-lbc-01,14,2
52,TIL,TIL-LBC-01,pc-til-ros-lbc-01,15,3
52,TIL,TIL-LBC-01,pc-til-ros-lbc-01,18,4
52,TIL,TIL-LBC-01,pc-til-ros-lbc-01,19,5
52,TIL,TIL-LBC-01,pc-til-ros-lbc-01,20,6
52,TIL,TIL-LBC-01,pc-til-ros-lbc-01,21,7
31,TRT,TRT-BA-00,pc-trt-ros-ba-00,0,256
31,TRT,TRT-BA-00,pc-trt-ros-ba-00,1,512
31,TRT,TRT-BA-00,pc-trt-ros-ba-00,2,768
31,TRT,TRT-BA-00,pc-trt-ros-ba-00,3,1024
31,TRT,TRT-BA-00,pc-trt-ros-ba-00,4,1280
31,TRT,TRT-BA-00,pc-trt-ros-ba-00,5,1536
31,TRT,TRT-BA-00,pc-trt-ros-ba-00,6,1792
31,TRT,TRT-BA-00,pc-trt-ros-ba-00,7,2048
31,TRT,TRT-BA-00,pc-trt-ros-ba-00,8,2304
31,TRT,TRT-BA-00,pc-trt-ros-ba-00,9,2560
31,TRT,TRT-BA-00,pc-trt-ros-ba-00,12,2816
31,TRT,TRT-BA-00,pc-trt-ros-ba-00,13,3072
31,TRT,TRT-BA-00,pc-trt-ros-ba-00,14,6400
31,TRT,TRT-BA-00,pc-trt-ros-ba-00,15,6656
31,TRT,TRT-BA-00,pc-trt-ros-ba-00,16,6912
31,TRT,TRT-BA-00,pc-trt-ros-ba-00,17,7168
31,TRT,TRT-BA-00,pc-trt-ros-ba-00,18,7424
31,TRT,TRT-BA-00,pc-trt-ros-ba-00,19,7680
31,TRT,TRT-BA-00,pc-trt-ros-ba-00,20,7936
31,TRT,TRT-BA-00,pc-trt-ros-ba-00,21,8192
31,TRT,TRT-BA-01,pc-trt-ros-ba-01,0,3328
31,TRT,TRT-BA-01,pc-trt-ros-ba-01,1,3584
31,TRT,TRT-BA-01,pc-trt-ros-ba-01,2,3840
31,TRT,TRT-BA-01,pc-trt-ros-ba-01,3,4096
31,TRT,TRT-BA-01,pc-trt-ros-ba-01,4,4352
31,TRT,TRT-BA-01,pc-trt-ros-ba-01,5,4608
31,TRT,TRT-BA-01,pc-trt-ros-ba-01,6,4864
31,TRT,TRT-BA-01,pc-trt-ros-ba-01,7,5120
31,TRT,TRT-BA-01,pc-trt-ros-ba-01,8,5376
31,TRT,TRT-BA-01,pc-trt-ros-ba-01,9,5632
31,TRT,TRT-BA-01,pc-trt-ros-ba-01,10,5888
31,TRT,TRT-BA-01,pc-trt-ros-ba-01,11,6144
32,TRT,TRT-BC-00,pc-trt-ros-bc-00,0,256
32,TRT,TRT-BC-00,pc-trt-ros-bc-00,1,512
32,TRT,TRT-BC-00,pc-trt-ros-bc-00,2,768
32,TRT,TRT-BC-00,pc-trt-ros-bc-00,3,1024
32,TRT,TRT-BC-00,pc-trt-ros-bc-00,4,1280
32,TRT,TRT-BC-00,pc-trt-ros-bc-00,5,1536
32,TRT,TRT-BC-00,pc-trt-ros-bc-00,6,1792
32,TRT,TRT-BC-00,pc-trt-ros-bc-00,7,2048
32,TRT,TRT-BC-00,pc-trt-ros-bc-00,8,2304
32,TRT,TRT-BC-00,pc-trt-ros-bc-00,9,2560
32,TRT,TRT-BC-00,pc-trt-ros-bc-00,12,2816
32,TRT,TRT-BC-00,pc-trt-ros-bc-00,13,3072
32,TRT,TRT-BC-00,pc-trt-ros-bc-00,14,6400
32,TRT,TRT-BC-00,pc-trt-ros-bc-00,15,6656
32,TRT,TRT-BC-00,pc-trt-ros-bc-00,16,6912
32,TRT,TRT-BC-00,pc-trt-ros-bc-00,17,7168
32,TRT,TRT-BC-00,pc-trt-ros-bc-00,18,7424
32,TRT,TRT-BC-00,pc-trt-ros-bc-00,19,7680
32,TRT,TRT-BC-00,pc-trt-ros-bc-00,20,7936
32,TRT,TRT-BC-00,pc-trt-ros-bc-00,21,8192
32,TRT,TRT-BC-01,pc-trt-ros-bc-01,0,3328
32,TRT,TRT-BC-01,pc-trt-ros-bc-01,1,3584
32,TRT,TRT-BC-01,pc-trt-ros-bc-01,2,3840
32,TRT,TRT-BC-01,pc-trt-ros-bc-01,3,4096
32,TRT,TRT-BC-01,pc-trt-ros-bc-01,4,4352
32,TRT,TRT-BC-01,pc-trt-ros-bc-01,5,4608
32,TRT,TRT-BC-01,pc-trt-ros-bc-01,6,4864
32,TRT,TRT-BC-01,pc-trt-ros-bc-01,7,5120
32,TRT,TRT-BC-01,pc-trt-ros-bc-01,8,5376
32,TRT,TRT-BC-01,pc-trt-ros-bc-01,9,5632
32,TRT,TRT-BC-01,pc-trt-ros-bc-01,10,5888
32,TRT,TRT-BC-01,pc-trt-ros-bc-01,11,6144
33,TRT,TRT-ECA-00,pc-trt-ros-eca-00,0,1537
33,TRT,TRT-ECA-00,pc-trt-ros-eca-00,1,1538
33,TRT,TRT-ECA-00,pc-trt-ros-eca-00,2,1793
33,TRT,TRT-ECA-00,pc-trt-ros-eca-00,3,1794
33,TRT,TRT-ECA-00,pc-trt-ros-eca-00,4,2049
33,TRT,TRT-ECA-00,pc-trt-ros-eca-00,5,2050
33,TRT,TRT-ECA-00,pc-trt-ros-eca-00,6,2305
33,TRT,TRT-ECA-00,pc-trt-ros-eca-00,7,2306
33,TRT,TRT-ECA-00,pc-trt-ros-eca-00,8,2561
33,TRT,TRT-ECA-00,pc-trt-ros-eca-00,9,2562
33,TRT,TRT-ECA-00,pc-trt-ros-eca-00,12,2817
33,TRT,TRT-ECA-00,pc-trt-ros-eca-00,13,2818
33,TRT,TRT-ECA-00,pc-trt-ros-eca-00,14,3073
33,TRT,TRT-ECA-00,pc-trt-ros-eca-00,15,3074
33,TRT,TRT-ECA-00,pc-trt-ros-eca-00,16,3329
33,TRT,TRT-ECA-00,pc-trt-ros-eca-00,17,3330
33,TRT,TRT-ECA-00,pc-trt-ros-eca-00,18,3585
33,TRT,TRT-ECA-00,pc-trt-ros-eca-00,19,3586
33,TRT,TRT-ECA-00,pc-trt-ros-eca-00,20,3841
33,TRT,TRT-ECA-00,pc-trt-ros-eca-00,21,3842
33,TRT,TRT-ECA-01,pc-trt-ros-eca-01,0,4097
33,TRT,TRT-ECA-01,pc-trt-ros-eca-01,1,4098
33,TRT,TRT-ECA-01,pc-trt-ros-eca-01,2,4353
33,TRT,TRT-ECA-01,pc-trt-ros-eca-01,3,4354
33,TRT,TRT-ECA-01,pc-trt-ros-eca-01,4,4609
33,TRT,TRT-ECA-01,pc-trt-ros-eca-01,5,4610
33,TRT,TRT-ECA-01,pc-trt-ros-eca-01,6,4865
33,TRT,TRT-ECA-01,pc-trt-ros-eca-01,7,4866
33,TRT,TRT-ECA-01,pc-trt-ros-eca-01,8,5121
33,TRT,TRT-ECA-01,pc-trt-ros-eca-01,9,5122
33,TRT,TRT-ECA-01,pc-trt-ros-eca-01,10,5377
33,TRT,TRT-ECA-01,pc-trt-ros-eca-01,12,5378
33,TRT,TRT-ECA-01,pc-trt-ros-eca-01,13,5633
33,TRT,TRT-ECA-01,pc-trt-ros-eca-01,14,5634
33,TRT,TRT-ECA-01,pc-trt-ros-eca-01,15,5889
33,TRT,TRT-ECA-01,pc-trt-ros-eca-01,16,5890
33,TRT,TRT-ECA-01,pc-trt-ros-eca-01,17,6145
33,TRT,TRT-ECA-01,pc-trt-ros-eca-01,18,6146
33,TRT,TRT-ECA-01,pc-trt-ros-eca-01,19,6401
33,TRT,TRT-ECA-01,pc-trt-ros-eca-01,20,6402
33,TRT,TRT-ECA-01,pc-trt-ros-eca-01,21,6657
33,TRT,TRT-ECA-01,pc-trt-ros-eca-01,22,6658
33,TRT,TRT-ECA-02,pc-trt-ros-eca-02,0,257
33,TRT,TRT-ECA-02,pc-trt-ros-eca-02,1,258
33,TRT,TRT-ECA-02,pc-trt-ros-eca-02,2,513
33,TRT,TRT-ECA-02,pc-trt-ros-eca-02,3,514
33,TRT,TRT-ECA-02,pc-trt-ros-eca-02,4,769
33,TRT,TRT-ECA-02,pc-trt-ros-eca-02,5,770
33,TRT,TRT-ECA-02,pc-trt-ros-eca-02,6,1025
33,TRT,TRT-ECA-02,pc-trt-ros-eca-02,7,1026
33,TRT,TRT-ECA-02,pc-trt-ros-eca-02,8,1281
33,TRT,TRT-ECA-02,pc-trt-ros-eca-02,9,1282
33,TRT,TRT-ECA-02,pc-trt-ros-eca-02,10,6913
33,TRT,TRT-ECA-02,pc-trt-ros-eca-02,12,6914
33,TRT,TRT-ECA-02,pc-trt-ros-eca-02,13,7169
33,TRT,TRT-ECA-02,pc-trt-ros-eca-02,14,7170
33,TRT,TRT-ECA-02,pc-trt-ros-eca-02,15,7425
33,TRT,TRT-ECA-02,pc-trt-ros-eca-02,16,7426
33,TRT,TRT-ECA-02,pc-trt-ros-eca-02,17,7681
33,TRT,TRT-ECA-02,pc-trt-ros-eca-02,18,7682
33,TRT,TRT-ECA-02,pc-trt-ros-eca-02,19,7937
33,TRT,TRT-ECA-02,pc-trt-ros-eca-02,20,7938
33,TRT,TRT-ECA-02,pc-trt-ros-eca-02,21,8193
33,TRT,TRT-ECA-02,pc-trt-ros-eca-02,22,8194
34,TRT,TRT-ECC-00,pc-trt-ros-ecc-00,0,1537
34,TRT,TRT-ECC-00,pc-trt-ros-ecc-00,1,1538
34,TRT,TRT-ECC-00,pc-trt-ros-ecc-00,2,1793
34,TRT,TRT-ECC-00,pc-trt-ros-ecc-00,3,1794
34,TRT,TRT-ECC-00,pc-trt-ros-ecc-00,4,2049
34,TRT,TRT-ECC-00,pc-trt-ros-ecc-00,5,2050
34,TRT,TRT-ECC-00,pc-trt-ros-ecc-00,6,2305
34,TRT,TRT-ECC-00,pc-trt-ros-ecc-00,7,2306
34,TRT,TRT-ECC-00,pc-trt-ros-ecc-00,8,2561
34,TRT,TRT-ECC-00,pc-trt-ros-ecc-00,9,2562
34,TRT,TRT-ECC-00,pc-trt-ros-ecc-00,12,2817
34,TRT,TRT-ECC-00,pc-trt-ros-ecc-00,13,2818
34,TRT,TRT-ECC-00,pc-trt-ros-ecc-00,14,3073
34,TRT,TRT-ECC-00,pc-trt-ros-ecc-00,15,3074
34,TRT,TRT-ECC-00,pc-trt-ros-ecc-00,16,3329
34,TRT,TRT-ECC-00,pc-trt-ros-ecc-00,17,3330
34,TRT,TRT-ECC-00,pc-trt-ros-ecc-00,18,3585
34,TRT,TRT-ECC-00,pc-trt-ros-ecc-00,19,3586
34,TRT,TRT-ECC-00,pc-trt-ros-ecc-00,20,3841
34,TRT,TRT-ECC-00,pc-trt-ros-ecc-00,21,3842
34,TRT,TRT-ECC-01,pc-trt-ros-ecc-01,0,4097
34,TRT,TRT-ECC-01,pc-trt-ros-ecc-01,1,4098
34,TRT,TRT-ECC-01,pc-trt-ros-ecc-01,2,4354
34,TRT,TRT-ECC-01,pc-trt-ros-ecc-01,3,4353
34,TRT,TRT-ECC-01,pc-trt-ros-ecc-01,4,4609
34,TRT,TRT-ECC-01,pc-trt-ros-ecc-01,5,4610
34,TRT,TRT-ECC-01,pc-trt-ros-ecc-01,6,4865
34,TRT,TRT-ECC-01,pc-trt-ros-ecc-01,7,4866
34,TRT,TRT-ECC-01,pc-trt-ros-ecc-01,8,5122
34,TRT,TRT-ECC-01,pc-trt-ros-ecc-01,9,5121
34,TRT,TRT-ECC-01,pc-trt-ros-ecc-01,10,5377
34,TRT,TRT-ECC-01,pc-trt-ros-ecc-01,12,5378
34,TRT,TRT-ECC-01,pc-trt-ros-ecc-01,13,5633
34,TRT,TRT-ECC-01,pc-trt-ros-ecc-01,14,5634
34,TRT,TRT-ECC-01,pc-trt-ros-ecc-01,15,5889
34,TRT,TRT-ECC-01,pc-trt-ros-ecc-01,16,5890
34,TRT,TRT-ECC-01,pc-trt-ros-ecc-01,17,6145
34,TRT,TRT-ECC-01,pc-trt-ros-ecc-01,18,6146
34,TRT,TRT-ECC-01,pc-trt-ros-ecc-01,19,6401
34,TRT,TRT-ECC-01,pc-trt-ros-ecc-01,20,6402
34,TRT,TRT-ECC-01,pc-trt-ros-ecc-01,21,6657
34,TRT,TRT-ECC-01,pc-trt-ros-ecc-01,22,6658
34,TRT,TRT-ECC-02,pc-trt-ros-ecc-02,0,257
34,TRT,TRT-ECC-02,pc-trt-ros-ecc-02,1,258
34,TRT,TRT-ECC-02,pc-trt-ros-ecc-02,2,513
34,TRT,TRT-ECC-02,pc-trt-ros-ecc-02,3,514
34,TRT,TRT-ECC-02,pc-trt-ros-ecc-02,4,769
34,TRT,TRT-ECC-02,pc-trt-ros-ecc-02,5,770
34,TRT,TRT-ECC-02,pc-trt-ros-ecc-02,6,1025
34,TRT,TRT-ECC-02,pc-trt-ros-ecc-02,7,1026
34,TRT,TRT-ECC-02,pc-trt-ros-ecc-02,8,1281
34,TRT,TRT-ECC-02,pc-trt-ros-ecc-02,9,1282
34,TRT,TRT-ECC-02,pc-trt-ros-ecc-02,10,6913
34,TRT,TRT-ECC-02,pc-trt-ros-ecc-02,12,6914
34,TRT,TRT-ECC-02,pc-trt-ros-ecc-02,13,7169
34,TRT,TRT-ECC-02,pc-trt-ros-ecc-02,14,7170
34,TRT,TRT-ECC-02,pc-trt-ros-ecc-02,15,7425
34,TRT,TRT-ECC-02,pc-trt-ros-ecc-02,16,7426
34,TRT,TRT-ECC-02,pc-trt-ros-ecc-02,17,7681
34,TRT,TRT-ECC-02,pc-trt-ros-ecc-02,18,7682
34,TRT,TRT-ECC-02,pc-trt-ros-ecc-02,19,7937
34,TRT,TRT-ECC-02,pc-trt-ros-ecc-02,20,7938
34,TRT,TRT-ECC-02,pc-trt-ros-ecc-02,21,8193
34,TRT,TRT-ECC-02,pc-trt-ros-ecc-02,22,8194
