DETECTOR_ID%hex,GLOBAL_DETECTOR_NAME:Globaldetector,DETECTOR_NAME:Detector,ROS_NAME,APPLICATION_ID:Application,APPLICATION_IP_NAME,CHANNEL_ID:Channel,CRAP:Module
-useLevels=Globalsegment,Globaldetector,Detector,Segment,Application,Module,Channel
### -tagSEGMENT_NAME=&ROS_NAME:Segment
-tagSEGMENT_NAME=&DETECTOR_NAME:Segment
### -tagGLOBAL_SEGMENT_NAME=EMULATED
-tagGLOBAL_SEGMENT_NAME=&GLOBAL_DETECTOR_NAME:Globalsegment
-tagAFFINITY_MASK=3
-maxChannels=3
-tagAPPLICATION_IP_DOMAIN=.cern.ch
#---------------END OF GLOBAL SETTINGS----------------------
11,PIX,PIX-B,PIX-B-00,0,lnxatd4017,5896,1
11,PIX,PIX-B,PIX-B-00,0,lnxatd4017,9222,1
11,PIX,PIX-B,PIX-B-00,0,lnxatd4017,5904,1
11,PIX,PIX-B,PIX-B-00,0,lnxatd4017,5906,2
11,PIX,PIX-B,PIX-B-00,0,lnxatd4017,5909,2
11,PIX,PIX-B,PIX-B-00,0,lnxatd4017,6160,2
11,PIX,PIX-B,PIX-B-00,0,lnxatd4017,6162,4
11,PIX,PIX-B,PIX-B-00,0,lnxatd4017,9493,4
11,PIX,PIX-B,PIX-B-00,0,lnxatd4017,9495,4
11,PIX,PIX-B,PIX-B-00,0,lnxatd4017,9497,5
11,PIX,PIX-B,PIX-B-00,0,lnxatd4017,9505,5
11,PIX,PIX-B,PIX-B-01,1,lnxatd4018,5895,1
11,PIX,PIX-B,PIX-B-01,1,lnxatd4018,5897,1
11,PIX,PIX-B,PIX-B-01,1,lnxatd4018,5905,1
11,PIX,PIX-B,PIX-B-01,1,lnxatd4018,5908,2
11,PIX,PIX-B,PIX-B-01,1,lnxatd4018,6153,2
11,PIX,PIX-B,PIX-B-01,1,lnxatd4018,6161,2
11,PIX,PIX-B,PIX-B-01,1,lnxatd4018,9221,4
11,PIX,PIX-B,PIX-B-01,1,lnxatd4018,9492,4
11,PIX,PIX-B,PIX-B-01,1,lnxatd4018,9494,4
11,PIX,PIX-B,PIX-B-01,1,lnxatd4018,9496,5
11,PIX,PIX-B,PIX-B-01,1,lnxatd4018,9504,5
!11,PIX,PIX-B,PIX-B-02,2,pc-pix-ros-b-02,5913,1
!11,PIX,PIX-B,PIX-B-02,2,pc-pix-ros-b-02,5921,1
!11,PIX,PIX-B,PIX-B-02,2,pc-pix-ros-b-02,6150,1
!11,PIX,PIX-B,PIX-B-02,2,pc-pix-ros-b-02,6152,2
!11,PIX,PIX-B,PIX-B-02,2,pc-pix-ros-b-02,6169,2
!11,PIX,PIX-B,PIX-B-02,2,pc-pix-ros-b-02,6177,2
!11,PIX,PIX-B,PIX-B-02,2,pc-pix-ros-b-02,9241,4
!11,PIX,PIX-B,PIX-B-02,2,pc-pix-ros-b-02,9249,4
!11,PIX,PIX-B,PIX-B-02,2,pc-pix-ros-b-02,9490,4
!11,PIX,PIX-B,PIX-B-02,2,pc-pix-ros-b-02,5894,5
!11,PIX,PIX-B,PIX-B-03,3,pc-pix-ros-b-03,5893,1
!11,PIX,PIX-B,PIX-B-03,3,pc-pix-ros-b-03,6149,1
!11,PIX,PIX-B,PIX-B-03,3,pc-pix-ros-b-03,6151,1
!11,PIX,PIX-B,PIX-B-03,3,pc-pix-ros-b-03,6168,2
!11,PIX,PIX-B,PIX-B-03,3,pc-pix-ros-b-03,6176,2
!11,PIX,PIX-B,PIX-B-03,3,pc-pix-ros-b-03,9240,2
!11,PIX,PIX-B,PIX-B-03,3,pc-pix-ros-b-03,9248,4
!11,PIX,PIX-B,PIX-B-03,3,pc-pix-ros-b-03,9489,4
!11,PIX,PIX-B,PIX-B-03,3,pc-pix-ros-b-03,5912,4
!11,PIX,PIX-B,PIX-B-03,3,pc-pix-ros-b-03,5920,5
!11,PIX,PIX-B,PIX-B-04,4,pc-pix-ros-b-04,9477,1
!11,PIX,PIX-B,PIX-B-04,4,pc-pix-ros-b-04,9479,1
!11,PIX,PIX-B,PIX-B-04,4,pc-pix-ros-b-04,9481,1
!11,PIX,PIX-B,PIX-B-04,4,pc-pix-ros-b-04,5911,2
!11,PIX,PIX-B,PIX-B-04,4,pc-pix-ros-b-04,9224,2
!11,PIX,PIX-B,PIX-B-04,4,pc-pix-ros-b-04,9232,2
!11,PIX,PIX-B,PIX-B-04,4,pc-pix-ros-b-04,9234,4
!11,PIX,PIX-B,PIX-B-04,4,pc-pix-ros-b-04,9237,4
!11,PIX,PIX-B,PIX-B-04,4,pc-pix-ros-b-04,9239,4
!11,PIX,PIX-B,PIX-B-04,4,pc-pix-ros-b-04,6165,5
!11,PIX,PIX-B,PIX-B-04,4,pc-pix-ros-b-04,6167,5
!11,PIX,PIX-B,PIX-B-05,5,pc-pix-ros-b-05,9478,1
!11,PIX,PIX-B,PIX-B-05,5,pc-pix-ros-b-05,9480,1
!11,PIX,PIX-B,PIX-B-05,5,pc-pix-ros-b-05,9488,1
!11,PIX,PIX-B,PIX-B-05,5,pc-pix-ros-b-05,5910,2
!11,PIX,PIX-B,PIX-B-05,5,pc-pix-ros-b-05,6164,2
!11,PIX,PIX-B,PIX-B-05,5,pc-pix-ros-b-05,6166,2
!11,PIX,PIX-B,PIX-B-05,5,pc-pix-ros-b-05,9223,4
!11,PIX,PIX-B,PIX-B-05,5,pc-pix-ros-b-05,9225,4
!11,PIX,PIX-B,PIX-B-05,5,pc-pix-ros-b-05,9233,4
!11,PIX,PIX-B,PIX-B-05,5,pc-pix-ros-b-05,9236,5
!11,PIX,PIX-B,PIX-B-05,5,pc-pix-ros-b-05,9238,5
!12,PIX,PIX-DISK,PIX-DISK-00,0,pc-pix-ros-disk-00,517,1
!12,PIX,PIX-DISK,PIX-DISK-00,0,pc-pix-ros-disk-00,519,1
!12,PIX,PIX-DISK,PIX-DISK-00,0,pc-pix-ros-disk-00,521,1
!12,PIX,PIX-DISK,PIX-DISK-00,0,pc-pix-ros-disk-00,529,2
!12,PIX,PIX-DISK,PIX-DISK-00,0,pc-pix-ros-disk-00,532,2
!12,PIX,PIX-DISK,PIX-DISK-00,0,pc-pix-ros-disk-00,534,2
!12,PIX,PIX-DISK,PIX-DISK-00,0,pc-pix-ros-disk-00,536,4
!12,PIX,PIX-DISK,PIX-DISK-00,0,pc-pix-ros-disk-00,544,4
!12,PIX,PIX-DISK,PIX-DISK-00,0,pc-pix-ros-disk-00,5641,4
!12,PIX,PIX-DISK,PIX-DISK-00,0,pc-pix-ros-disk-00,5649,5
!12,PIX,PIX-DISK,PIX-DISK-00,0,pc-pix-ros-disk-00,5652,5
!12,PIX,PIX-DISK,PIX-DISK-00,0,pc-pix-ros-disk-00,5654,5
!12,PIX,PIX-DISK,PIX-DISK-01,1,pc-pix-ros-disk-01,518,1
!12,PIX,PIX-DISK,PIX-DISK-01,1,pc-pix-ros-disk-01,520,1
!12,PIX,PIX-DISK,PIX-DISK-01,1,pc-pix-ros-disk-01,528,1
!12,PIX,PIX-DISK,PIX-DISK-01,1,pc-pix-ros-disk-01,530,2
!12,PIX,PIX-DISK,PIX-DISK-01,1,pc-pix-ros-disk-01,533,2
!12,PIX,PIX-DISK,PIX-DISK-01,1,pc-pix-ros-disk-01,535,2
!12,PIX,PIX-DISK,PIX-DISK-01,1,pc-pix-ros-disk-01,537,4
!12,PIX,PIX-DISK,PIX-DISK-01,1,pc-pix-ros-disk-01,545,4
!12,PIX,PIX-DISK,PIX-DISK-01,1,pc-pix-ros-disk-01,5648,4
!12,PIX,PIX-DISK,PIX-DISK-01,1,pc-pix-ros-disk-01,5650,5
!12,PIX,PIX-DISK,PIX-DISK-01,1,pc-pix-ros-disk-01,5653,5
!12,PIX,PIX-DISK,PIX-DISK-01,1,pc-pix-ros-disk-01,5655,5
!13,PIX,PIX-BL,PIX-BL-00,0,pc-pix-ros-bl-00,7,1
!13,PIX,PIX-BL,PIX-BL-00,0,pc-pix-ros-bl-00,9,1
!13,PIX,PIX-BL,PIX-BL-00,0,pc-pix-ros-bl-00,16,1
!13,PIX,PIX-BL,PIX-BL-00,0,pc-pix-ros-bl-00,17,2
!13,PIX,PIX-BL,PIX-BL-00,0,pc-pix-ros-bl-00,18,2
!13,PIX,PIX-BL,PIX-BL-00,0,pc-pix-ros-bl-00,20,2
!13,PIX,PIX-BL,PIX-BL-00,0,pc-pix-ros-bl-00,21,4
!13,PIX,PIX-BL,PIX-BL-00,0,pc-pix-ros-bl-00,22,4
!13,PIX,PIX-BL,PIX-BL-00,0,pc-pix-ros-bl-00,23,4
!13,PIX,PIX-BL,PIX-BL-00,0,pc-pix-ros-bl-00,24,5
!13,PIX,PIX-BL,PIX-BL-00,0,pc-pix-ros-bl-00,25,5
!13,PIX,PIX-BL,PIX-BL-01,1,pc-pix-ros-bl-01,786,1
!13,PIX,PIX-BL,PIX-BL-01,1,pc-pix-ros-bl-01,788,1
!13,PIX,PIX-BL,PIX-BL-01,1,pc-pix-ros-bl-01,789,1
!13,PIX,PIX-BL,PIX-BL-01,1,pc-pix-ros-bl-01,790,2
!13,PIX,PIX-BL,PIX-BL-01,1,pc-pix-ros-bl-01,791,2
!13,PIX,PIX-BL,PIX-BL-01,1,pc-pix-ros-bl-01,263,2
!13,PIX,PIX-BL,PIX-BL-01,1,pc-pix-ros-bl-01,264,4
!13,PIX,PIX-BL,PIX-BL-01,1,pc-pix-ros-bl-01,265,4
!13,PIX,PIX-BL,PIX-BL-01,1,pc-pix-ros-bl-01,272,4
!13,PIX,PIX-BL,PIX-BL-01,1,pc-pix-ros-bl-01,273,5
!13,PIX,PIX-BL,PIX-BL-01,1,pc-pix-ros-bl-01,274,5
!13,PIX,PIX-BL,PIX-BL-02,2,pc-pix-ros-bl-02,5,1
!13,PIX,PIX-BL,PIX-BL-02,2,pc-pix-ros-bl-02,6,1
!13,PIX,PIX-BL,PIX-BL-02,2,pc-pix-ros-bl-02,8,1
!13,PIX,PIX-BL,PIX-BL-02,2,pc-pix-ros-bl-02,276,2
!13,PIX,PIX-BL,PIX-BL-02,2,pc-pix-ros-bl-02,277,2
!13,PIX,PIX-BL,PIX-BL-02,2,pc-pix-ros-bl-02,278,2
!13,PIX,PIX-BL,PIX-BL-02,2,pc-pix-ros-bl-02,279,4
!13,PIX,PIX-BL,PIX-BL-02,2,pc-pix-ros-bl-02,280,4
!13,PIX,PIX-BL,PIX-BL-02,2,pc-pix-ros-bl-02,281,4
!13,PIX,PIX-BL,PIX-BL-02,2,pc-pix-ros-bl-02,288,5
!13,PIX,PIX-BL,PIX-BL-02,2,pc-pix-ros-bl-02,289,5
!13,PIX,PIX-BL,PIX-BL-03,3,pc-pix-ros-bl-03,775,1
!13,PIX,PIX-BL,PIX-BL-03,3,pc-pix-ros-bl-03,776,1
!13,PIX,PIX-BL,PIX-BL-03,3,pc-pix-ros-bl-03,777,1
!13,PIX,PIX-BL,PIX-BL-03,3,pc-pix-ros-bl-03,784,2
!13,PIX,PIX-BL,PIX-BL-03,3,pc-pix-ros-bl-03,785,2
!13,PIX,PIX-BL,PIX-BL-03,3,pc-pix-ros-bl-03,32,2
!13,PIX,PIX-BL,PIX-BL-03,3,pc-pix-ros-bl-03,33,4
!13,PIX,PIX-BL,PIX-BL-03,3,pc-pix-ros-bl-03,261,4
!13,PIX,PIX-BL,PIX-BL-03,3,pc-pix-ros-bl-03,262,4
!13,PIX,PIX-BL,PIX-BL-03,3,pc-pix-ros-bl-03,792,5
!13,PIX,PIX-BL,PIX-BL-03,3,pc-pix-ros-bl-03,793,5
21,SCT,SCT-BA,SCT-BA-00,0,lnxatd4017,0,1
21,SCT,SCT-BA,SCT-BA-00,0,lnxatd4017,1,1
21,SCT,SCT-BA,SCT-BA-00,0,lnxatd4017,2,1
21,SCT,SCT-BA,SCT-BA-00,0,lnxatd4017,3,2
21,SCT,SCT-BA,SCT-BA-00,0,lnxatd4017,4,2
21,SCT,SCT-BA,SCT-BA-00,0,lnxatd4017,5,2
21,SCT,SCT-BA,SCT-BA-00,0,lnxatd4017,6,4
21,SCT,SCT-BA,SCT-BA-00,0,lnxatd4017,7,4
21,SCT,SCT-BA,SCT-BA-00,0,lnxatd4017,8,4
21,SCT,SCT-BA,SCT-BA-00,0,lnxatd4017,9,5
21,SCT,SCT-BA,SCT-BA-00,0,lnxatd4017,10,5
21,SCT,SCT-BA,SCT-BA-01,1,lnxatd4018,256,1
21,SCT,SCT-BA,SCT-BA-01,1,lnxatd4018,257,1
21,SCT,SCT-BA,SCT-BA-01,1,lnxatd4018,258,1
21,SCT,SCT-BA,SCT-BA-01,1,lnxatd4018,259,2
21,SCT,SCT-BA,SCT-BA-01,1,lnxatd4018,260,2
21,SCT,SCT-BA,SCT-BA-01,1,lnxatd4018,261,2
21,SCT,SCT-BA,SCT-BA-01,1,lnxatd4018,262,4
21,SCT,SCT-BA,SCT-BA-01,1,lnxatd4018,263,4
21,SCT,SCT-BA,SCT-BA-01,1,lnxatd4018,264,4
21,SCT,SCT-BA,SCT-BA-01,1,lnxatd4018,265,5
21,SCT,SCT-BA,SCT-BA-01,1,lnxatd4018,266,5
!22,SCT,SCT-BC,SCT-BC-00,0,pc-sct-ros-bc-00,0,1
!22,SCT,SCT-BC,SCT-BC-00,0,pc-sct-ros-bc-00,1,1
!22,SCT,SCT-BC,SCT-BC-00,0,pc-sct-ros-bc-00,2,1
!22,SCT,SCT-BC,SCT-BC-00,0,pc-sct-ros-bc-00,3,2
!22,SCT,SCT-BC,SCT-BC-00,0,pc-sct-ros-bc-00,4,2
!22,SCT,SCT-BC,SCT-BC-00,0,pc-sct-ros-bc-00,5,2
!22,SCT,SCT-BC,SCT-BC-00,0,pc-sct-ros-bc-00,6,4
!22,SCT,SCT-BC,SCT-BC-00,0,pc-sct-ros-bc-00,7,4
!22,SCT,SCT-BC,SCT-BC-00,0,pc-sct-ros-bc-00,8,4
!22,SCT,SCT-BC,SCT-BC-00,0,pc-sct-ros-bc-00,9,5
!22,SCT,SCT-BC,SCT-BC-00,0,pc-sct-ros-bc-00,10,5
!22,SCT,SCT-BC,SCT-BC-01,1,pc-sct-ros-bc-01,256,1
!22,SCT,SCT-BC,SCT-BC-01,1,pc-sct-ros-bc-01,257,1
!22,SCT,SCT-BC,SCT-BC-01,1,pc-sct-ros-bc-01,258,1
!22,SCT,SCT-BC,SCT-BC-01,1,pc-sct-ros-bc-01,259,2
!22,SCT,SCT-BC,SCT-BC-01,1,pc-sct-ros-bc-01,260,2
!22,SCT,SCT-BC,SCT-BC-01,1,pc-sct-ros-bc-01,261,2
!22,SCT,SCT-BC,SCT-BC-01,1,pc-sct-ros-bc-01,262,4
!22,SCT,SCT-BC,SCT-BC-01,1,pc-sct-ros-bc-01,263,4
!22,SCT,SCT-BC,SCT-BC-01,1,pc-sct-ros-bc-01,264,4
!22,SCT,SCT-BC,SCT-BC-01,1,pc-sct-ros-bc-01,265,5
!22,SCT,SCT-BC,SCT-BC-01,1,pc-sct-ros-bc-01,266,5
!23,SCT,SCT-ECA,SCT-ECA-00,0,pc-sct-ros-eca-00,0,1
!23,SCT,SCT-ECA,SCT-ECA-00,0,pc-sct-ros-eca-00,1,1
!23,SCT,SCT-ECA,SCT-ECA-00,0,pc-sct-ros-eca-00,2,1
!23,SCT,SCT-ECA,SCT-ECA-00,0,pc-sct-ros-eca-00,3,2
!23,SCT,SCT-ECA,SCT-ECA-00,0,pc-sct-ros-eca-00,4,2
!23,SCT,SCT-ECA,SCT-ECA-00,0,pc-sct-ros-eca-00,5,2
!23,SCT,SCT-ECA,SCT-ECA-00,0,pc-sct-ros-eca-00,6,4
!23,SCT,SCT-ECA,SCT-ECA-00,0,pc-sct-ros-eca-00,7,4
!23,SCT,SCT-ECA,SCT-ECA-00,0,pc-sct-ros-eca-00,8,4
!23,SCT,SCT-ECA,SCT-ECA-00,0,pc-sct-ros-eca-00,9,5
!23,SCT,SCT-ECA,SCT-ECA-00,0,pc-sct-ros-eca-00,10,5
!23,SCT,SCT-ECA,SCT-ECA-01,1,pc-sct-ros-eca-01,256,1
!23,SCT,SCT-ECA,SCT-ECA-01,1,pc-sct-ros-eca-01,257,1
!23,SCT,SCT-ECA,SCT-ECA-01,1,pc-sct-ros-eca-01,258,1
!23,SCT,SCT-ECA,SCT-ECA-01,1,pc-sct-ros-eca-01,259,2
!23,SCT,SCT-ECA,SCT-ECA-01,1,pc-sct-ros-eca-01,260,2
!23,SCT,SCT-ECA,SCT-ECA-01,1,pc-sct-ros-eca-01,261,2
!23,SCT,SCT-ECA,SCT-ECA-01,1,pc-sct-ros-eca-01,262,4
!23,SCT,SCT-ECA,SCT-ECA-01,1,pc-sct-ros-eca-01,263,4
!23,SCT,SCT-ECA,SCT-ECA-01,1,pc-sct-ros-eca-01,264,4
!23,SCT,SCT-ECA,SCT-ECA-01,1,pc-sct-ros-eca-01,265,5
!23,SCT,SCT-ECA,SCT-ECA-01,1,pc-sct-ros-eca-01,266,5
!23,SCT,SCT-ECA,SCT-ECA-01,1,pc-sct-ros-eca-01,267,5
!24,SCT,SCT-ECC,SCT-ECC-00,0,pc-sct-ros-ecc-00,0,1
!24,SCT,SCT-ECC,SCT-ECC-00,0,pc-sct-ros-ecc-00,1,1
!24,SCT,SCT-ECC,SCT-ECC-00,0,pc-sct-ros-ecc-00,2,1
!24,SCT,SCT-ECC,SCT-ECC-00,0,pc-sct-ros-ecc-00,3,2
!24,SCT,SCT-ECC,SCT-ECC-00,0,pc-sct-ros-ecc-00,4,2
!24,SCT,SCT-ECC,SCT-ECC-00,0,pc-sct-ros-ecc-00,5,2
!24,SCT,SCT-ECC,SCT-ECC-00,0,pc-sct-ros-ecc-00,6,4
!24,SCT,SCT-ECC,SCT-ECC-00,0,pc-sct-ros-ecc-00,7,4
!24,SCT,SCT-ECC,SCT-ECC-00,0,pc-sct-ros-ecc-00,8,4
!24,SCT,SCT-ECC,SCT-ECC-00,0,pc-sct-ros-ecc-00,9,5
!24,SCT,SCT-ECC,SCT-ECC-00,0,pc-sct-ros-ecc-00,10,5
!24,SCT,SCT-ECC,SCT-ECC-00,0,pc-sct-ros-ecc-00,11,5
!24,SCT,SCT-ECC,SCT-ECC-01,1,pc-sct-ros-ecc-01,256,1
!24,SCT,SCT-ECC,SCT-ECC-01,1,pc-sct-ros-ecc-01,257,1
!24,SCT,SCT-ECC,SCT-ECC-01,1,pc-sct-ros-ecc-01,258,1
!24,SCT,SCT-ECC,SCT-ECC-01,1,pc-sct-ros-ecc-01,259,2
!24,SCT,SCT-ECC,SCT-ECC-01,1,pc-sct-ros-ecc-01,260,2
!24,SCT,SCT-ECC,SCT-ECC-01,1,pc-sct-ros-ecc-01,261,2
!24,SCT,SCT-ECC,SCT-ECC-01,1,pc-sct-ros-ecc-01,262,4
!24,SCT,SCT-ECC,SCT-ECC-01,1,pc-sct-ros-ecc-01,263,4
!24,SCT,SCT-ECC,SCT-ECC-01,1,pc-sct-ros-ecc-01,264,4
!24,SCT,SCT-ECC,SCT-ECC-01,1,pc-sct-ros-ecc-01,265,5
!24,SCT,SCT-ECC,SCT-ECC-01,1,pc-sct-ros-ecc-01,266,5
31,TRT,TRT-BA,TRT-BA-00,0,lnxatd4017,256,1
31,TRT,TRT-BA,TRT-BA-00,0,lnxatd4017,512,1
31,TRT,TRT-BA,TRT-BA-00,0,lnxatd4017,768,1
31,TRT,TRT-BA,TRT-BA-00,0,lnxatd4017,1024,2
31,TRT,TRT-BA,TRT-BA-00,0,lnxatd4017,1280,2
31,TRT,TRT-BA,TRT-BA-00,0,lnxatd4017,1536,2
31,TRT,TRT-BA,TRT-BA-00,0,lnxatd4017,1792,4
31,TRT,TRT-BA,TRT-BA-00,0,lnxatd4017,2048,4
31,TRT,TRT-BA,TRT-BA-00,0,lnxatd4017,2304,4
31,TRT,TRT-BA,TRT-BA-00,0,lnxatd4017,2560,5
31,TRT,TRT-BA,TRT-BA-00,0,lnxatd4017,2816,5
31,TRT,TRT-BA,TRT-BA-00,0,lnxatd4017,3072,5
31,TRT,TRT-BA,TRT-BA-01,1,lnxatd4018,3328,1
31,TRT,TRT-BA,TRT-BA-01,1,lnxatd4018,3584,1
31,TRT,TRT-BA,TRT-BA-01,1,lnxatd4018,3840,1
31,TRT,TRT-BA,TRT-BA-01,1,lnxatd4018,4096,2
31,TRT,TRT-BA,TRT-BA-01,1,lnxatd4018,4352,2
31,TRT,TRT-BA,TRT-BA-01,1,lnxatd4018,4608,2
31,TRT,TRT-BA,TRT-BA-01,1,lnxatd4018,4864,4
31,TRT,TRT-BA,TRT-BA-01,1,lnxatd4018,5120,4
31,TRT,TRT-BA,TRT-BA-01,1,lnxatd4018,5376,4
31,TRT,TRT-BA,TRT-BA-01,1,lnxatd4018,5632,5
31,TRT,TRT-BA,TRT-BA-01,1,lnxatd4018,5888,5
31,TRT,TRT-BA,TRT-BA-01,1,lnxatd4018,6144,5
!31,TRT,TRT-BA,TRT-BA-02,2,pc-trt-ros-ba-02,6400,1
!31,TRT,TRT-BA,TRT-BA-02,2,pc-trt-ros-ba-02,6656,1
!31,TRT,TRT-BA,TRT-BA-02,2,pc-trt-ros-ba-02,6912,1
!31,TRT,TRT-BA,TRT-BA-02,2,pc-trt-ros-ba-02,7168,2
!31,TRT,TRT-BA,TRT-BA-02,2,pc-trt-ros-ba-02,7424,2
!31,TRT,TRT-BA,TRT-BA-02,2,pc-trt-ros-ba-02,7680,2
!31,TRT,TRT-BA,TRT-BA-02,2,pc-trt-ros-ba-02,7936,4
!31,TRT,TRT-BA,TRT-BA-02,2,pc-trt-ros-ba-02,8192,4
!32,TRT,TRT-BC,TRT-BC-00,0,pc-trt-ros-bc-00,256,1
!32,TRT,TRT-BC,TRT-BC-00,0,pc-trt-ros-bc-00,512,1
!32,TRT,TRT-BC,TRT-BC-00,0,pc-trt-ros-bc-00,768,1
!32,TRT,TRT-BC,TRT-BC-00,0,pc-trt-ros-bc-00,1024,2
!32,TRT,TRT-BC,TRT-BC-00,0,pc-trt-ros-bc-00,1280,2
!32,TRT,TRT-BC,TRT-BC-00,0,pc-trt-ros-bc-00,1536,2
!32,TRT,TRT-BC,TRT-BC-00,0,pc-trt-ros-bc-00,1792,4
!32,TRT,TRT-BC,TRT-BC-00,0,pc-trt-ros-bc-00,2048,4
!32,TRT,TRT-BC,TRT-BC-00,0,pc-trt-ros-bc-00,2304,4
!32,TRT,TRT-BC,TRT-BC-00,0,pc-trt-ros-bc-00,2560,5
!32,TRT,TRT-BC,TRT-BC-00,0,pc-trt-ros-bc-00,2816,5
!32,TRT,TRT-BC,TRT-BC-00,0,pc-trt-ros-bc-00,3072,5
!32,TRT,TRT-BC,TRT-BC-01,1,pc-trt-ros-bc-01,3328,1
!32,TRT,TRT-BC,TRT-BC-01,1,pc-trt-ros-bc-01,3584,1
!32,TRT,TRT-BC,TRT-BC-01,1,pc-trt-ros-bc-01,3840,1
!32,TRT,TRT-BC,TRT-BC-01,1,pc-trt-ros-bc-01,4096,2
!32,TRT,TRT-BC,TRT-BC-01,1,pc-trt-ros-bc-01,4352,2
!32,TRT,TRT-BC,TRT-BC-01,1,pc-trt-ros-bc-01,4608,2
!32,TRT,TRT-BC,TRT-BC-01,1,pc-trt-ros-bc-01,4864,4
!32,TRT,TRT-BC,TRT-BC-01,1,pc-trt-ros-bc-01,5120,4
!32,TRT,TRT-BC,TRT-BC-01,1,pc-trt-ros-bc-01,5376,4
!32,TRT,TRT-BC,TRT-BC-01,1,pc-trt-ros-bc-01,5632,5
!32,TRT,TRT-BC,TRT-BC-01,1,pc-trt-ros-bc-01,5888,5
!32,TRT,TRT-BC,TRT-BC-01,1,pc-trt-ros-bc-01,6144,5
!32,TRT,TRT-BC,TRT-BC-02,2,pc-trt-ros-bc-02,6400,1
!32,TRT,TRT-BC,TRT-BC-02,2,pc-trt-ros-bc-02,6656,1
!32,TRT,TRT-BC,TRT-BC-02,2,pc-trt-ros-bc-02,6912,1
!32,TRT,TRT-BC,TRT-BC-02,2,pc-trt-ros-bc-02,7168,2
!32,TRT,TRT-BC,TRT-BC-02,2,pc-trt-ros-bc-02,7424,2
!32,TRT,TRT-BC,TRT-BC-02,2,pc-trt-ros-bc-02,7680,2
!32,TRT,TRT-BC,TRT-BC-02,2,pc-trt-ros-bc-02,7936,4
!32,TRT,TRT-BC,TRT-BC-02,2,pc-trt-ros-bc-02,8192,4
!33,TRT,TRT-ECA,TRT-ECA-00,0,pc-trt-ros-eca-00,257,1
!33,TRT,TRT-ECA,TRT-ECA-00,0,pc-trt-ros-eca-00,258,1
!33,TRT,TRT-ECA,TRT-ECA-00,0,pc-trt-ros-eca-00,513,1
!33,TRT,TRT-ECA,TRT-ECA-00,0,pc-trt-ros-eca-00,514,2
!33,TRT,TRT-ECA,TRT-ECA-00,0,pc-trt-ros-eca-00,769,2
!33,TRT,TRT-ECA,TRT-ECA-00,0,pc-trt-ros-eca-00,770,2
!33,TRT,TRT-ECA,TRT-ECA-00,0,pc-trt-ros-eca-00,1025,4
!33,TRT,TRT-ECA,TRT-ECA-00,0,pc-trt-ros-eca-00,1026,4
!33,TRT,TRT-ECA,TRT-ECA-00,0,pc-trt-ros-eca-00,1281,4
!33,TRT,TRT-ECA,TRT-ECA-00,0,pc-trt-ros-eca-00,1282,5
!33,TRT,TRT-ECA,TRT-ECA-01,1,pc-trt-ros-eca-01,1537,1
!33,TRT,TRT-ECA,TRT-ECA-01,1,pc-trt-ros-eca-01,1538,1
!33,TRT,TRT-ECA,TRT-ECA-01,1,pc-trt-ros-eca-01,1793,1
!33,TRT,TRT-ECA,TRT-ECA-01,1,pc-trt-ros-eca-01,1794,2
!33,TRT,TRT-ECA,TRT-ECA-01,1,pc-trt-ros-eca-01,2049,2
!33,TRT,TRT-ECA,TRT-ECA-01,1,pc-trt-ros-eca-01,2050,2
!33,TRT,TRT-ECA,TRT-ECA-01,1,pc-trt-ros-eca-01,2305,4
!33,TRT,TRT-ECA,TRT-ECA-01,1,pc-trt-ros-eca-01,2306,4
!33,TRT,TRT-ECA,TRT-ECA-01,1,pc-trt-ros-eca-01,2561,4
!33,TRT,TRT-ECA,TRT-ECA-01,1,pc-trt-ros-eca-01,2562,5
!33,TRT,TRT-ECA,TRT-ECA-02,2,pc-trt-ros-eca-02,2817,1
!33,TRT,TRT-ECA,TRT-ECA-02,2,pc-trt-ros-eca-02,2818,1
!33,TRT,TRT-ECA,TRT-ECA-02,2,pc-trt-ros-eca-02,3073,1
!33,TRT,TRT-ECA,TRT-ECA-02,2,pc-trt-ros-eca-02,3074,2
!33,TRT,TRT-ECA,TRT-ECA-02,2,pc-trt-ros-eca-02,3329,2
!33,TRT,TRT-ECA,TRT-ECA-02,2,pc-trt-ros-eca-02,3330,2
!33,TRT,TRT-ECA,TRT-ECA-02,2,pc-trt-ros-eca-02,3585,4
!33,TRT,TRT-ECA,TRT-ECA-02,2,pc-trt-ros-eca-02,3586,4
!33,TRT,TRT-ECA,TRT-ECA-02,2,pc-trt-ros-eca-02,3841,4
!33,TRT,TRT-ECA,TRT-ECA-02,2,pc-trt-ros-eca-02,3842,5
!33,TRT,TRT-ECA,TRT-ECA-03,3,pc-trt-ros-eca-03,4097,1
!33,TRT,TRT-ECA,TRT-ECA-03,3,pc-trt-ros-eca-03,4098,1
!33,TRT,TRT-ECA,TRT-ECA-03,3,pc-trt-ros-eca-03,4353,1
!33,TRT,TRT-ECA,TRT-ECA-03,3,pc-trt-ros-eca-03,4354,2
!33,TRT,TRT-ECA,TRT-ECA-03,3,pc-trt-ros-eca-03,4609,2
!33,TRT,TRT-ECA,TRT-ECA-03,3,pc-trt-ros-eca-03,4610,2
!33,TRT,TRT-ECA,TRT-ECA-03,3,pc-trt-ros-eca-03,4865,4
!33,TRT,TRT-ECA,TRT-ECA-03,3,pc-trt-ros-eca-03,4866,4
!33,TRT,TRT-ECA,TRT-ECA-03,3,pc-trt-ros-eca-03,5121,4
!33,TRT,TRT-ECA,TRT-ECA-03,3,pc-trt-ros-eca-03,5122,5
!33,TRT,TRT-ECA,TRT-ECA-04,4,pc-trt-ros-eca-04,5377,1
!33,TRT,TRT-ECA,TRT-ECA-04,4,pc-trt-ros-eca-04,5378,1
!33,TRT,TRT-ECA,TRT-ECA-04,4,pc-trt-ros-eca-04,5633,1
!33,TRT,TRT-ECA,TRT-ECA-04,4,pc-trt-ros-eca-04,5634,2
!33,TRT,TRT-ECA,TRT-ECA-04,4,pc-trt-ros-eca-04,5889,2
!33,TRT,TRT-ECA,TRT-ECA-04,4,pc-trt-ros-eca-04,5890,2
!33,TRT,TRT-ECA,TRT-ECA-04,4,pc-trt-ros-eca-04,6145,4
!33,TRT,TRT-ECA,TRT-ECA-04,4,pc-trt-ros-eca-04,6146,4
!33,TRT,TRT-ECA,TRT-ECA-04,4,pc-trt-ros-eca-04,6401,4
!33,TRT,TRT-ECA,TRT-ECA-04,4,pc-trt-ros-eca-04,6402,5
!33,TRT,TRT-ECA,TRT-ECA-04,4,pc-trt-ros-eca-04,6657,5
!33,TRT,TRT-ECA,TRT-ECA-04,4,pc-trt-ros-eca-04,6658,5
!33,TRT,TRT-ECA,TRT-ECA-05,5,pc-trt-ros-eca-05,6913,1
!33,TRT,TRT-ECA,TRT-ECA-05,5,pc-trt-ros-eca-05,6914,1
!33,TRT,TRT-ECA,TRT-ECA-05,5,pc-trt-ros-eca-05,7169,1
!33,TRT,TRT-ECA,TRT-ECA-05,5,pc-trt-ros-eca-05,7170,2
!33,TRT,TRT-ECA,TRT-ECA-05,5,pc-trt-ros-eca-05,7425,2
!33,TRT,TRT-ECA,TRT-ECA-05,5,pc-trt-ros-eca-05,7426,2
!33,TRT,TRT-ECA,TRT-ECA-05,5,pc-trt-ros-eca-05,7681,4
!33,TRT,TRT-ECA,TRT-ECA-05,5,pc-trt-ros-eca-05,7682,4
!33,TRT,TRT-ECA,TRT-ECA-05,5,pc-trt-ros-eca-05,7937,4
!33,TRT,TRT-ECA,TRT-ECA-05,5,pc-trt-ros-eca-05,7938,5
!33,TRT,TRT-ECA,TRT-ECA-05,5,pc-trt-ros-eca-05,8193,5
!33,TRT,TRT-ECA,TRT-ECA-05,5,pc-trt-ros-eca-05,8194,5
!34,TRT,TRT-ECC,TRT-ECC-00,0,pc-trt-ros-ecc-00,257,1
!34,TRT,TRT-ECC,TRT-ECC-00,0,pc-trt-ros-ecc-00,258,1
!34,TRT,TRT-ECC,TRT-ECC-00,0,pc-trt-ros-ecc-00,513,1
!34,TRT,TRT-ECC,TRT-ECC-00,0,pc-trt-ros-ecc-00,514,2
!34,TRT,TRT-ECC,TRT-ECC-00,0,pc-trt-ros-ecc-00,769,2
!34,TRT,TRT-ECC,TRT-ECC-00,0,pc-trt-ros-ecc-00,770,2
!34,TRT,TRT-ECC,TRT-ECC-00,0,pc-trt-ros-ecc-00,1025,4
!34,TRT,TRT-ECC,TRT-ECC-00,0,pc-trt-ros-ecc-00,1026,4
!34,TRT,TRT-ECC,TRT-ECC-00,0,pc-trt-ros-ecc-00,1281,4
!34,TRT,TRT-ECC,TRT-ECC-00,0,pc-trt-ros-ecc-00,1282,5
!34,TRT,TRT-ECC,TRT-ECC-01,1,pc-trt-ros-ecc-01,1537,1
!34,TRT,TRT-ECC,TRT-ECC-01,1,pc-trt-ros-ecc-01,1538,1
!34,TRT,TRT-ECC,TRT-ECC-01,1,pc-trt-ros-ecc-01,1793,1
!34,TRT,TRT-ECC,TRT-ECC-01,1,pc-trt-ros-ecc-01,1794,2
!34,TRT,TRT-ECC,TRT-ECC-01,1,pc-trt-ros-ecc-01,2049,2
!34,TRT,TRT-ECC,TRT-ECC-01,1,pc-trt-ros-ecc-01,2050,2
!34,TRT,TRT-ECC,TRT-ECC-01,1,pc-trt-ros-ecc-01,2305,4
!34,TRT,TRT-ECC,TRT-ECC-01,1,pc-trt-ros-ecc-01,2306,4
!34,TRT,TRT-ECC,TRT-ECC-01,1,pc-trt-ros-ecc-01,2561,4
!34,TRT,TRT-ECC,TRT-ECC-01,1,pc-trt-ros-ecc-01,2562,5
!34,TRT,TRT-ECC,TRT-ECC-02,2,pc-trt-ros-ecc-02,2817,1
!34,TRT,TRT-ECC,TRT-ECC-02,2,pc-trt-ros-ecc-02,2818,1
!34,TRT,TRT-ECC,TRT-ECC-02,2,pc-trt-ros-ecc-02,3073,1
!34,TRT,TRT-ECC,TRT-ECC-02,2,pc-trt-ros-ecc-02,3074,2
!34,TRT,TRT-ECC,TRT-ECC-02,2,pc-trt-ros-ecc-02,3329,2
!34,TRT,TRT-ECC,TRT-ECC-02,2,pc-trt-ros-ecc-02,3330,2
!34,TRT,TRT-ECC,TRT-ECC-02,2,pc-trt-ros-ecc-02,3585,4
!34,TRT,TRT-ECC,TRT-ECC-02,2,pc-trt-ros-ecc-02,3586,4
!34,TRT,TRT-ECC,TRT-ECC-02,2,pc-trt-ros-ecc-02,3841,4
!34,TRT,TRT-ECC,TRT-ECC-02,2,pc-trt-ros-ecc-02,3842,5
!34,TRT,TRT-ECC,TRT-ECC-03,3,pc-trt-ros-ecc-03,4097,1
!34,TRT,TRT-ECC,TRT-ECC-03,3,pc-trt-ros-ecc-03,4098,1
!34,TRT,TRT-ECC,TRT-ECC-03,3,pc-trt-ros-ecc-03,4353,1
!34,TRT,TRT-ECC,TRT-ECC-03,3,pc-trt-ros-ecc-03,4354,2
!34,TRT,TRT-ECC,TRT-ECC-03,3,pc-trt-ros-ecc-03,4609,2
!34,TRT,TRT-ECC,TRT-ECC-03,3,pc-trt-ros-ecc-03,4610,2
!34,TRT,TRT-ECC,TRT-ECC-03,3,pc-trt-ros-ecc-03,4865,4
!34,TRT,TRT-ECC,TRT-ECC-03,3,pc-trt-ros-ecc-03,4866,4
!34,TRT,TRT-ECC,TRT-ECC-03,3,pc-trt-ros-ecc-03,5121,4
!34,TRT,TRT-ECC,TRT-ECC-03,3,pc-trt-ros-ecc-03,5122,5
!34,TRT,TRT-ECC,TRT-ECC-04,4,pc-trt-ros-ecc-04,5377,1
!34,TRT,TRT-ECC,TRT-ECC-04,4,pc-trt-ros-ecc-04,5378,1
!34,TRT,TRT-ECC,TRT-ECC-04,4,pc-trt-ros-ecc-04,5633,1
!34,TRT,TRT-ECC,TRT-ECC-04,4,pc-trt-ros-ecc-04,5634,2
!34,TRT,TRT-ECC,TRT-ECC-04,4,pc-trt-ros-ecc-04,5889,2
!34,TRT,TRT-ECC,TRT-ECC-04,4,pc-trt-ros-ecc-04,5890,2
!34,TRT,TRT-ECC,TRT-ECC-04,4,pc-trt-ros-ecc-04,6145,4
!34,TRT,TRT-ECC,TRT-ECC-04,4,pc-trt-ros-ecc-04,6146,4
!34,TRT,TRT-ECC,TRT-ECC-04,4,pc-trt-ros-ecc-04,6401,4
!34,TRT,TRT-ECC,TRT-ECC-04,4,pc-trt-ros-ecc-04,6402,5
!34,TRT,TRT-ECC,TRT-ECC-04,4,pc-trt-ros-ecc-04,6657,5
!34,TRT,TRT-ECC,TRT-ECC-04,4,pc-trt-ros-ecc-04,6658,5
!34,TRT,TRT-ECC,TRT-ECC-05,5,pc-trt-ros-ecc-05,6913,1
!34,TRT,TRT-ECC,TRT-ECC-05,5,pc-trt-ros-ecc-05,6914,1
!34,TRT,TRT-ECC,TRT-ECC-05,5,pc-trt-ros-ecc-05,7169,1
!34,TRT,TRT-ECC,TRT-ECC-05,5,pc-trt-ros-ecc-05,7170,2
!34,TRT,TRT-ECC,TRT-ECC-05,5,pc-trt-ros-ecc-05,7425,2
!34,TRT,TRT-ECC,TRT-ECC-05,5,pc-trt-ros-ecc-05,7426,2
!34,TRT,TRT-ECC,TRT-ECC-05,5,pc-trt-ros-ecc-05,7681,4
!34,TRT,TRT-ECC,TRT-ECC-05,5,pc-trt-ros-ecc-05,7682,4
!34,TRT,TRT-ECC,TRT-ECC-05,5,pc-trt-ros-ecc-05,7937,4
!34,TRT,TRT-ECC,TRT-ECC-05,5,pc-trt-ros-ecc-05,7938,5
!34,TRT,TRT-ECC,TRT-ECC-05,5,pc-trt-ros-ecc-05,8193,5
!34,TRT,TRT-ECC,TRT-ECC-05,5,pc-trt-ros-ecc-05,8194,5
41,LAR,LAR-EMBA,LAR-EMBA-00,0,lnxatd4017,0,1
41,LAR,LAR-EMBA,LAR-EMBA-00,0,lnxatd4017,1,1
41,LAR,LAR-EMBA,LAR-EMBA-00,0,lnxatd4017,2,1
41,LAR,LAR-EMBA,LAR-EMBA-00,0,lnxatd4017,3,2
41,LAR,LAR-EMBA,LAR-EMBA-00,0,lnxatd4017,4,2
41,LAR,LAR-EMBA,LAR-EMBA-00,0,lnxatd4017,5,2
41,LAR,LAR-EMBA,LAR-EMBA-00,0,lnxatd4017,6,4
41,LAR,LAR-EMBA,LAR-EMBA-00,0,lnxatd4017,7,4
41,LAR,LAR-EMBA,LAR-EMBA-00,0,lnxatd4017,8,4
41,LAR,LAR-EMBA,LAR-EMBA-00,0,lnxatd4017,9,5
41,LAR,LAR-EMBA,LAR-EMBA-00,0,lnxatd4017,10,5
41,LAR,LAR-EMBA,LAR-EMBA-00,0,lnxatd4017,11,5
41,LAR,LAR-EMBA,LAR-EMBA-01,1,lnxatd4018,12,1
41,LAR,LAR-EMBA,LAR-EMBA-01,1,lnxatd4018,13,1
41,LAR,LAR-EMBA,LAR-EMBA-01,1,lnxatd4018,14,1
41,LAR,LAR-EMBA,LAR-EMBA-01,1,lnxatd4018,15,2
41,LAR,LAR-EMBA,LAR-EMBA-01,1,lnxatd4018,16,2
41,LAR,LAR-EMBA,LAR-EMBA-01,1,lnxatd4018,17,2
41,LAR,LAR-EMBA,LAR-EMBA-01,1,lnxatd4018,18,4
41,LAR,LAR-EMBA,LAR-EMBA-01,1,lnxatd4018,19,4
41,LAR,LAR-EMBA,LAR-EMBA-01,1,lnxatd4018,20,4
41,LAR,LAR-EMBA,LAR-EMBA-01,1,lnxatd4018,21,5
41,LAR,LAR-EMBA,LAR-EMBA-01,1,lnxatd4018,22,5
41,LAR,LAR-EMBA,LAR-EMBA-01,1,lnxatd4018,23,5
!41,LAR,LAR-EMBA,LAR-EMBA-02,2,pc-lar-ros-emba-02,24,1
!41,LAR,LAR-EMBA,LAR-EMBA-02,2,pc-lar-ros-emba-02,25,1
!41,LAR,LAR-EMBA,LAR-EMBA-02,2,pc-lar-ros-emba-02,26,1
!41,LAR,LAR-EMBA,LAR-EMBA-02,2,pc-lar-ros-emba-02,27,2
!41,LAR,LAR-EMBA,LAR-EMBA-02,2,pc-lar-ros-emba-02,28,2
!41,LAR,LAR-EMBA,LAR-EMBA-02,2,pc-lar-ros-emba-02,29,2
!41,LAR,LAR-EMBA,LAR-EMBA-02,2,pc-lar-ros-emba-02,30,4
!41,LAR,LAR-EMBA,LAR-EMBA-02,2,pc-lar-ros-emba-02,31,4
!41,LAR,LAR-EMBA,LAR-EMBA-02,2,pc-lar-ros-emba-02,32,4
!41,LAR,LAR-EMBA,LAR-EMBA-02,2,pc-lar-ros-emba-02,33,5
!41,LAR,LAR-EMBA,LAR-EMBA-02,2,pc-lar-ros-emba-02,34,5
!41,LAR,LAR-EMBA,LAR-EMBA-02,2,pc-lar-ros-emba-02,35,5
!41,LAR,LAR-EMBA,LAR-EMBA-03,3,pc-lar-ros-emba-03,36,1
!41,LAR,LAR-EMBA,LAR-EMBA-03,3,pc-lar-ros-emba-03,37,1
!41,LAR,LAR-EMBA,LAR-EMBA-03,3,pc-lar-ros-emba-03,38,1
!41,LAR,LAR-EMBA,LAR-EMBA-03,3,pc-lar-ros-emba-03,39,2
!41,LAR,LAR-EMBA,LAR-EMBA-03,3,pc-lar-ros-emba-03,40,2
!41,LAR,LAR-EMBA,LAR-EMBA-03,3,pc-lar-ros-emba-03,41,2
!41,LAR,LAR-EMBA,LAR-EMBA-03,3,pc-lar-ros-emba-03,42,4
!41,LAR,LAR-EMBA,LAR-EMBA-03,3,pc-lar-ros-emba-03,43,4
!41,LAR,LAR-EMBA,LAR-EMBA-04,4,pc-lar-ros-emba-04,44,1
!41,LAR,LAR-EMBA,LAR-EMBA-04,4,pc-lar-ros-emba-04,45,1
!41,LAR,LAR-EMBA,LAR-EMBA-04,4,pc-lar-ros-emba-04,46,1
!41,LAR,LAR-EMBA,LAR-EMBA-04,4,pc-lar-ros-emba-04,47,2
!41,LAR,LAR-EMBA,LAR-EMBA-04,4,pc-lar-ros-emba-04,48,2
!41,LAR,LAR-EMBA,LAR-EMBA-04,4,pc-lar-ros-emba-04,49,2
!41,LAR,LAR-EMBA,LAR-EMBA-04,4,pc-lar-ros-emba-04,50,4
!41,LAR,LAR-EMBA,LAR-EMBA-04,4,pc-lar-ros-emba-04,51,4
!41,LAR,LAR-EMBA,LAR-EMBA-04,4,pc-lar-ros-emba-04,52,4
!41,LAR,LAR-EMBA,LAR-EMBA-04,4,pc-lar-ros-emba-04,53,5
!41,LAR,LAR-EMBA,LAR-EMBA-04,4,pc-lar-ros-emba-04,54,5
!41,LAR,LAR-EMBA,LAR-EMBA-04,4,pc-lar-ros-emba-04,55,5
!41,LAR,LAR-EMBA,LAR-EMBA-05,5,pc-lar-ros-emba-05,56,1
!41,LAR,LAR-EMBA,LAR-EMBA-05,5,pc-lar-ros-emba-05,57,1
!41,LAR,LAR-EMBA,LAR-EMBA-05,5,pc-lar-ros-emba-05,58,1
!41,LAR,LAR-EMBA,LAR-EMBA-05,5,pc-lar-ros-emba-05,59,2
!41,LAR,LAR-EMBA,LAR-EMBA-05,5,pc-lar-ros-emba-05,60,2
!41,LAR,LAR-EMBA,LAR-EMBA-05,5,pc-lar-ros-emba-05,61,2
!41,LAR,LAR-EMBA,LAR-EMBA-05,5,pc-lar-ros-emba-05,62,4
!41,LAR,LAR-EMBA,LAR-EMBA-05,5,pc-lar-ros-emba-05,63,4
!41,LAR,LAR-EMBA,LAR-EMBA-05,5,pc-lar-ros-emba-05,64,4
!41,LAR,LAR-EMBA,LAR-EMBA-05,5,pc-lar-ros-emba-05,65,5
!41,LAR,LAR-EMBA,LAR-EMBA-05,5,pc-lar-ros-emba-05,66,5
!41,LAR,LAR-EMBA,LAR-EMBA-05,5,pc-lar-ros-emba-05,67,5
!41,LAR,LAR-EMBA,LAR-EMBA-06,6,pc-lar-ros-emba-06,68,1
!41,LAR,LAR-EMBA,LAR-EMBA-06,6,pc-lar-ros-emba-06,69,1
!41,LAR,LAR-EMBA,LAR-EMBA-06,6,pc-lar-ros-emba-06,70,1
!41,LAR,LAR-EMBA,LAR-EMBA-06,6,pc-lar-ros-emba-06,71,2
!41,LAR,LAR-EMBA,LAR-EMBA-06,6,pc-lar-ros-emba-06,72,2
!41,LAR,LAR-EMBA,LAR-EMBA-06,6,pc-lar-ros-emba-06,73,2
!41,LAR,LAR-EMBA,LAR-EMBA-06,6,pc-lar-ros-emba-06,74,4
!41,LAR,LAR-EMBA,LAR-EMBA-06,6,pc-lar-ros-emba-06,75,4
!41,LAR,LAR-EMBA,LAR-EMBA-06,6,pc-lar-ros-emba-06,76,4
!41,LAR,LAR-EMBA,LAR-EMBA-06,6,pc-lar-ros-emba-06,77,5
!41,LAR,LAR-EMBA,LAR-EMBA-06,6,pc-lar-ros-emba-06,78,5
!41,LAR,LAR-EMBA,LAR-EMBA-06,6,pc-lar-ros-emba-06,79,5
!41,LAR,LAR-EMBA,LAR-EMBA-07,7,pc-lar-ros-emba-07,80,1
!41,LAR,LAR-EMBA,LAR-EMBA-07,7,pc-lar-ros-emba-07,81,1
!41,LAR,LAR-EMBA,LAR-EMBA-07,7,pc-lar-ros-emba-07,82,1
!41,LAR,LAR-EMBA,LAR-EMBA-07,7,pc-lar-ros-emba-07,83,2
!41,LAR,LAR-EMBA,LAR-EMBA-07,7,pc-lar-ros-emba-07,84,2
!41,LAR,LAR-EMBA,LAR-EMBA-07,7,pc-lar-ros-emba-07,85,2
!41,LAR,LAR-EMBA,LAR-EMBA-07,7,pc-lar-ros-emba-07,86,4
!41,LAR,LAR-EMBA,LAR-EMBA-07,7,pc-lar-ros-emba-07,87,4
!41,LAR,LAR-EMBA,LAR-EMBA-07,7,pc-lar-ros-emba-07,88,4
!41,LAR,LAR-EMBA,LAR-EMBA-07,7,pc-lar-ros-emba-07,89,5
!41,LAR,LAR-EMBA,LAR-EMBA-07,7,pc-lar-ros-emba-07,90,5
!41,LAR,LAR-EMBA,LAR-EMBA-07,7,pc-lar-ros-emba-07,91,5
!41,LAR,LAR-EMBA,LAR-EMBA-08,8,pc-lar-ros-emba-08,92,1
!41,LAR,LAR-EMBA,LAR-EMBA-08,8,pc-lar-ros-emba-08,93,1
!41,LAR,LAR-EMBA,LAR-EMBA-08,8,pc-lar-ros-emba-08,94,1
!41,LAR,LAR-EMBA,LAR-EMBA-08,8,pc-lar-ros-emba-08,95,2
!41,LAR,LAR-EMBA,LAR-EMBA-08,8,pc-lar-ros-emba-08,96,2
!41,LAR,LAR-EMBA,LAR-EMBA-08,8,pc-lar-ros-emba-08,97,2
!41,LAR,LAR-EMBA,LAR-EMBA-08,8,pc-lar-ros-emba-08,98,4
!41,LAR,LAR-EMBA,LAR-EMBA-08,8,pc-lar-ros-emba-08,99,4
!41,LAR,LAR-EMBA,LAR-EMBA-09,9,pc-lar-ros-emba-09,100,1
!41,LAR,LAR-EMBA,LAR-EMBA-09,9,pc-lar-ros-emba-09,101,1
!41,LAR,LAR-EMBA,LAR-EMBA-09,9,pc-lar-ros-emba-09,102,1
!41,LAR,LAR-EMBA,LAR-EMBA-09,9,pc-lar-ros-emba-09,103,2
!41,LAR,LAR-EMBA,LAR-EMBA-09,9,pc-lar-ros-emba-09,104,2
!41,LAR,LAR-EMBA,LAR-EMBA-09,9,pc-lar-ros-emba-09,105,2
!41,LAR,LAR-EMBA,LAR-EMBA-09,9,pc-lar-ros-emba-09,106,4
!41,LAR,LAR-EMBA,LAR-EMBA-09,9,pc-lar-ros-emba-09,107,4
!41,LAR,LAR-EMBA,LAR-EMBA-09,9,pc-lar-ros-emba-09,108,4
!41,LAR,LAR-EMBA,LAR-EMBA-09,9,pc-lar-ros-emba-09,109,5
!41,LAR,LAR-EMBA,LAR-EMBA-09,9,pc-lar-ros-emba-09,110,5
!41,LAR,LAR-EMBA,LAR-EMBA-09,9,pc-lar-ros-emba-09,111,5
!41,LAR,LAR-EMBA,LAR-EMBA-10,10,pc-lar-ros-emba-10,112,1
!41,LAR,LAR-EMBA,LAR-EMBA-10,10,pc-lar-ros-emba-10,113,1
!41,LAR,LAR-EMBA,LAR-EMBA-10,10,pc-lar-ros-emba-10,114,1
!41,LAR,LAR-EMBA,LAR-EMBA-10,10,pc-lar-ros-emba-10,115,2
!41,LAR,LAR-EMBA,LAR-EMBA-10,10,pc-lar-ros-emba-10,116,2
!41,LAR,LAR-EMBA,LAR-EMBA-10,10,pc-lar-ros-emba-10,117,2
!41,LAR,LAR-EMBA,LAR-EMBA-10,10,pc-lar-ros-emba-10,118,4
!41,LAR,LAR-EMBA,LAR-EMBA-10,10,pc-lar-ros-emba-10,119,4
!41,LAR,LAR-EMBA,LAR-EMBA-10,10,pc-lar-ros-emba-10,120,4
!41,LAR,LAR-EMBA,LAR-EMBA-10,10,pc-lar-ros-emba-10,121,5
!41,LAR,LAR-EMBA,LAR-EMBA-10,10,pc-lar-ros-emba-10,122,5
!41,LAR,LAR-EMBA,LAR-EMBA-10,10,pc-lar-ros-emba-10,123,5
!41,LAR,LAR-EMBA,LAR-EMBA-11,11,pc-lar-ros-emba-11,124,1
!41,LAR,LAR-EMBA,LAR-EMBA-11,11,pc-lar-ros-emba-11,125,1
!41,LAR,LAR-EMBA,LAR-EMBA-11,11,pc-lar-ros-emba-11,126,1
!41,LAR,LAR-EMBA,LAR-EMBA-11,11,pc-lar-ros-emba-11,127,2
!41,LAR,LAR-EMBA,LAR-EMBA-11,11,pc-lar-ros-emba-11,128,2
!41,LAR,LAR-EMBA,LAR-EMBA-11,11,pc-lar-ros-emba-11,129,2
!41,LAR,LAR-EMBA,LAR-EMBA-11,11,pc-lar-ros-emba-11,130,4
!41,LAR,LAR-EMBA,LAR-EMBA-11,11,pc-lar-ros-emba-11,131,4
!41,LAR,LAR-EMBA,LAR-EMBA-11,11,pc-lar-ros-emba-11,132,4
!41,LAR,LAR-EMBA,LAR-EMBA-11,11,pc-lar-ros-emba-11,133,5
!41,LAR,LAR-EMBA,LAR-EMBA-11,11,pc-lar-ros-emba-11,134,5
!41,LAR,LAR-EMBA,LAR-EMBA-11,11,pc-lar-ros-emba-11,135,5
!41,LAR,LAR-EMBA,LAR-EMBA-12,12,pc-lar-ros-emba-12,136,1
!41,LAR,LAR-EMBA,LAR-EMBA-12,12,pc-lar-ros-emba-12,137,1
!41,LAR,LAR-EMBA,LAR-EMBA-12,12,pc-lar-ros-emba-12,138,1
!41,LAR,LAR-EMBA,LAR-EMBA-12,12,pc-lar-ros-emba-12,139,2
!41,LAR,LAR-EMBA,LAR-EMBA-12,12,pc-lar-ros-emba-12,140,2
!41,LAR,LAR-EMBA,LAR-EMBA-12,12,pc-lar-ros-emba-12,141,2
!41,LAR,LAR-EMBA,LAR-EMBA-12,12,pc-lar-ros-emba-12,142,4
!41,LAR,LAR-EMBA,LAR-EMBA-12,12,pc-lar-ros-emba-12,143,4
!41,LAR,LAR-EMBA,LAR-EMBA-12,12,pc-lar-ros-emba-12,144,4
!41,LAR,LAR-EMBA,LAR-EMBA-12,12,pc-lar-ros-emba-12,145,5
!41,LAR,LAR-EMBA,LAR-EMBA-12,12,pc-lar-ros-emba-12,146,5
!41,LAR,LAR-EMBA,LAR-EMBA-12,12,pc-lar-ros-emba-12,147,5
!41,LAR,LAR-EMBA,LAR-EMBA-13,13,pc-lar-ros-emba-13,148,1
!41,LAR,LAR-EMBA,LAR-EMBA-13,13,pc-lar-ros-emba-13,149,1
!41,LAR,LAR-EMBA,LAR-EMBA-13,13,pc-lar-ros-emba-13,150,1
!41,LAR,LAR-EMBA,LAR-EMBA-13,13,pc-lar-ros-emba-13,151,2
!41,LAR,LAR-EMBA,LAR-EMBA-13,13,pc-lar-ros-emba-13,152,2
!41,LAR,LAR-EMBA,LAR-EMBA-13,13,pc-lar-ros-emba-13,153,2
!41,LAR,LAR-EMBA,LAR-EMBA-13,13,pc-lar-ros-emba-13,154,4
!41,LAR,LAR-EMBA,LAR-EMBA-13,13,pc-lar-ros-emba-13,155,4
!41,LAR,LAR-EMBA,LAR-EMBA-14,14,pc-lar-ros-emba-14,156,1
!41,LAR,LAR-EMBA,LAR-EMBA-14,14,pc-lar-ros-emba-14,157,1
!41,LAR,LAR-EMBA,LAR-EMBA-14,14,pc-lar-ros-emba-14,158,1
!41,LAR,LAR-EMBA,LAR-EMBA-14,14,pc-lar-ros-emba-14,159,2
!41,LAR,LAR-EMBA,LAR-EMBA-14,14,pc-lar-ros-emba-14,160,2
!41,LAR,LAR-EMBA,LAR-EMBA-14,14,pc-lar-ros-emba-14,161,2
!41,LAR,LAR-EMBA,LAR-EMBA-14,14,pc-lar-ros-emba-14,162,4
!41,LAR,LAR-EMBA,LAR-EMBA-14,14,pc-lar-ros-emba-14,163,4
!41,LAR,LAR-EMBA,LAR-EMBA-14,14,pc-lar-ros-emba-14,164,4
!41,LAR,LAR-EMBA,LAR-EMBA-14,14,pc-lar-ros-emba-14,165,5
!41,LAR,LAR-EMBA,LAR-EMBA-14,14,pc-lar-ros-emba-14,166,5
!41,LAR,LAR-EMBA,LAR-EMBA-14,14,pc-lar-ros-emba-14,167,5
!41,LAR,LAR-EMBA,LAR-EMBA-15,15,pc-lar-ros-emba-15,168,1
!41,LAR,LAR-EMBA,LAR-EMBA-15,15,pc-lar-ros-emba-15,169,1
!41,LAR,LAR-EMBA,LAR-EMBA-15,15,pc-lar-ros-emba-15,170,1
!41,LAR,LAR-EMBA,LAR-EMBA-15,15,pc-lar-ros-emba-15,171,2
!41,LAR,LAR-EMBA,LAR-EMBA-15,15,pc-lar-ros-emba-15,172,2
!41,LAR,LAR-EMBA,LAR-EMBA-15,15,pc-lar-ros-emba-15,173,2
!41,LAR,LAR-EMBA,LAR-EMBA-15,15,pc-lar-ros-emba-15,174,4
!41,LAR,LAR-EMBA,LAR-EMBA-15,15,pc-lar-ros-emba-15,175,4
!41,LAR,LAR-EMBA,LAR-EMBA-15,15,pc-lar-ros-emba-15,176,4
!41,LAR,LAR-EMBA,LAR-EMBA-15,15,pc-lar-ros-emba-15,177,5
!41,LAR,LAR-EMBA,LAR-EMBA-15,15,pc-lar-ros-emba-15,178,5
!41,LAR,LAR-EMBA,LAR-EMBA-15,15,pc-lar-ros-emba-15,179,5
!41,LAR,LAR-EMBA,LAR-EMBA-16,16,pc-lar-ros-emba-16,180,1
!41,LAR,LAR-EMBA,LAR-EMBA-16,16,pc-lar-ros-emba-16,181,1
!41,LAR,LAR-EMBA,LAR-EMBA-16,16,pc-lar-ros-emba-16,182,1
!41,LAR,LAR-EMBA,LAR-EMBA-16,16,pc-lar-ros-emba-16,183,2
!41,LAR,LAR-EMBA,LAR-EMBA-16,16,pc-lar-ros-emba-16,184,2
!41,LAR,LAR-EMBA,LAR-EMBA-16,16,pc-lar-ros-emba-16,185,2
!41,LAR,LAR-EMBA,LAR-EMBA-16,16,pc-lar-ros-emba-16,186,4
!41,LAR,LAR-EMBA,LAR-EMBA-16,16,pc-lar-ros-emba-16,187,4
!41,LAR,LAR-EMBA,LAR-EMBA-16,16,pc-lar-ros-emba-16,188,4
!41,LAR,LAR-EMBA,LAR-EMBA-16,16,pc-lar-ros-emba-16,189,5
!41,LAR,LAR-EMBA,LAR-EMBA-16,16,pc-lar-ros-emba-16,190,5
!41,LAR,LAR-EMBA,LAR-EMBA-16,16,pc-lar-ros-emba-16,191,5
!41,LAR,LAR-EMBA,LAR-EMBA-17,17,pc-lar-ros-emba-17,192,1
!41,LAR,LAR-EMBA,LAR-EMBA-17,17,pc-lar-ros-emba-17,193,1
!41,LAR,LAR-EMBA,LAR-EMBA-17,17,pc-lar-ros-emba-17,194,1
!41,LAR,LAR-EMBA,LAR-EMBA-17,17,pc-lar-ros-emba-17,195,2
!41,LAR,LAR-EMBA,LAR-EMBA-17,17,pc-lar-ros-emba-17,196,2
!41,LAR,LAR-EMBA,LAR-EMBA-17,17,pc-lar-ros-emba-17,197,2
!41,LAR,LAR-EMBA,LAR-EMBA-17,17,pc-lar-ros-emba-17,198,4
!41,LAR,LAR-EMBA,LAR-EMBA-17,17,pc-lar-ros-emba-17,199,4
!41,LAR,LAR-EMBA,LAR-EMBA-17,17,pc-lar-ros-emba-17,200,4
!41,LAR,LAR-EMBA,LAR-EMBA-17,17,pc-lar-ros-emba-17,201,5
!41,LAR,LAR-EMBA,LAR-EMBA-17,17,pc-lar-ros-emba-17,202,5
!41,LAR,LAR-EMBA,LAR-EMBA-17,17,pc-lar-ros-emba-17,203,5
!41,LAR,LAR-EMBA,LAR-EMBA-18,18,pc-lar-ros-emba-18,204,1
!41,LAR,LAR-EMBA,LAR-EMBA-18,18,pc-lar-ros-emba-18,205,1
!41,LAR,LAR-EMBA,LAR-EMBA-18,18,pc-lar-ros-emba-18,206,1
!41,LAR,LAR-EMBA,LAR-EMBA-18,18,pc-lar-ros-emba-18,207,2
!41,LAR,LAR-EMBA,LAR-EMBA-18,18,pc-lar-ros-emba-18,208,2
!41,LAR,LAR-EMBA,LAR-EMBA-18,18,pc-lar-ros-emba-18,209,2
!41,LAR,LAR-EMBA,LAR-EMBA-18,18,pc-lar-ros-emba-18,210,4
!41,LAR,LAR-EMBA,LAR-EMBA-18,18,pc-lar-ros-emba-18,211,4
!41,LAR,LAR-EMBA,LAR-EMBA-19,19,pc-lar-ros-emba-19,212,1
!41,LAR,LAR-EMBA,LAR-EMBA-19,19,pc-lar-ros-emba-19,213,1
!41,LAR,LAR-EMBA,LAR-EMBA-19,19,pc-lar-ros-emba-19,214,1
!41,LAR,LAR-EMBA,LAR-EMBA-19,19,pc-lar-ros-emba-19,215,2
!41,LAR,LAR-EMBA,LAR-EMBA-19,19,pc-lar-ros-emba-19,216,2
!41,LAR,LAR-EMBA,LAR-EMBA-19,19,pc-lar-ros-emba-19,217,2
!41,LAR,LAR-EMBA,LAR-EMBA-19,19,pc-lar-ros-emba-19,218,4
!41,LAR,LAR-EMBA,LAR-EMBA-19,19,pc-lar-ros-emba-19,219,4
!41,LAR,LAR-EMBA,LAR-EMBA-19,19,pc-lar-ros-emba-19,220,4
!41,LAR,LAR-EMBA,LAR-EMBA-19,19,pc-lar-ros-emba-19,221,5
!41,LAR,LAR-EMBA,LAR-EMBA-19,19,pc-lar-ros-emba-19,222,5
!41,LAR,LAR-EMBA,LAR-EMBA-19,19,pc-lar-ros-emba-19,223,5
!42,LAR,LAR-EMBC,LAR-EMBC-00,0,pc-lar-ros-embc-00,0,1
!42,LAR,LAR-EMBC,LAR-EMBC-00,0,pc-lar-ros-embc-00,1,1
!42,LAR,LAR-EMBC,LAR-EMBC-00,0,pc-lar-ros-embc-00,2,1
!42,LAR,LAR-EMBC,LAR-EMBC-00,0,pc-lar-ros-embc-00,3,2
!42,LAR,LAR-EMBC,LAR-EMBC-00,0,pc-lar-ros-embc-00,4,2
!42,LAR,LAR-EMBC,LAR-EMBC-00,0,pc-lar-ros-embc-00,5,2
!42,LAR,LAR-EMBC,LAR-EMBC-00,0,pc-lar-ros-embc-00,6,4
!42,LAR,LAR-EMBC,LAR-EMBC-00,0,pc-lar-ros-embc-00,7,4
!42,LAR,LAR-EMBC,LAR-EMBC-00,0,pc-lar-ros-embc-00,8,4
!42,LAR,LAR-EMBC,LAR-EMBC-00,0,pc-lar-ros-embc-00,9,5
!42,LAR,LAR-EMBC,LAR-EMBC-00,0,pc-lar-ros-embc-00,10,5
!42,LAR,LAR-EMBC,LAR-EMBC-00,0,pc-lar-ros-embc-00,11,5
!42,LAR,LAR-EMBC,LAR-EMBC-01,1,pc-lar-ros-embc-01,12,1
!42,LAR,LAR-EMBC,LAR-EMBC-01,1,pc-lar-ros-embc-01,13,1
!42,LAR,LAR-EMBC,LAR-EMBC-01,1,pc-lar-ros-embc-01,14,1
!42,LAR,LAR-EMBC,LAR-EMBC-01,1,pc-lar-ros-embc-01,15,2
!42,LAR,LAR-EMBC,LAR-EMBC-01,1,pc-lar-ros-embc-01,16,2
!42,LAR,LAR-EMBC,LAR-EMBC-01,1,pc-lar-ros-embc-01,17,2
!42,LAR,LAR-EMBC,LAR-EMBC-01,1,pc-lar-ros-embc-01,18,4
!42,LAR,LAR-EMBC,LAR-EMBC-01,1,pc-lar-ros-embc-01,19,4
!42,LAR,LAR-EMBC,LAR-EMBC-01,1,pc-lar-ros-embc-01,20,4
!42,LAR,LAR-EMBC,LAR-EMBC-01,1,pc-lar-ros-embc-01,21,5
!42,LAR,LAR-EMBC,LAR-EMBC-01,1,pc-lar-ros-embc-01,22,5
!42,LAR,LAR-EMBC,LAR-EMBC-01,1,pc-lar-ros-embc-01,23,5
!42,LAR,LAR-EMBC,LAR-EMBC-02,2,pc-lar-ros-embc-02,24,1
!42,LAR,LAR-EMBC,LAR-EMBC-02,2,pc-lar-ros-embc-02,25,1
!42,LAR,LAR-EMBC,LAR-EMBC-02,2,pc-lar-ros-embc-02,26,1
!42,LAR,LAR-EMBC,LAR-EMBC-02,2,pc-lar-ros-embc-02,27,2
!42,LAR,LAR-EMBC,LAR-EMBC-02,2,pc-lar-ros-embc-02,28,2
!42,LAR,LAR-EMBC,LAR-EMBC-02,2,pc-lar-ros-embc-02,29,2
!42,LAR,LAR-EMBC,LAR-EMBC-02,2,pc-lar-ros-embc-02,30,4
!42,LAR,LAR-EMBC,LAR-EMBC-02,2,pc-lar-ros-embc-02,31,4
!42,LAR,LAR-EMBC,LAR-EMBC-02,2,pc-lar-ros-embc-02,32,4
!42,LAR,LAR-EMBC,LAR-EMBC-02,2,pc-lar-ros-embc-02,33,5
!42,LAR,LAR-EMBC,LAR-EMBC-02,2,pc-lar-ros-embc-02,34,5
!42,LAR,LAR-EMBC,LAR-EMBC-02,2,pc-lar-ros-embc-02,35,5
!42,LAR,LAR-EMBC,LAR-EMBC-03,3,pc-lar-ros-embc-03,36,1
!42,LAR,LAR-EMBC,LAR-EMBC-03,3,pc-lar-ros-embc-03,37,1
!42,LAR,LAR-EMBC,LAR-EMBC-03,3,pc-lar-ros-embc-03,38,1
!42,LAR,LAR-EMBC,LAR-EMBC-03,3,pc-lar-ros-embc-03,39,2
!42,LAR,LAR-EMBC,LAR-EMBC-03,3,pc-lar-ros-embc-03,40,2
!42,LAR,LAR-EMBC,LAR-EMBC-03,3,pc-lar-ros-embc-03,41,2
!42,LAR,LAR-EMBC,LAR-EMBC-03,3,pc-lar-ros-embc-03,42,4
!42,LAR,LAR-EMBC,LAR-EMBC-03,3,pc-lar-ros-embc-03,43,4
!42,LAR,LAR-EMBC,LAR-EMBC-04,4,pc-lar-ros-embc-04,44,1
!42,LAR,LAR-EMBC,LAR-EMBC-04,4,pc-lar-ros-embc-04,45,1
!42,LAR,LAR-EMBC,LAR-EMBC-04,4,pc-lar-ros-embc-04,46,1
!42,LAR,LAR-EMBC,LAR-EMBC-04,4,pc-lar-ros-embc-04,47,2
!42,LAR,LAR-EMBC,LAR-EMBC-04,4,pc-lar-ros-embc-04,48,2
!42,LAR,LAR-EMBC,LAR-EMBC-04,4,pc-lar-ros-embc-04,49,2
!42,LAR,LAR-EMBC,LAR-EMBC-04,4,pc-lar-ros-embc-04,50,4
!42,LAR,LAR-EMBC,LAR-EMBC-04,4,pc-lar-ros-embc-04,51,4
!42,LAR,LAR-EMBC,LAR-EMBC-04,4,pc-lar-ros-embc-04,52,4
!42,LAR,LAR-EMBC,LAR-EMBC-04,4,pc-lar-ros-embc-04,53,5
!42,LAR,LAR-EMBC,LAR-EMBC-04,4,pc-lar-ros-embc-04,54,5
!42,LAR,LAR-EMBC,LAR-EMBC-04,4,pc-lar-ros-embc-04,55,5
!42,LAR,LAR-EMBC,LAR-EMBC-05,5,pc-lar-ros-embc-05,56,1
!42,LAR,LAR-EMBC,LAR-EMBC-05,5,pc-lar-ros-embc-05,57,1
!42,LAR,LAR-EMBC,LAR-EMBC-05,5,pc-lar-ros-embc-05,58,1
!42,LAR,LAR-EMBC,LAR-EMBC-05,5,pc-lar-ros-embc-05,59,2
!42,LAR,LAR-EMBC,LAR-EMBC-05,5,pc-lar-ros-embc-05,60,2
!42,LAR,LAR-EMBC,LAR-EMBC-05,5,pc-lar-ros-embc-05,61,2
!42,LAR,LAR-EMBC,LAR-EMBC-05,5,pc-lar-ros-embc-05,62,4
!42,LAR,LAR-EMBC,LAR-EMBC-05,5,pc-lar-ros-embc-05,63,4
!42,LAR,LAR-EMBC,LAR-EMBC-05,5,pc-lar-ros-embc-05,64,4
!42,LAR,LAR-EMBC,LAR-EMBC-05,5,pc-lar-ros-embc-05,65,5
!42,LAR,LAR-EMBC,LAR-EMBC-05,5,pc-lar-ros-embc-05,66,5
!42,LAR,LAR-EMBC,LAR-EMBC-05,5,pc-lar-ros-embc-05,67,5
!42,LAR,LAR-EMBC,LAR-EMBC-06,6,pc-lar-ros-embc-06,68,1
!42,LAR,LAR-EMBC,LAR-EMBC-06,6,pc-lar-ros-embc-06,69,1
!42,LAR,LAR-EMBC,LAR-EMBC-06,6,pc-lar-ros-embc-06,70,1
!42,LAR,LAR-EMBC,LAR-EMBC-06,6,pc-lar-ros-embc-06,71,2
!42,LAR,LAR-EMBC,LAR-EMBC-06,6,pc-lar-ros-embc-06,72,2
!42,LAR,LAR-EMBC,LAR-EMBC-06,6,pc-lar-ros-embc-06,73,2
!42,LAR,LAR-EMBC,LAR-EMBC-06,6,pc-lar-ros-embc-06,74,4
!42,LAR,LAR-EMBC,LAR-EMBC-06,6,pc-lar-ros-embc-06,75,4
!42,LAR,LAR-EMBC,LAR-EMBC-06,6,pc-lar-ros-embc-06,76,4
!42,LAR,LAR-EMBC,LAR-EMBC-06,6,pc-lar-ros-embc-06,77,5
!42,LAR,LAR-EMBC,LAR-EMBC-06,6,pc-lar-ros-embc-06,78,5
!42,LAR,LAR-EMBC,LAR-EMBC-06,6,pc-lar-ros-embc-06,79,5
!42,LAR,LAR-EMBC,LAR-EMBC-07,7,pc-lar-ros-embc-07,80,1
!42,LAR,LAR-EMBC,LAR-EMBC-07,7,pc-lar-ros-embc-07,81,1
!42,LAR,LAR-EMBC,LAR-EMBC-07,7,pc-lar-ros-embc-07,82,1
!42,LAR,LAR-EMBC,LAR-EMBC-07,7,pc-lar-ros-embc-07,83,2
!42,LAR,LAR-EMBC,LAR-EMBC-07,7,pc-lar-ros-embc-07,84,2
!42,LAR,LAR-EMBC,LAR-EMBC-07,7,pc-lar-ros-embc-07,85,2
!42,LAR,LAR-EMBC,LAR-EMBC-07,7,pc-lar-ros-embc-07,86,4
!42,LAR,LAR-EMBC,LAR-EMBC-07,7,pc-lar-ros-embc-07,87,4
!42,LAR,LAR-EMBC,LAR-EMBC-07,7,pc-lar-ros-embc-07,88,4
!42,LAR,LAR-EMBC,LAR-EMBC-07,7,pc-lar-ros-embc-07,89,5
!42,LAR,LAR-EMBC,LAR-EMBC-07,7,pc-lar-ros-embc-07,90,5
!42,LAR,LAR-EMBC,LAR-EMBC-07,7,pc-lar-ros-embc-07,91,5
!42,LAR,LAR-EMBC,LAR-EMBC-08,8,pc-lar-ros-embc-08,92,1
!42,LAR,LAR-EMBC,LAR-EMBC-08,8,pc-lar-ros-embc-08,93,1
!42,LAR,LAR-EMBC,LAR-EMBC-08,8,pc-lar-ros-embc-08,94,1
!42,LAR,LAR-EMBC,LAR-EMBC-08,8,pc-lar-ros-embc-08,95,2
!42,LAR,LAR-EMBC,LAR-EMBC-08,8,pc-lar-ros-embc-08,96,2
!42,LAR,LAR-EMBC,LAR-EMBC-08,8,pc-lar-ros-embc-08,97,2
!42,LAR,LAR-EMBC,LAR-EMBC-08,8,pc-lar-ros-embc-08,98,4
!42,LAR,LAR-EMBC,LAR-EMBC-08,8,pc-lar-ros-embc-08,99,4
!42,LAR,LAR-EMBC,LAR-EMBC-09,9,pc-lar-ros-embc-09,100,1
!42,LAR,LAR-EMBC,LAR-EMBC-09,9,pc-lar-ros-embc-09,101,1
!42,LAR,LAR-EMBC,LAR-EMBC-09,9,pc-lar-ros-embc-09,102,1
!42,LAR,LAR-EMBC,LAR-EMBC-09,9,pc-lar-ros-embc-09,103,2
!42,LAR,LAR-EMBC,LAR-EMBC-09,9,pc-lar-ros-embc-09,104,2
!42,LAR,LAR-EMBC,LAR-EMBC-09,9,pc-lar-ros-embc-09,105,2
!42,LAR,LAR-EMBC,LAR-EMBC-09,9,pc-lar-ros-embc-09,106,4
!42,LAR,LAR-EMBC,LAR-EMBC-09,9,pc-lar-ros-embc-09,107,4
!42,LAR,LAR-EMBC,LAR-EMBC-09,9,pc-lar-ros-embc-09,108,4
!42,LAR,LAR-EMBC,LAR-EMBC-09,9,pc-lar-ros-embc-09,109,5
!42,LAR,LAR-EMBC,LAR-EMBC-09,9,pc-lar-ros-embc-09,110,5
!42,LAR,LAR-EMBC,LAR-EMBC-09,9,pc-lar-ros-embc-09,111,5
!42,LAR,LAR-EMBC,LAR-EMBC-10,10,pc-lar-ros-embc-10,112,1
!42,LAR,LAR-EMBC,LAR-EMBC-10,10,pc-lar-ros-embc-10,113,1
!42,LAR,LAR-EMBC,LAR-EMBC-10,10,pc-lar-ros-embc-10,114,1
!42,LAR,LAR-EMBC,LAR-EMBC-10,10,pc-lar-ros-embc-10,115,2
!42,LAR,LAR-EMBC,LAR-EMBC-10,10,pc-lar-ros-embc-10,116,2
!42,LAR,LAR-EMBC,LAR-EMBC-10,10,pc-lar-ros-embc-10,117,2
!42,LAR,LAR-EMBC,LAR-EMBC-10,10,pc-lar-ros-embc-10,118,4
!42,LAR,LAR-EMBC,LAR-EMBC-10,10,pc-lar-ros-embc-10,119,4
!42,LAR,LAR-EMBC,LAR-EMBC-10,10,pc-lar-ros-embc-10,120,4
!42,LAR,LAR-EMBC,LAR-EMBC-10,10,pc-lar-ros-embc-10,121,5
!42,LAR,LAR-EMBC,LAR-EMBC-10,10,pc-lar-ros-embc-10,122,5
!42,LAR,LAR-EMBC,LAR-EMBC-10,10,pc-lar-ros-embc-10,123,5
!42,LAR,LAR-EMBC,LAR-EMBC-11,11,pc-lar-ros-embc-11,124,1
!42,LAR,LAR-EMBC,LAR-EMBC-11,11,pc-lar-ros-embc-11,125,1
!42,LAR,LAR-EMBC,LAR-EMBC-11,11,pc-lar-ros-embc-11,126,1
!42,LAR,LAR-EMBC,LAR-EMBC-11,11,pc-lar-ros-embc-11,127,2
!42,LAR,LAR-EMBC,LAR-EMBC-11,11,pc-lar-ros-embc-11,128,2
!42,LAR,LAR-EMBC,LAR-EMBC-11,11,pc-lar-ros-embc-11,129,2
!42,LAR,LAR-EMBC,LAR-EMBC-11,11,pc-lar-ros-embc-11,130,4
!42,LAR,LAR-EMBC,LAR-EMBC-11,11,pc-lar-ros-embc-11,131,4
!42,LAR,LAR-EMBC,LAR-EMBC-11,11,pc-lar-ros-embc-11,132,4
!42,LAR,LAR-EMBC,LAR-EMBC-11,11,pc-lar-ros-embc-11,133,5
!42,LAR,LAR-EMBC,LAR-EMBC-11,11,pc-lar-ros-embc-11,134,5
!42,LAR,LAR-EMBC,LAR-EMBC-11,11,pc-lar-ros-embc-11,135,5
!42,LAR,LAR-EMBC,LAR-EMBC-12,12,pc-lar-ros-embc-12,136,1
!42,LAR,LAR-EMBC,LAR-EMBC-12,12,pc-lar-ros-embc-12,137,1
!42,LAR,LAR-EMBC,LAR-EMBC-12,12,pc-lar-ros-embc-12,138,1
!42,LAR,LAR-EMBC,LAR-EMBC-12,12,pc-lar-ros-embc-12,139,2
!42,LAR,LAR-EMBC,LAR-EMBC-12,12,pc-lar-ros-embc-12,140,2
!42,LAR,LAR-EMBC,LAR-EMBC-12,12,pc-lar-ros-embc-12,141,2
!42,LAR,LAR-EMBC,LAR-EMBC-12,12,pc-lar-ros-embc-12,142,4
!42,LAR,LAR-EMBC,LAR-EMBC-12,12,pc-lar-ros-embc-12,143,4
!42,LAR,LAR-EMBC,LAR-EMBC-12,12,pc-lar-ros-embc-12,144,4
!42,LAR,LAR-EMBC,LAR-EMBC-12,12,pc-lar-ros-embc-12,145,5
!42,LAR,LAR-EMBC,LAR-EMBC-12,12,pc-lar-ros-embc-12,146,5
!42,LAR,LAR-EMBC,LAR-EMBC-12,12,pc-lar-ros-embc-12,147,5
!42,LAR,LAR-EMBC,LAR-EMBC-13,13,pc-lar-ros-embc-13,148,1
!42,LAR,LAR-EMBC,LAR-EMBC-13,13,pc-lar-ros-embc-13,149,1
!42,LAR,LAR-EMBC,LAR-EMBC-13,13,pc-lar-ros-embc-13,150,1
!42,LAR,LAR-EMBC,LAR-EMBC-13,13,pc-lar-ros-embc-13,151,2
!42,LAR,LAR-EMBC,LAR-EMBC-13,13,pc-lar-ros-embc-13,152,2
!42,LAR,LAR-EMBC,LAR-EMBC-13,13,pc-lar-ros-embc-13,153,2
!42,LAR,LAR-EMBC,LAR-EMBC-13,13,pc-lar-ros-embc-13,154,4
!42,LAR,LAR-EMBC,LAR-EMBC-13,13,pc-lar-ros-embc-13,155,4
!42,LAR,LAR-EMBC,LAR-EMBC-14,14,pc-lar-ros-embc-14,156,1
!42,LAR,LAR-EMBC,LAR-EMBC-14,14,pc-lar-ros-embc-14,157,1
!42,LAR,LAR-EMBC,LAR-EMBC-14,14,pc-lar-ros-embc-14,158,1
!42,LAR,LAR-EMBC,LAR-EMBC-14,14,pc-lar-ros-embc-14,159,2
!42,LAR,LAR-EMBC,LAR-EMBC-14,14,pc-lar-ros-embc-14,160,2
!42,LAR,LAR-EMBC,LAR-EMBC-14,14,pc-lar-ros-embc-14,161,2
!42,LAR,LAR-EMBC,LAR-EMBC-14,14,pc-lar-ros-embc-14,162,4
!42,LAR,LAR-EMBC,LAR-EMBC-14,14,pc-lar-ros-embc-14,163,4
!42,LAR,LAR-EMBC,LAR-EMBC-14,14,pc-lar-ros-embc-14,164,4
!42,LAR,LAR-EMBC,LAR-EMBC-14,14,pc-lar-ros-embc-14,165,5
!42,LAR,LAR-EMBC,LAR-EMBC-14,14,pc-lar-ros-embc-14,166,5
!42,LAR,LAR-EMBC,LAR-EMBC-14,14,pc-lar-ros-embc-14,167,5
!42,LAR,LAR-EMBC,LAR-EMBC-15,15,pc-lar-ros-embc-15,168,1
!42,LAR,LAR-EMBC,LAR-EMBC-15,15,pc-lar-ros-embc-15,169,1
!42,LAR,LAR-EMBC,LAR-EMBC-15,15,pc-lar-ros-embc-15,170,1
!42,LAR,LAR-EMBC,LAR-EMBC-15,15,pc-lar-ros-embc-15,171,2
!42,LAR,LAR-EMBC,LAR-EMBC-15,15,pc-lar-ros-embc-15,172,2
!42,LAR,LAR-EMBC,LAR-EMBC-15,15,pc-lar-ros-embc-15,173,2
!42,LAR,LAR-EMBC,LAR-EMBC-15,15,pc-lar-ros-embc-15,174,4
!42,LAR,LAR-EMBC,LAR-EMBC-15,15,pc-lar-ros-embc-15,175,4
!42,LAR,LAR-EMBC,LAR-EMBC-15,15,pc-lar-ros-embc-15,176,4
!42,LAR,LAR-EMBC,LAR-EMBC-15,15,pc-lar-ros-embc-15,177,5
!42,LAR,LAR-EMBC,LAR-EMBC-15,15,pc-lar-ros-embc-15,178,5
!42,LAR,LAR-EMBC,LAR-EMBC-15,15,pc-lar-ros-embc-15,179,5
!42,LAR,LAR-EMBC,LAR-EMBC-16,16,pc-lar-ros-embc-16,180,1
!42,LAR,LAR-EMBC,LAR-EMBC-16,16,pc-lar-ros-embc-16,181,1
!42,LAR,LAR-EMBC,LAR-EMBC-16,16,pc-lar-ros-embc-16,182,1
!42,LAR,LAR-EMBC,LAR-EMBC-16,16,pc-lar-ros-embc-16,183,2
!42,LAR,LAR-EMBC,LAR-EMBC-16,16,pc-lar-ros-embc-16,184,2
!42,LAR,LAR-EMBC,LAR-EMBC-16,16,pc-lar-ros-embc-16,185,2
!42,LAR,LAR-EMBC,LAR-EMBC-16,16,pc-lar-ros-embc-16,186,4
!42,LAR,LAR-EMBC,LAR-EMBC-16,16,pc-lar-ros-embc-16,187,4
!42,LAR,LAR-EMBC,LAR-EMBC-16,16,pc-lar-ros-embc-16,188,4
!42,LAR,LAR-EMBC,LAR-EMBC-16,16,pc-lar-ros-embc-16,189,5
!42,LAR,LAR-EMBC,LAR-EMBC-16,16,pc-lar-ros-embc-16,190,5
!42,LAR,LAR-EMBC,LAR-EMBC-16,16,pc-lar-ros-embc-16,191,5
!42,LAR,LAR-EMBC,LAR-EMBC-17,17,pc-lar-ros-embc-17,192,1
!42,LAR,LAR-EMBC,LAR-EMBC-17,17,pc-lar-ros-embc-17,193,1
!42,LAR,LAR-EMBC,LAR-EMBC-17,17,pc-lar-ros-embc-17,194,1
!42,LAR,LAR-EMBC,LAR-EMBC-17,17,pc-lar-ros-embc-17,195,2
!42,LAR,LAR-EMBC,LAR-EMBC-17,17,pc-lar-ros-embc-17,196,2
!42,LAR,LAR-EMBC,LAR-EMBC-17,17,pc-lar-ros-embc-17,197,2
!42,LAR,LAR-EMBC,LAR-EMBC-17,17,pc-lar-ros-embc-17,198,4
!42,LAR,LAR-EMBC,LAR-EMBC-17,17,pc-lar-ros-embc-17,199,4
!42,LAR,LAR-EMBC,LAR-EMBC-17,17,pc-lar-ros-embc-17,200,4
!42,LAR,LAR-EMBC,LAR-EMBC-17,17,pc-lar-ros-embc-17,201,5
!42,LAR,LAR-EMBC,LAR-EMBC-17,17,pc-lar-ros-embc-17,202,5
!42,LAR,LAR-EMBC,LAR-EMBC-17,17,pc-lar-ros-embc-17,203,5
!42,LAR,LAR-EMBC,LAR-EMBC-18,18,pc-lar-ros-embc-18,204,1
!42,LAR,LAR-EMBC,LAR-EMBC-18,18,pc-lar-ros-embc-18,205,1
!42,LAR,LAR-EMBC,LAR-EMBC-18,18,pc-lar-ros-embc-18,206,1
!42,LAR,LAR-EMBC,LAR-EMBC-18,18,pc-lar-ros-embc-18,207,2
!42,LAR,LAR-EMBC,LAR-EMBC-18,18,pc-lar-ros-embc-18,208,2
!42,LAR,LAR-EMBC,LAR-EMBC-18,18,pc-lar-ros-embc-18,209,2
!42,LAR,LAR-EMBC,LAR-EMBC-18,18,pc-lar-ros-embc-18,210,4
!42,LAR,LAR-EMBC,LAR-EMBC-18,18,pc-lar-ros-embc-18,211,4
!42,LAR,LAR-EMBC,LAR-EMBC-19,19,pc-lar-ros-embc-19,212,1
!42,LAR,LAR-EMBC,LAR-EMBC-19,19,pc-lar-ros-embc-19,213,1
!42,LAR,LAR-EMBC,LAR-EMBC-19,19,pc-lar-ros-embc-19,214,1
!42,LAR,LAR-EMBC,LAR-EMBC-19,19,pc-lar-ros-embc-19,215,2
!42,LAR,LAR-EMBC,LAR-EMBC-19,19,pc-lar-ros-embc-19,216,2
!42,LAR,LAR-EMBC,LAR-EMBC-19,19,pc-lar-ros-embc-19,217,2
!42,LAR,LAR-EMBC,LAR-EMBC-19,19,pc-lar-ros-embc-19,218,4
!42,LAR,LAR-EMBC,LAR-EMBC-19,19,pc-lar-ros-embc-19,219,4
!42,LAR,LAR-EMBC,LAR-EMBC-19,19,pc-lar-ros-embc-19,220,4
!42,LAR,LAR-EMBC,LAR-EMBC-19,19,pc-lar-ros-embc-19,221,5
!42,LAR,LAR-EMBC,LAR-EMBC-19,19,pc-lar-ros-embc-19,222,5
!42,LAR,LAR-EMBC,LAR-EMBC-19,19,pc-lar-ros-embc-19,223,5
!43,LAR,LAR-EMECA,LAR-EMECA-00,0,pc-lar-ros-emeca-00,0,1
!43,LAR,LAR-EMECA,LAR-EMECA-00,0,pc-lar-ros-emeca-00,1,1
!43,LAR,LAR-EMECA,LAR-EMECA-00,0,pc-lar-ros-emeca-00,2,1
!43,LAR,LAR-EMECA,LAR-EMECA-00,0,pc-lar-ros-emeca-00,3,2
!43,LAR,LAR-EMECA,LAR-EMECA-00,0,pc-lar-ros-emeca-00,4,2
!43,LAR,LAR-EMECA,LAR-EMECA-00,0,pc-lar-ros-emeca-00,5,2
!43,LAR,LAR-EMECA,LAR-EMECA-00,0,pc-lar-ros-emeca-00,6,4
!43,LAR,LAR-EMECA,LAR-EMECA-00,0,pc-lar-ros-emeca-00,7,4
!43,LAR,LAR-EMECA,LAR-EMECA-00,0,pc-lar-ros-emeca-00,8,4
!43,LAR,LAR-EMECA,LAR-EMECA-00,0,pc-lar-ros-emeca-00,9,5
!43,LAR,LAR-EMECA,LAR-EMECA-00,0,pc-lar-ros-emeca-00,10,5
!43,LAR,LAR-EMECA,LAR-EMECA-00,0,pc-lar-ros-emeca-00,11,5
!43,LAR,LAR-EMECA,LAR-EMECA-01,1,pc-lar-ros-emeca-01,12,1
!43,LAR,LAR-EMECA,LAR-EMECA-01,1,pc-lar-ros-emeca-01,13,1
!43,LAR,LAR-EMECA,LAR-EMECA-01,1,pc-lar-ros-emeca-01,14,1
!43,LAR,LAR-EMECA,LAR-EMECA-01,1,pc-lar-ros-emeca-01,15,2
!43,LAR,LAR-EMECA,LAR-EMECA-01,1,pc-lar-ros-emeca-01,16,2
!43,LAR,LAR-EMECA,LAR-EMECA-01,1,pc-lar-ros-emeca-01,17,2
!43,LAR,LAR-EMECA,LAR-EMECA-01,1,pc-lar-ros-emeca-01,18,4
!43,LAR,LAR-EMECA,LAR-EMECA-01,1,pc-lar-ros-emeca-01,19,4
!43,LAR,LAR-EMECA,LAR-EMECA-01,1,pc-lar-ros-emeca-01,20,4
!43,LAR,LAR-EMECA,LAR-EMECA-01,1,pc-lar-ros-emeca-01,21,5
!43,LAR,LAR-EMECA,LAR-EMECA-01,1,pc-lar-ros-emeca-01,22,5
!43,LAR,LAR-EMECA,LAR-EMECA-01,1,pc-lar-ros-emeca-01,23,5
!43,LAR,LAR-EMECA,LAR-EMECA-02,2,pc-lar-ros-emeca-02,24,1
!43,LAR,LAR-EMECA,LAR-EMECA-02,2,pc-lar-ros-emeca-02,25,1
!43,LAR,LAR-EMECA,LAR-EMECA-02,2,pc-lar-ros-emeca-02,26,1
!43,LAR,LAR-EMECA,LAR-EMECA-02,2,pc-lar-ros-emeca-02,27,2
!43,LAR,LAR-EMECA,LAR-EMECA-02,2,pc-lar-ros-emeca-02,28,2
!43,LAR,LAR-EMECA,LAR-EMECA-02,2,pc-lar-ros-emeca-02,29,2
!43,LAR,LAR-EMECA,LAR-EMECA-02,2,pc-lar-ros-emeca-02,30,4
!43,LAR,LAR-EMECA,LAR-EMECA-02,2,pc-lar-ros-emeca-02,31,4
!43,LAR,LAR-EMECA,LAR-EMECA-02,2,pc-lar-ros-emeca-02,32,4
!43,LAR,LAR-EMECA,LAR-EMECA-02,2,pc-lar-ros-emeca-02,33,5
!43,LAR,LAR-EMECA,LAR-EMECA-02,2,pc-lar-ros-emeca-02,34,5
!43,LAR,LAR-EMECA,LAR-EMECA-02,2,pc-lar-ros-emeca-02,35,5
!43,LAR,LAR-EMECA,LAR-EMECA-03,3,pc-lar-ros-emeca-03,36,1
!43,LAR,LAR-EMECA,LAR-EMECA-03,3,pc-lar-ros-emeca-03,37,1
!43,LAR,LAR-EMECA,LAR-EMECA-03,3,pc-lar-ros-emeca-03,38,1
!43,LAR,LAR-EMECA,LAR-EMECA-03,3,pc-lar-ros-emeca-03,39,2
!43,LAR,LAR-EMECA,LAR-EMECA-03,3,pc-lar-ros-emeca-03,40,2
!43,LAR,LAR-EMECA,LAR-EMECA-03,3,pc-lar-ros-emeca-03,41,2
!43,LAR,LAR-EMECA,LAR-EMECA-03,3,pc-lar-ros-emeca-03,42,4
!43,LAR,LAR-EMECA,LAR-EMECA-03,3,pc-lar-ros-emeca-03,43,4
!43,LAR,LAR-EMECA,LAR-EMECA-03,3,pc-lar-ros-emeca-03,44,4
!43,LAR,LAR-EMECA,LAR-EMECA-03,3,pc-lar-ros-emeca-03,45,5
!43,LAR,LAR-EMECA,LAR-EMECA-03,3,pc-lar-ros-emeca-03,46,5
!43,LAR,LAR-EMECA,LAR-EMECA-03,3,pc-lar-ros-emeca-03,47,5
!43,LAR,LAR-EMECA,LAR-EMECA-04,4,pc-lar-ros-emeca-04,48,1
!43,LAR,LAR-EMECA,LAR-EMECA-04,4,pc-lar-ros-emeca-04,49,1
!43,LAR,LAR-EMECA,LAR-EMECA-04,4,pc-lar-ros-emeca-04,50,1
!43,LAR,LAR-EMECA,LAR-EMECA-04,4,pc-lar-ros-emeca-04,51,2
!43,LAR,LAR-EMECA,LAR-EMECA-04,4,pc-lar-ros-emeca-04,52,2
!43,LAR,LAR-EMECA,LAR-EMECA-04,4,pc-lar-ros-emeca-04,53,2
!43,LAR,LAR-EMECA,LAR-EMECA-04,4,pc-lar-ros-emeca-04,54,4
!43,LAR,LAR-EMECA,LAR-EMECA-04,4,pc-lar-ros-emeca-04,55,4
!43,LAR,LAR-EMECA,LAR-EMECA-05,5,pc-lar-ros-emeca-05,56,1
!43,LAR,LAR-EMECA,LAR-EMECA-05,5,pc-lar-ros-emeca-05,57,1
!43,LAR,LAR-EMECA,LAR-EMECA-05,5,pc-lar-ros-emeca-05,58,1
!43,LAR,LAR-EMECA,LAR-EMECA-05,5,pc-lar-ros-emeca-05,59,2
!43,LAR,LAR-EMECA,LAR-EMECA-05,5,pc-lar-ros-emeca-05,60,2
!43,LAR,LAR-EMECA,LAR-EMECA-05,5,pc-lar-ros-emeca-05,61,2
!43,LAR,LAR-EMECA,LAR-EMECA-05,5,pc-lar-ros-emeca-05,62,4
!43,LAR,LAR-EMECA,LAR-EMECA-05,5,pc-lar-ros-emeca-05,63,4
!43,LAR,LAR-EMECA,LAR-EMECA-05,5,pc-lar-ros-emeca-05,64,4
!43,LAR,LAR-EMECA,LAR-EMECA-05,5,pc-lar-ros-emeca-05,65,5
!43,LAR,LAR-EMECA,LAR-EMECA-05,5,pc-lar-ros-emeca-05,66,5
!43,LAR,LAR-EMECA,LAR-EMECA-05,5,pc-lar-ros-emeca-05,67,5
!43,LAR,LAR-EMECA,LAR-EMECA-06,6,pc-lar-ros-emeca-06,68,1
!43,LAR,LAR-EMECA,LAR-EMECA-06,6,pc-lar-ros-emeca-06,69,1
!43,LAR,LAR-EMECA,LAR-EMECA-06,6,pc-lar-ros-emeca-06,70,1
!43,LAR,LAR-EMECA,LAR-EMECA-06,6,pc-lar-ros-emeca-06,71,2
!43,LAR,LAR-EMECA,LAR-EMECA-06,6,pc-lar-ros-emeca-06,72,2
!43,LAR,LAR-EMECA,LAR-EMECA-06,6,pc-lar-ros-emeca-06,73,2
!43,LAR,LAR-EMECA,LAR-EMECA-06,6,pc-lar-ros-emeca-06,74,4
!43,LAR,LAR-EMECA,LAR-EMECA-06,6,pc-lar-ros-emeca-06,75,4
!43,LAR,LAR-EMECA,LAR-EMECA-06,6,pc-lar-ros-emeca-06,76,4
!43,LAR,LAR-EMECA,LAR-EMECA-06,6,pc-lar-ros-emeca-06,77,5
!43,LAR,LAR-EMECA,LAR-EMECA-06,6,pc-lar-ros-emeca-06,78,5
!43,LAR,LAR-EMECA,LAR-EMECA-06,6,pc-lar-ros-emeca-06,79,5
!43,LAR,LAR-EMECA,LAR-EMECA-07,7,pc-lar-ros-emeca-07,80,1
!43,LAR,LAR-EMECA,LAR-EMECA-07,7,pc-lar-ros-emeca-07,81,1
!43,LAR,LAR-EMECA,LAR-EMECA-07,7,pc-lar-ros-emeca-07,82,1
!43,LAR,LAR-EMECA,LAR-EMECA-07,7,pc-lar-ros-emeca-07,83,2
!43,LAR,LAR-EMECA,LAR-EMECA-07,7,pc-lar-ros-emeca-07,84,2
!43,LAR,LAR-EMECA,LAR-EMECA-07,7,pc-lar-ros-emeca-07,85,2
!43,LAR,LAR-EMECA,LAR-EMECA-07,7,pc-lar-ros-emeca-07,86,4
!43,LAR,LAR-EMECA,LAR-EMECA-07,7,pc-lar-ros-emeca-07,87,4
!43,LAR,LAR-EMECA,LAR-EMECA-07,7,pc-lar-ros-emeca-07,88,4
!43,LAR,LAR-EMECA,LAR-EMECA-07,7,pc-lar-ros-emeca-07,89,5
!43,LAR,LAR-EMECA,LAR-EMECA-07,7,pc-lar-ros-emeca-07,90,5
!43,LAR,LAR-EMECA,LAR-EMECA-07,7,pc-lar-ros-emeca-07,91,5
!43,LAR,LAR-EMECA,LAR-EMECA-08,8,pc-lar-ros-emeca-08,92,1
!43,LAR,LAR-EMECA,LAR-EMECA-08,8,pc-lar-ros-emeca-08,93,1
!43,LAR,LAR-EMECA,LAR-EMECA-08,8,pc-lar-ros-emeca-08,94,1
!43,LAR,LAR-EMECA,LAR-EMECA-08,8,pc-lar-ros-emeca-08,95,2
!43,LAR,LAR-EMECA,LAR-EMECA-08,8,pc-lar-ros-emeca-08,96,2
!43,LAR,LAR-EMECA,LAR-EMECA-08,8,pc-lar-ros-emeca-08,97,2
!43,LAR,LAR-EMECA,LAR-EMECA-08,8,pc-lar-ros-emeca-08,98,4
!43,LAR,LAR-EMECA,LAR-EMECA-08,8,pc-lar-ros-emeca-08,99,4
!43,LAR,LAR-EMECA,LAR-EMECA-08,8,pc-lar-ros-emeca-08,100,4
!43,LAR,LAR-EMECA,LAR-EMECA-08,8,pc-lar-ros-emeca-08,101,5
!43,LAR,LAR-EMECA,LAR-EMECA-08,8,pc-lar-ros-emeca-08,102,5
!43,LAR,LAR-EMECA,LAR-EMECA-08,8,pc-lar-ros-emeca-08,103,5
!43,LAR,LAR-EMECA,LAR-EMECA-09,9,pc-lar-ros-emeca-09,104,1
!43,LAR,LAR-EMECA,LAR-EMECA-09,9,pc-lar-ros-emeca-09,105,1
!43,LAR,LAR-EMECA,LAR-EMECA-09,9,pc-lar-ros-emeca-09,106,1
!43,LAR,LAR-EMECA,LAR-EMECA-09,9,pc-lar-ros-emeca-09,107,2
!43,LAR,LAR-EMECA,LAR-EMECA-09,9,pc-lar-ros-emeca-09,108,2
!43,LAR,LAR-EMECA,LAR-EMECA-09,9,pc-lar-ros-emeca-09,109,2
!43,LAR,LAR-EMECA,LAR-EMECA-09,9,pc-lar-ros-emeca-09,110,4
!43,LAR,LAR-EMECA,LAR-EMECA-09,9,pc-lar-ros-emeca-09,111,4
!43,LAR,LAR-EMECA,LAR-EMECA-09,9,pc-lar-ros-emeca-09,112,4
!43,LAR,LAR-EMECA,LAR-EMECA-09,9,pc-lar-ros-emeca-09,113,5
!43,LAR,LAR-EMECA,LAR-EMECA-10,10,pc-lar-ros-emeca-10,114,1
!43,LAR,LAR-EMECA,LAR-EMECA-10,10,pc-lar-ros-emeca-10,115,1
!43,LAR,LAR-EMECA,LAR-EMECA-10,10,pc-lar-ros-emeca-10,116,1
!43,LAR,LAR-EMECA,LAR-EMECA-10,10,pc-lar-ros-emeca-10,117,2
!43,LAR,LAR-EMECA,LAR-EMECA-10,10,pc-lar-ros-emeca-10,118,2
!43,LAR,LAR-EMECA,LAR-EMECA-10,10,pc-lar-ros-emeca-10,119,2
!43,LAR,LAR-EMECA,LAR-EMECA-10,10,pc-lar-ros-emeca-10,120,4
!43,LAR,LAR-EMECA,LAR-EMECA-10,10,pc-lar-ros-emeca-10,121,4
!43,LAR,LAR-EMECA,LAR-EMECA-10,10,pc-lar-ros-emeca-10,122,4
!43,LAR,LAR-EMECA,LAR-EMECA-10,10,pc-lar-ros-emeca-10,123,5
!43,LAR,LAR-EMECA,LAR-EMECA-10,10,pc-lar-ros-emeca-10,124,5
!43,LAR,LAR-EMECA,LAR-EMECA-10,10,pc-lar-ros-emeca-10,125,5
!43,LAR,LAR-EMECA,LAR-EMECA-11,11,pc-lar-ros-emeca-11,126,1
!43,LAR,LAR-EMECA,LAR-EMECA-11,11,pc-lar-ros-emeca-11,127,1
!43,LAR,LAR-EMECA,LAR-EMECA-11,11,pc-lar-ros-emeca-11,128,1
!43,LAR,LAR-EMECA,LAR-EMECA-11,11,pc-lar-ros-emeca-11,129,2
!43,LAR,LAR-EMECA,LAR-EMECA-11,11,pc-lar-ros-emeca-11,130,2
!43,LAR,LAR-EMECA,LAR-EMECA-11,11,pc-lar-ros-emeca-11,131,2
!43,LAR,LAR-EMECA,LAR-EMECA-11,11,pc-lar-ros-emeca-11,132,4
!43,LAR,LAR-EMECA,LAR-EMECA-11,11,pc-lar-ros-emeca-11,133,4
!43,LAR,LAR-EMECA,LAR-EMECA-11,11,pc-lar-ros-emeca-11,134,4
!43,LAR,LAR-EMECA,LAR-EMECA-11,11,pc-lar-ros-emeca-11,135,5
!43,LAR,LAR-EMECA,LAR-EMECA-11,11,pc-lar-ros-emeca-11,136,5
!43,LAR,LAR-EMECA,LAR-EMECA-11,11,pc-lar-ros-emeca-11,137,5
!44,LAR,LAR-EMECC,LAR-EMECC-00,0,pc-lar-ros-emecc-00,0,1
!44,LAR,LAR-EMECC,LAR-EMECC-00,0,pc-lar-ros-emecc-00,1,1
!44,LAR,LAR-EMECC,LAR-EMECC-00,0,pc-lar-ros-emecc-00,2,1
!44,LAR,LAR-EMECC,LAR-EMECC-00,0,pc-lar-ros-emecc-00,3,2
!44,LAR,LAR-EMECC,LAR-EMECC-00,0,pc-lar-ros-emecc-00,4,2
!44,LAR,LAR-EMECC,LAR-EMECC-00,0,pc-lar-ros-emecc-00,5,2
!44,LAR,LAR-EMECC,LAR-EMECC-00,0,pc-lar-ros-emecc-00,6,4
!44,LAR,LAR-EMECC,LAR-EMECC-00,0,pc-lar-ros-emecc-00,7,4
!44,LAR,LAR-EMECC,LAR-EMECC-00,0,pc-lar-ros-emecc-00,8,4
!44,LAR,LAR-EMECC,LAR-EMECC-00,0,pc-lar-ros-emecc-00,9,5
!44,LAR,LAR-EMECC,LAR-EMECC-00,0,pc-lar-ros-emecc-00,10,5
!44,LAR,LAR-EMECC,LAR-EMECC-00,0,pc-lar-ros-emecc-00,11,5
!44,LAR,LAR-EMECC,LAR-EMECC-01,1,pc-lar-ros-emecc-01,12,1
!44,LAR,LAR-EMECC,LAR-EMECC-01,1,pc-lar-ros-emecc-01,13,1
!44,LAR,LAR-EMECC,LAR-EMECC-01,1,pc-lar-ros-emecc-01,14,1
!44,LAR,LAR-EMECC,LAR-EMECC-01,1,pc-lar-ros-emecc-01,15,2
!44,LAR,LAR-EMECC,LAR-EMECC-01,1,pc-lar-ros-emecc-01,16,2
!44,LAR,LAR-EMECC,LAR-EMECC-01,1,pc-lar-ros-emecc-01,17,2
!44,LAR,LAR-EMECC,LAR-EMECC-01,1,pc-lar-ros-emecc-01,18,4
!44,LAR,LAR-EMECC,LAR-EMECC-01,1,pc-lar-ros-emecc-01,19,4
!44,LAR,LAR-EMECC,LAR-EMECC-01,1,pc-lar-ros-emecc-01,20,4
!44,LAR,LAR-EMECC,LAR-EMECC-01,1,pc-lar-ros-emecc-01,21,5
!44,LAR,LAR-EMECC,LAR-EMECC-01,1,pc-lar-ros-emecc-01,22,5
!44,LAR,LAR-EMECC,LAR-EMECC-01,1,pc-lar-ros-emecc-01,23,5
!44,LAR,LAR-EMECC,LAR-EMECC-02,2,pc-lar-ros-emecc-02,24,1
!44,LAR,LAR-EMECC,LAR-EMECC-02,2,pc-lar-ros-emecc-02,25,1
!44,LAR,LAR-EMECC,LAR-EMECC-02,2,pc-lar-ros-emecc-02,26,1
!44,LAR,LAR-EMECC,LAR-EMECC-02,2,pc-lar-ros-emecc-02,27,2
!44,LAR,LAR-EMECC,LAR-EMECC-02,2,pc-lar-ros-emecc-02,28,2
!44,LAR,LAR-EMECC,LAR-EMECC-02,2,pc-lar-ros-emecc-02,29,2
!44,LAR,LAR-EMECC,LAR-EMECC-02,2,pc-lar-ros-emecc-02,30,4
!44,LAR,LAR-EMECC,LAR-EMECC-02,2,pc-lar-ros-emecc-02,31,4
!44,LAR,LAR-EMECC,LAR-EMECC-02,2,pc-lar-ros-emecc-02,32,4
!44,LAR,LAR-EMECC,LAR-EMECC-02,2,pc-lar-ros-emecc-02,33,5
!44,LAR,LAR-EMECC,LAR-EMECC-02,2,pc-lar-ros-emecc-02,34,5
!44,LAR,LAR-EMECC,LAR-EMECC-02,2,pc-lar-ros-emecc-02,35,5
!44,LAR,LAR-EMECC,LAR-EMECC-03,3,pc-lar-ros-emecc-03,36,1
!44,LAR,LAR-EMECC,LAR-EMECC-03,3,pc-lar-ros-emecc-03,37,1
!44,LAR,LAR-EMECC,LAR-EMECC-03,3,pc-lar-ros-emecc-03,38,1
!44,LAR,LAR-EMECC,LAR-EMECC-03,3,pc-lar-ros-emecc-03,39,2
!44,LAR,LAR-EMECC,LAR-EMECC-03,3,pc-lar-ros-emecc-03,40,2
!44,LAR,LAR-EMECC,LAR-EMECC-03,3,pc-lar-ros-emecc-03,41,2
!44,LAR,LAR-EMECC,LAR-EMECC-03,3,pc-lar-ros-emecc-03,42,4
!44,LAR,LAR-EMECC,LAR-EMECC-03,3,pc-lar-ros-emecc-03,43,4
!44,LAR,LAR-EMECC,LAR-EMECC-03,3,pc-lar-ros-emecc-03,44,4
!44,LAR,LAR-EMECC,LAR-EMECC-03,3,pc-lar-ros-emecc-03,45,5
!44,LAR,LAR-EMECC,LAR-EMECC-03,3,pc-lar-ros-emecc-03,46,5
!44,LAR,LAR-EMECC,LAR-EMECC-03,3,pc-lar-ros-emecc-03,47,5
!44,LAR,LAR-EMECC,LAR-EMECC-04,4,pc-lar-ros-emecc-04,48,1
!44,LAR,LAR-EMECC,LAR-EMECC-04,4,pc-lar-ros-emecc-04,49,1
!44,LAR,LAR-EMECC,LAR-EMECC-04,4,pc-lar-ros-emecc-04,50,1
!44,LAR,LAR-EMECC,LAR-EMECC-04,4,pc-lar-ros-emecc-04,51,2
!44,LAR,LAR-EMECC,LAR-EMECC-04,4,pc-lar-ros-emecc-04,52,2
!44,LAR,LAR-EMECC,LAR-EMECC-04,4,pc-lar-ros-emecc-04,53,2
!44,LAR,LAR-EMECC,LAR-EMECC-04,4,pc-lar-ros-emecc-04,54,4
!44,LAR,LAR-EMECC,LAR-EMECC-04,4,pc-lar-ros-emecc-04,55,4
!44,LAR,LAR-EMECC,LAR-EMECC-05,5,pc-lar-ros-emecc-05,56,1
!44,LAR,LAR-EMECC,LAR-EMECC-05,5,pc-lar-ros-emecc-05,57,1
!44,LAR,LAR-EMECC,LAR-EMECC-05,5,pc-lar-ros-emecc-05,58,1
!44,LAR,LAR-EMECC,LAR-EMECC-05,5,pc-lar-ros-emecc-05,59,2
!44,LAR,LAR-EMECC,LAR-EMECC-05,5,pc-lar-ros-emecc-05,60,2
!44,LAR,LAR-EMECC,LAR-EMECC-05,5,pc-lar-ros-emecc-05,61,2
!44,LAR,LAR-EMECC,LAR-EMECC-05,5,pc-lar-ros-emecc-05,62,4
!44,LAR,LAR-EMECC,LAR-EMECC-05,5,pc-lar-ros-emecc-05,63,4
!44,LAR,LAR-EMECC,LAR-EMECC-05,5,pc-lar-ros-emecc-05,64,4
!44,LAR,LAR-EMECC,LAR-EMECC-05,5,pc-lar-ros-emecc-05,65,5
!44,LAR,LAR-EMECC,LAR-EMECC-05,5,pc-lar-ros-emecc-05,66,5
!44,LAR,LAR-EMECC,LAR-EMECC-05,5,pc-lar-ros-emecc-05,67,5
!44,LAR,LAR-EMECC,LAR-EMECC-06,6,pc-lar-ros-emecc-06,68,1
!44,LAR,LAR-EMECC,LAR-EMECC-06,6,pc-lar-ros-emecc-06,69,1
!44,LAR,LAR-EMECC,LAR-EMECC-06,6,pc-lar-ros-emecc-06,70,1
!44,LAR,LAR-EMECC,LAR-EMECC-06,6,pc-lar-ros-emecc-06,71,2
!44,LAR,LAR-EMECC,LAR-EMECC-06,6,pc-lar-ros-emecc-06,72,2
!44,LAR,LAR-EMECC,LAR-EMECC-06,6,pc-lar-ros-emecc-06,73,2
!44,LAR,LAR-EMECC,LAR-EMECC-06,6,pc-lar-ros-emecc-06,74,4
!44,LAR,LAR-EMECC,LAR-EMECC-06,6,pc-lar-ros-emecc-06,75,4
!44,LAR,LAR-EMECC,LAR-EMECC-06,6,pc-lar-ros-emecc-06,76,4
!44,LAR,LAR-EMECC,LAR-EMECC-06,6,pc-lar-ros-emecc-06,77,5
!44,LAR,LAR-EMECC,LAR-EMECC-06,6,pc-lar-ros-emecc-06,78,5
!44,LAR,LAR-EMECC,LAR-EMECC-06,6,pc-lar-ros-emecc-06,79,5
!44,LAR,LAR-EMECC,LAR-EMECC-07,7,pc-lar-ros-emecc-07,80,1
!44,LAR,LAR-EMECC,LAR-EMECC-07,7,pc-lar-ros-emecc-07,81,1
!44,LAR,LAR-EMECC,LAR-EMECC-07,7,pc-lar-ros-emecc-07,82,1
!44,LAR,LAR-EMECC,LAR-EMECC-07,7,pc-lar-ros-emecc-07,83,2
!44,LAR,LAR-EMECC,LAR-EMECC-07,7,pc-lar-ros-emecc-07,84,2
!44,LAR,LAR-EMECC,LAR-EMECC-07,7,pc-lar-ros-emecc-07,85,2
!44,LAR,LAR-EMECC,LAR-EMECC-07,7,pc-lar-ros-emecc-07,86,4
!44,LAR,LAR-EMECC,LAR-EMECC-07,7,pc-lar-ros-emecc-07,87,4
!44,LAR,LAR-EMECC,LAR-EMECC-07,7,pc-lar-ros-emecc-07,88,4
!44,LAR,LAR-EMECC,LAR-EMECC-07,7,pc-lar-ros-emecc-07,89,5
!44,LAR,LAR-EMECC,LAR-EMECC-07,7,pc-lar-ros-emecc-07,90,5
!44,LAR,LAR-EMECC,LAR-EMECC-07,7,pc-lar-ros-emecc-07,91,5
!44,LAR,LAR-EMECC,LAR-EMECC-08,8,pc-lar-ros-emecc-08,92,1
!44,LAR,LAR-EMECC,LAR-EMECC-08,8,pc-lar-ros-emecc-08,93,1
!44,LAR,LAR-EMECC,LAR-EMECC-08,8,pc-lar-ros-emecc-08,94,1
!44,LAR,LAR-EMECC,LAR-EMECC-08,8,pc-lar-ros-emecc-08,95,2
!44,LAR,LAR-EMECC,LAR-EMECC-08,8,pc-lar-ros-emecc-08,96,2
!44,LAR,LAR-EMECC,LAR-EMECC-08,8,pc-lar-ros-emecc-08,97,2
!44,LAR,LAR-EMECC,LAR-EMECC-08,8,pc-lar-ros-emecc-08,98,4
!44,LAR,LAR-EMECC,LAR-EMECC-08,8,pc-lar-ros-emecc-08,99,4
!44,LAR,LAR-EMECC,LAR-EMECC-08,8,pc-lar-ros-emecc-08,100,4
!44,LAR,LAR-EMECC,LAR-EMECC-08,8,pc-lar-ros-emecc-08,101,5
!44,LAR,LAR-EMECC,LAR-EMECC-08,8,pc-lar-ros-emecc-08,102,5
!44,LAR,LAR-EMECC,LAR-EMECC-08,8,pc-lar-ros-emecc-08,103,5
!44,LAR,LAR-EMECC,LAR-EMECC-09,9,pc-lar-ros-emecc-09,104,1
!44,LAR,LAR-EMECC,LAR-EMECC-09,9,pc-lar-ros-emecc-09,105,1
!44,LAR,LAR-EMECC,LAR-EMECC-09,9,pc-lar-ros-emecc-09,106,1
!44,LAR,LAR-EMECC,LAR-EMECC-09,9,pc-lar-ros-emecc-09,107,2
!44,LAR,LAR-EMECC,LAR-EMECC-09,9,pc-lar-ros-emecc-09,108,2
!44,LAR,LAR-EMECC,LAR-EMECC-09,9,pc-lar-ros-emecc-09,109,2
!44,LAR,LAR-EMECC,LAR-EMECC-09,9,pc-lar-ros-emecc-09,110,4
!44,LAR,LAR-EMECC,LAR-EMECC-09,9,pc-lar-ros-emecc-09,111,4
!44,LAR,LAR-EMECC,LAR-EMECC-09,9,pc-lar-ros-emecc-09,112,4
!44,LAR,LAR-EMECC,LAR-EMECC-09,9,pc-lar-ros-emecc-09,113,5
!44,LAR,LAR-EMECC,LAR-EMECC-10,10,pc-lar-ros-emecc-10,114,1
!44,LAR,LAR-EMECC,LAR-EMECC-10,10,pc-lar-ros-emecc-10,115,1
!44,LAR,LAR-EMECC,LAR-EMECC-10,10,pc-lar-ros-emecc-10,116,1
!44,LAR,LAR-EMECC,LAR-EMECC-10,10,pc-lar-ros-emecc-10,117,2
!44,LAR,LAR-EMECC,LAR-EMECC-10,10,pc-lar-ros-emecc-10,118,2
!44,LAR,LAR-EMECC,LAR-EMECC-10,10,pc-lar-ros-emecc-10,119,2
!44,LAR,LAR-EMECC,LAR-EMECC-10,10,pc-lar-ros-emecc-10,120,4
!44,LAR,LAR-EMECC,LAR-EMECC-10,10,pc-lar-ros-emecc-10,121,4
!44,LAR,LAR-EMECC,LAR-EMECC-10,10,pc-lar-ros-emecc-10,122,4
!44,LAR,LAR-EMECC,LAR-EMECC-10,10,pc-lar-ros-emecc-10,123,5
!44,LAR,LAR-EMECC,LAR-EMECC-10,10,pc-lar-ros-emecc-10,124,5
!44,LAR,LAR-EMECC,LAR-EMECC-10,10,pc-lar-ros-emecc-10,125,5
!44,LAR,LAR-EMECC,LAR-EMECC-11,11,pc-lar-ros-emecc-11,126,1
!44,LAR,LAR-EMECC,LAR-EMECC-11,11,pc-lar-ros-emecc-11,127,1
!44,LAR,LAR-EMECC,LAR-EMECC-11,11,pc-lar-ros-emecc-11,128,1
!44,LAR,LAR-EMECC,LAR-EMECC-11,11,pc-lar-ros-emecc-11,129,2
!44,LAR,LAR-EMECC,LAR-EMECC-11,11,pc-lar-ros-emecc-11,130,2
!44,LAR,LAR-EMECC,LAR-EMECC-11,11,pc-lar-ros-emecc-11,131,2
!44,LAR,LAR-EMECC,LAR-EMECC-11,11,pc-lar-ros-emecc-11,132,4
!44,LAR,LAR-EMECC,LAR-EMECC-11,11,pc-lar-ros-emecc-11,133,4
!44,LAR,LAR-EMECC,LAR-EMECC-11,11,pc-lar-ros-emecc-11,134,4
!44,LAR,LAR-EMECC,LAR-EMECC-11,11,pc-lar-ros-emecc-11,135,5
!44,LAR,LAR-EMECC,LAR-EMECC-11,11,pc-lar-ros-emecc-11,136,5
!44,LAR,LAR-EMECC,LAR-EMECC-11,11,pc-lar-ros-emecc-11,137,5
!45,LAR,LAR-HECA,LAR-HECA-00,0,pc-lar-ros-heca-00,0,1
!45,LAR,LAR-HECA,LAR-HECA-00,0,pc-lar-ros-heca-00,1,1
!45,LAR,LAR-HECA,LAR-HECA-00,0,pc-lar-ros-heca-00,2,1
!45,LAR,LAR-HECA,LAR-HECA-00,0,pc-lar-ros-heca-00,3,2
!45,LAR,LAR-HECA,LAR-HECA-00,0,pc-lar-ros-heca-00,4,2
!45,LAR,LAR-HECA,LAR-HECA-00,0,pc-lar-ros-heca-00,5,2
!45,LAR,LAR-HECA,LAR-HECA-00,0,pc-lar-ros-heca-00,6,4
!45,LAR,LAR-HECA,LAR-HECA-00,0,pc-lar-ros-heca-00,7,4
!45,LAR,LAR-HECA,LAR-HECA-00,0,pc-lar-ros-heca-00,8,4
!45,LAR,LAR-HECA,LAR-HECA-00,0,pc-lar-ros-heca-00,9,5
!45,LAR,LAR-HECA,LAR-HECA-00,0,pc-lar-ros-heca-00,10,5
!45,LAR,LAR-HECA,LAR-HECA-00,0,pc-lar-ros-heca-00,11,5
!46,LAR,LAR-HECC,LAR-HECC-00,0,pc-lar-ros-hecc-00,0,1
!46,LAR,LAR-HECC,LAR-HECC-00,0,pc-lar-ros-hecc-00,1,1
!46,LAR,LAR-HECC,LAR-HECC-00,0,pc-lar-ros-hecc-00,2,1
!46,LAR,LAR-HECC,LAR-HECC-00,0,pc-lar-ros-hecc-00,3,2
!46,LAR,LAR-HECC,LAR-HECC-00,0,pc-lar-ros-hecc-00,4,2
!46,LAR,LAR-HECC,LAR-HECC-00,0,pc-lar-ros-hecc-00,5,2
!46,LAR,LAR-HECC,LAR-HECC-00,0,pc-lar-ros-hecc-00,6,4
!46,LAR,LAR-HECC,LAR-HECC-00,0,pc-lar-ros-hecc-00,7,4
!46,LAR,LAR-HECC,LAR-HECC-00,0,pc-lar-ros-hecc-00,8,4
!46,LAR,LAR-HECC,LAR-HECC-00,0,pc-lar-ros-hecc-00,9,5
!46,LAR,LAR-HECC,LAR-HECC-00,0,pc-lar-ros-hecc-00,10,5
!46,LAR,LAR-HECC,LAR-HECC-00,0,pc-lar-ros-hecc-00,11,5
!47,LAR,LAR-FCALA,LAR-FCALA-00,0,pc-lar-ros-fcala-00,0,1
!47,LAR,LAR-FCALA,LAR-FCALA-00,0,pc-lar-ros-fcala-00,1,1
!47,LAR,LAR-FCALA,LAR-FCALA-00,0,pc-lar-ros-fcala-00,2,1
!47,LAR,LAR-FCALA,LAR-FCALA-00,0,pc-lar-ros-fcala-00,3,2
!47,LAR,LAR-FCALA,LAR-FCALA-00,0,pc-lar-ros-fcala-00,4,2
!47,LAR,LAR-FCALA,LAR-FCALA-00,0,pc-lar-ros-fcala-00,5,2
!47,LAR,LAR-FCALA,LAR-FCALA-00,0,pc-lar-ros-fcala-00,6,4
!48,LAR,LAR-FCALC,LAR-FCALC-00,0,pc-lar-ros-fcalc-00,0,1
!48,LAR,LAR-FCALC,LAR-FCALC-00,0,pc-lar-ros-fcalc-00,1,1
!48,LAR,LAR-FCALC,LAR-FCALC-00,0,pc-lar-ros-fcalc-00,2,1
!48,LAR,LAR-FCALC,LAR-FCALC-00,0,pc-lar-ros-fcalc-00,3,2
!48,LAR,LAR-FCALC,LAR-FCALC-00,0,pc-lar-ros-fcalc-00,4,2
!48,LAR,LAR-FCALC,LAR-FCALC-00,0,pc-lar-ros-fcalc-00,5,2
!48,LAR,LAR-FCALC,LAR-FCALC-00,0,pc-lar-ros-fcalc-00,6,4
51,TIL,TIL-LBA,TIL-LBA-00,0,lnxatd4017,0,1
51,TIL,TIL-LBA,TIL-LBA-00,0,lnxatd4017,1,1
51,TIL,TIL-LBA,TIL-LBA-00,0,lnxatd4017,2,1
51,TIL,TIL-LBA,TIL-LBA-00,0,lnxatd4017,3,2
51,TIL,TIL-LBA,TIL-LBA-00,0,lnxatd4017,4,2
51,TIL,TIL-LBA,TIL-LBA-00,0,lnxatd4017,5,2
51,TIL,TIL-LBA,TIL-LBA-00,0,lnxatd4017,6,4
51,TIL,TIL-LBA,TIL-LBA-00,0,lnxatd4017,7,4
51,TIL,TIL-LBA,TIL-LBA-01,1,lnxatd4018,8,1
51,TIL,TIL-LBA,TIL-LBA-01,1,lnxatd4018,9,1
51,TIL,TIL-LBA,TIL-LBA-01,1,lnxatd4018,10,1
51,TIL,TIL-LBA,TIL-LBA-01,1,lnxatd4018,11,2
51,TIL,TIL-LBA,TIL-LBA-01,1,lnxatd4018,12,2
51,TIL,TIL-LBA,TIL-LBA-01,1,lnxatd4018,13,2
51,TIL,TIL-LBA,TIL-LBA-01,1,lnxatd4018,14,4
51,TIL,TIL-LBA,TIL-LBA-01,1,lnxatd4018,15,4
!52,TIL,TIL-LBC,TIL-LBC-00,0,pc-til-ros-lbc-00,0,1
!52,TIL,TIL-LBC,TIL-LBC-00,0,pc-til-ros-lbc-00,1,1
!52,TIL,TIL-LBC,TIL-LBC-00,0,pc-til-ros-lbc-00,2,1
!52,TIL,TIL-LBC,TIL-LBC-00,0,pc-til-ros-lbc-00,3,2
!52,TIL,TIL-LBC,TIL-LBC-00,0,pc-til-ros-lbc-00,4,2
!52,TIL,TIL-LBC,TIL-LBC-00,0,pc-til-ros-lbc-00,5,2
!52,TIL,TIL-LBC,TIL-LBC-00,0,pc-til-ros-lbc-00,6,4
!52,TIL,TIL-LBC,TIL-LBC-00,0,pc-til-ros-lbc-00,7,4
!52,TIL,TIL-LBC,TIL-LBC-01,1,pc-til-ros-lbc-01,8,1
!52,TIL,TIL-LBC,TIL-LBC-01,1,pc-til-ros-lbc-01,9,1
!52,TIL,TIL-LBC,TIL-LBC-01,1,pc-til-ros-lbc-01,10,1
!52,TIL,TIL-LBC,TIL-LBC-01,1,pc-til-ros-lbc-01,11,2
!52,TIL,TIL-LBC,TIL-LBC-01,1,pc-til-ros-lbc-01,12,2
!52,TIL,TIL-LBC,TIL-LBC-01,1,pc-til-ros-lbc-01,13,2
!52,TIL,TIL-LBC,TIL-LBC-01,1,pc-til-ros-lbc-01,14,4
!52,TIL,TIL-LBC,TIL-LBC-01,1,pc-til-ros-lbc-01,15,4
!52,TIL,TIL-LBC,TIL-LBC-01,1,pc-til-ros-lbc-01,16,4
!53,TIL,TIL-EBA,TIL-EBA-00,0,pc-til-ros-eba-00,0,1
!53,TIL,TIL-EBA,TIL-EBA-00,0,pc-til-ros-eba-00,1,1
!53,TIL,TIL-EBA,TIL-EBA-00,0,pc-til-ros-eba-00,2,1
!53,TIL,TIL-EBA,TIL-EBA-00,0,pc-til-ros-eba-00,3,2
!53,TIL,TIL-EBA,TIL-EBA-00,0,pc-til-ros-eba-00,4,2
!53,TIL,TIL-EBA,TIL-EBA-00,0,pc-til-ros-eba-00,5,2
!53,TIL,TIL-EBA,TIL-EBA-00,0,pc-til-ros-eba-00,6,4
!53,TIL,TIL-EBA,TIL-EBA-00,0,pc-til-ros-eba-00,7,4
!53,TIL,TIL-EBA,TIL-EBA-01,1,pc-til-ros-eba-01,8,1
!53,TIL,TIL-EBA,TIL-EBA-01,1,pc-til-ros-eba-01,9,1
!53,TIL,TIL-EBA,TIL-EBA-01,1,pc-til-ros-eba-01,10,1
!53,TIL,TIL-EBA,TIL-EBA-01,1,pc-til-ros-eba-01,11,2
!53,TIL,TIL-EBA,TIL-EBA-01,1,pc-til-ros-eba-01,12,2
!53,TIL,TIL-EBA,TIL-EBA-01,1,pc-til-ros-eba-01,13,2
!53,TIL,TIL-EBA,TIL-EBA-01,1,pc-til-ros-eba-01,14,4
!53,TIL,TIL-EBA,TIL-EBA-01,1,pc-til-ros-eba-01,15,4
!54,TIL,TIL-EBC,TIL-EBC-00,0,pc-til-ros-ebc-00,0,1
!54,TIL,TIL-EBC,TIL-EBC-00,0,pc-til-ros-ebc-00,1,1
!54,TIL,TIL-EBC,TIL-EBC-00,0,pc-til-ros-ebc-00,2,1
!54,TIL,TIL-EBC,TIL-EBC-00,0,pc-til-ros-ebc-00,3,2
!54,TIL,TIL-EBC,TIL-EBC-00,0,pc-til-ros-ebc-00,4,2
!54,TIL,TIL-EBC,TIL-EBC-00,0,pc-til-ros-ebc-00,5,2
!54,TIL,TIL-EBC,TIL-EBC-00,0,pc-til-ros-ebc-00,6,4
!54,TIL,TIL-EBC,TIL-EBC-00,0,pc-til-ros-ebc-00,7,4
!54,TIL,TIL-EBC,TIL-EBC-01,1,pc-til-ros-ebc-01,8,1
!54,TIL,TIL-EBC,TIL-EBC-01,1,pc-til-ros-ebc-01,9,1
!54,TIL,TIL-EBC,TIL-EBC-01,1,pc-til-ros-ebc-01,10,1
!54,TIL,TIL-EBC,TIL-EBC-01,1,pc-til-ros-ebc-01,11,2
!54,TIL,TIL-EBC,TIL-EBC-01,1,pc-til-ros-ebc-01,12,2
!54,TIL,TIL-EBC,TIL-EBC-01,1,pc-til-ros-ebc-01,13,2
!54,TIL,TIL-EBC,TIL-EBC-01,1,pc-til-ros-ebc-01,14,4
!54,TIL,TIL-EBC,TIL-EBC-01,1,pc-til-ros-ebc-01,15,4
61,MDT,MDT-BA,MDT-BA-00,0,lnxatd4017,0,1
61,MDT,MDT-BA,MDT-BA-00,0,lnxatd4017,1,1
61,MDT,MDT-BA,MDT-BA-00,0,lnxatd4017,8,1
61,MDT,MDT-BA,MDT-BA-00,0,lnxatd4017,9,2
61,MDT,MDT-BA,MDT-BA-00,0,lnxatd4017,16,2
61,MDT,MDT-BA,MDT-BA-00,0,lnxatd4017,17,2
61,MDT,MDT-BA,MDT-BA-00,0,lnxatd4017,24,4
61,MDT,MDT-BA,MDT-BA-00,0,lnxatd4017,25,4
61,MDT,MDT-BA,MDT-BA-00,0,lnxatd4017,32,4
61,MDT,MDT-BA,MDT-BA-00,0,lnxatd4017,33,5
61,MDT,MDT-BA,MDT-BA-00,0,lnxatd4017,40,5
61,MDT,MDT-BA,MDT-BA-00,0,lnxatd4017,41,5
61,MDT,MDT-BA,MDT-BA-01,1,lnxatd4018,2,1
61,MDT,MDT-BA,MDT-BA-01,1,lnxatd4018,3,1
61,MDT,MDT-BA,MDT-BA-01,1,lnxatd4018,10,1
61,MDT,MDT-BA,MDT-BA-01,1,lnxatd4018,11,2
61,MDT,MDT-BA,MDT-BA-01,1,lnxatd4018,18,2
61,MDT,MDT-BA,MDT-BA-01,1,lnxatd4018,19,2
61,MDT,MDT-BA,MDT-BA-01,1,lnxatd4018,26,4
61,MDT,MDT-BA,MDT-BA-01,1,lnxatd4018,27,4
61,MDT,MDT-BA,MDT-BA-01,1,lnxatd4018,34,4
61,MDT,MDT-BA,MDT-BA-01,1,lnxatd4018,35,5
61,MDT,MDT-BA,MDT-BA-01,1,lnxatd4018,42,5
61,MDT,MDT-BA,MDT-BA-01,1,lnxatd4018,43,5
!61,MDT,MDT-BA,MDT-BA-02,2,pc-mdt-ros-ba-02,4,1
!61,MDT,MDT-BA,MDT-BA-02,2,pc-mdt-ros-ba-02,5,1
!61,MDT,MDT-BA,MDT-BA-02,2,pc-mdt-ros-ba-02,12,1
!61,MDT,MDT-BA,MDT-BA-02,2,pc-mdt-ros-ba-02,13,2
!61,MDT,MDT-BA,MDT-BA-02,2,pc-mdt-ros-ba-02,20,2
!61,MDT,MDT-BA,MDT-BA-02,2,pc-mdt-ros-ba-02,21,2
!61,MDT,MDT-BA,MDT-BA-02,2,pc-mdt-ros-ba-02,28,4
!61,MDT,MDT-BA,MDT-BA-02,2,pc-mdt-ros-ba-02,29,4
!61,MDT,MDT-BA,MDT-BA-02,2,pc-mdt-ros-ba-02,36,4
!61,MDT,MDT-BA,MDT-BA-02,2,pc-mdt-ros-ba-02,37,5
!61,MDT,MDT-BA,MDT-BA-02,2,pc-mdt-ros-ba-02,44,5
!61,MDT,MDT-BA,MDT-BA-02,2,pc-mdt-ros-ba-02,45,5
!61,MDT,MDT-BA,MDT-BA-03,3,pc-mdt-ros-ba-03,48,0
!61,MDT,MDT-BA,MDT-BA-03,3,pc-mdt-ros-ba-03,49,0
!61,MDT,MDT-BA,MDT-BA-03,3,pc-mdt-ros-ba-03,6,1
!61,MDT,MDT-BA,MDT-BA-03,3,pc-mdt-ros-ba-03,7,1
!61,MDT,MDT-BA,MDT-BA-03,3,pc-mdt-ros-ba-03,14,1
!61,MDT,MDT-BA,MDT-BA-03,3,pc-mdt-ros-ba-03,15,2
!61,MDT,MDT-BA,MDT-BA-03,3,pc-mdt-ros-ba-03,22,2
!61,MDT,MDT-BA,MDT-BA-03,3,pc-mdt-ros-ba-03,23,2
!61,MDT,MDT-BA,MDT-BA-03,3,pc-mdt-ros-ba-03,30,4
!61,MDT,MDT-BA,MDT-BA-03,3,pc-mdt-ros-ba-03,31,4
!61,MDT,MDT-BA,MDT-BA-03,3,pc-mdt-ros-ba-03,38,4
!61,MDT,MDT-BA,MDT-BA-03,3,pc-mdt-ros-ba-03,39,5
!61,MDT,MDT-BA,MDT-BA-03,3,pc-mdt-ros-ba-03,46,5
!61,MDT,MDT-BA,MDT-BA-03,3,pc-mdt-ros-ba-03,47,5
!62,MDT,MDT-BC,MDT-BC-00,0,pc-mdt-ros-bc-00,0,1
!62,MDT,MDT-BC,MDT-BC-00,0,pc-mdt-ros-bc-00,1,1
!62,MDT,MDT-BC,MDT-BC-00,0,pc-mdt-ros-bc-00,8,1
!62,MDT,MDT-BC,MDT-BC-00,0,pc-mdt-ros-bc-00,9,2
!62,MDT,MDT-BC,MDT-BC-00,0,pc-mdt-ros-bc-00,16,2
!62,MDT,MDT-BC,MDT-BC-00,0,pc-mdt-ros-bc-00,17,2
!62,MDT,MDT-BC,MDT-BC-00,0,pc-mdt-ros-bc-00,24,4
!62,MDT,MDT-BC,MDT-BC-00,0,pc-mdt-ros-bc-00,25,4
!62,MDT,MDT-BC,MDT-BC-00,0,pc-mdt-ros-bc-00,32,4
!62,MDT,MDT-BC,MDT-BC-00,0,pc-mdt-ros-bc-00,33,5
!62,MDT,MDT-BC,MDT-BC-00,0,pc-mdt-ros-bc-00,40,5
!62,MDT,MDT-BC,MDT-BC-00,0,pc-mdt-ros-bc-00,41,5
!62,MDT,MDT-BC,MDT-BC-01,1,pc-mdt-ros-bc-01,2,1
!62,MDT,MDT-BC,MDT-BC-01,1,pc-mdt-ros-bc-01,3,1
!62,MDT,MDT-BC,MDT-BC-01,1,pc-mdt-ros-bc-01,10,1
!62,MDT,MDT-BC,MDT-BC-01,1,pc-mdt-ros-bc-01,11,2
!62,MDT,MDT-BC,MDT-BC-01,1,pc-mdt-ros-bc-01,18,2
!62,MDT,MDT-BC,MDT-BC-01,1,pc-mdt-ros-bc-01,19,2
!62,MDT,MDT-BC,MDT-BC-01,1,pc-mdt-ros-bc-01,26,4
!62,MDT,MDT-BC,MDT-BC-01,1,pc-mdt-ros-bc-01,27,4
!62,MDT,MDT-BC,MDT-BC-01,1,pc-mdt-ros-bc-01,34,4
!62,MDT,MDT-BC,MDT-BC-01,1,pc-mdt-ros-bc-01,35,5
!62,MDT,MDT-BC,MDT-BC-01,1,pc-mdt-ros-bc-01,42,5
!62,MDT,MDT-BC,MDT-BC-01,1,pc-mdt-ros-bc-01,43,5
!62,MDT,MDT-BC,MDT-BC-02,2,pc-mdt-ros-bc-02,4,1
!62,MDT,MDT-BC,MDT-BC-02,2,pc-mdt-ros-bc-02,5,1
!62,MDT,MDT-BC,MDT-BC-02,2,pc-mdt-ros-bc-02,12,1
!62,MDT,MDT-BC,MDT-BC-02,2,pc-mdt-ros-bc-02,13,2
!62,MDT,MDT-BC,MDT-BC-02,2,pc-mdt-ros-bc-02,20,2
!62,MDT,MDT-BC,MDT-BC-02,2,pc-mdt-ros-bc-02,21,2
!62,MDT,MDT-BC,MDT-BC-02,2,pc-mdt-ros-bc-02,28,4
!62,MDT,MDT-BC,MDT-BC-02,2,pc-mdt-ros-bc-02,29,4
!62,MDT,MDT-BC,MDT-BC-02,2,pc-mdt-ros-bc-02,36,4
!62,MDT,MDT-BC,MDT-BC-02,2,pc-mdt-ros-bc-02,37,5
!62,MDT,MDT-BC,MDT-BC-02,2,pc-mdt-ros-bc-02,44,5
!62,MDT,MDT-BC,MDT-BC-02,2,pc-mdt-ros-bc-02,45,5
!62,MDT,MDT-BC,MDT-BC-03,3,pc-mdt-ros-bc-03,48,0
!62,MDT,MDT-BC,MDT-BC-03,3,pc-mdt-ros-bc-03,49,0
!62,MDT,MDT-BC,MDT-BC-03,3,pc-mdt-ros-bc-03,6,1
!62,MDT,MDT-BC,MDT-BC-03,3,pc-mdt-ros-bc-03,7,1
!62,MDT,MDT-BC,MDT-BC-03,3,pc-mdt-ros-bc-03,14,1
!62,MDT,MDT-BC,MDT-BC-03,3,pc-mdt-ros-bc-03,15,2
!62,MDT,MDT-BC,MDT-BC-03,3,pc-mdt-ros-bc-03,22,2
!62,MDT,MDT-BC,MDT-BC-03,3,pc-mdt-ros-bc-03,23,2
!62,MDT,MDT-BC,MDT-BC-03,3,pc-mdt-ros-bc-03,30,4
!62,MDT,MDT-BC,MDT-BC-03,3,pc-mdt-ros-bc-03,31,4
!62,MDT,MDT-BC,MDT-BC-03,3,pc-mdt-ros-bc-03,38,4
!62,MDT,MDT-BC,MDT-BC-03,3,pc-mdt-ros-bc-03,39,5
!62,MDT,MDT-BC,MDT-BC-03,3,pc-mdt-ros-bc-03,46,5
!62,MDT,MDT-BC,MDT-BC-03,3,pc-mdt-ros-bc-03,47,5
!63,MDT,MDT-ECA,MDT-ECA-00,0,pc-mdt-ros-eca-00,0,1
!63,MDT,MDT-ECA,MDT-ECA-00,0,pc-mdt-ros-eca-00,1,1
!63,MDT,MDT-ECA,MDT-ECA-00,0,pc-mdt-ros-eca-00,8,1
!63,MDT,MDT-ECA,MDT-ECA-00,0,pc-mdt-ros-eca-00,9,2
!63,MDT,MDT-ECA,MDT-ECA-00,0,pc-mdt-ros-eca-00,16,2
!63,MDT,MDT-ECA,MDT-ECA-00,0,pc-mdt-ros-eca-00,17,2
!63,MDT,MDT-ECA,MDT-ECA-00,0,pc-mdt-ros-eca-00,24,4
!63,MDT,MDT-ECA,MDT-ECA-00,0,pc-mdt-ros-eca-00,25,4
!63,MDT,MDT-ECA,MDT-ECA-00,0,pc-mdt-ros-eca-00,32,4
!63,MDT,MDT-ECA,MDT-ECA-00,0,pc-mdt-ros-eca-00,33,5
!63,MDT,MDT-ECA,MDT-ECA-00,0,pc-mdt-ros-eca-00,40,5
!63,MDT,MDT-ECA,MDT-ECA-00,0,pc-mdt-ros-eca-00,41,5
!63,MDT,MDT-ECA,MDT-ECA-01,1,pc-mdt-ros-eca-01,48,0
!63,MDT,MDT-ECA,MDT-ECA-01,1,pc-mdt-ros-eca-01,49,0
!63,MDT,MDT-ECA,MDT-ECA-01,1,pc-mdt-ros-eca-01,2,1
!63,MDT,MDT-ECA,MDT-ECA-01,1,pc-mdt-ros-eca-01,3,1
!63,MDT,MDT-ECA,MDT-ECA-01,1,pc-mdt-ros-eca-01,10,1
!63,MDT,MDT-ECA,MDT-ECA-01,1,pc-mdt-ros-eca-01,11,2
!63,MDT,MDT-ECA,MDT-ECA-01,1,pc-mdt-ros-eca-01,18,2
!63,MDT,MDT-ECA,MDT-ECA-01,1,pc-mdt-ros-eca-01,19,2
!63,MDT,MDT-ECA,MDT-ECA-01,1,pc-mdt-ros-eca-01,26,4
!63,MDT,MDT-ECA,MDT-ECA-01,1,pc-mdt-ros-eca-01,27,4
!63,MDT,MDT-ECA,MDT-ECA-01,1,pc-mdt-ros-eca-01,34,4
!63,MDT,MDT-ECA,MDT-ECA-01,1,pc-mdt-ros-eca-01,35,5
!63,MDT,MDT-ECA,MDT-ECA-01,1,pc-mdt-ros-eca-01,42,5
!63,MDT,MDT-ECA,MDT-ECA-01,1,pc-mdt-ros-eca-01,43,5
!63,MDT,MDT-ECA,MDT-ECA-02,2,pc-mdt-ros-eca-02,4,1
!63,MDT,MDT-ECA,MDT-ECA-02,2,pc-mdt-ros-eca-02,5,1
!63,MDT,MDT-ECA,MDT-ECA-02,2,pc-mdt-ros-eca-02,12,1
!63,MDT,MDT-ECA,MDT-ECA-02,2,pc-mdt-ros-eca-02,13,2
!63,MDT,MDT-ECA,MDT-ECA-02,2,pc-mdt-ros-eca-02,20,2
!63,MDT,MDT-ECA,MDT-ECA-02,2,pc-mdt-ros-eca-02,21,2
!63,MDT,MDT-ECA,MDT-ECA-02,2,pc-mdt-ros-eca-02,28,4
!63,MDT,MDT-ECA,MDT-ECA-02,2,pc-mdt-ros-eca-02,29,4
!63,MDT,MDT-ECA,MDT-ECA-02,2,pc-mdt-ros-eca-02,36,4
!63,MDT,MDT-ECA,MDT-ECA-02,2,pc-mdt-ros-eca-02,37,5
!63,MDT,MDT-ECA,MDT-ECA-02,2,pc-mdt-ros-eca-02,44,5
!63,MDT,MDT-ECA,MDT-ECA-02,2,pc-mdt-ros-eca-02,45,5
!63,MDT,MDT-ECA,MDT-ECA-03,3,pc-mdt-ros-eca-03,50,0
!63,MDT,MDT-ECA,MDT-ECA-03,3,pc-mdt-ros-eca-03,51,0
!63,MDT,MDT-ECA,MDT-ECA-03,3,pc-mdt-ros-eca-03,6,1
!63,MDT,MDT-ECA,MDT-ECA-03,3,pc-mdt-ros-eca-03,7,1
!63,MDT,MDT-ECA,MDT-ECA-03,3,pc-mdt-ros-eca-03,14,1
!63,MDT,MDT-ECA,MDT-ECA-03,3,pc-mdt-ros-eca-03,15,2
!63,MDT,MDT-ECA,MDT-ECA-03,3,pc-mdt-ros-eca-03,22,2
!63,MDT,MDT-ECA,MDT-ECA-03,3,pc-mdt-ros-eca-03,23,2
!63,MDT,MDT-ECA,MDT-ECA-03,3,pc-mdt-ros-eca-03,30,4
!63,MDT,MDT-ECA,MDT-ECA-03,3,pc-mdt-ros-eca-03,31,4
!63,MDT,MDT-ECA,MDT-ECA-03,3,pc-mdt-ros-eca-03,38,4
!63,MDT,MDT-ECA,MDT-ECA-03,3,pc-mdt-ros-eca-03,39,5
!63,MDT,MDT-ECA,MDT-ECA-03,3,pc-mdt-ros-eca-03,46,5
!63,MDT,MDT-ECA,MDT-ECA-03,3,pc-mdt-ros-eca-03,47,5
!64,MDT,MDT-ECC,MDT-ECC-00,0,pc-mdt-ros-ecc-00,0,1
!64,MDT,MDT-ECC,MDT-ECC-00,0,pc-mdt-ros-ecc-00,1,1
!64,MDT,MDT-ECC,MDT-ECC-00,0,pc-mdt-ros-ecc-00,8,1
!64,MDT,MDT-ECC,MDT-ECC-00,0,pc-mdt-ros-ecc-00,9,2
!64,MDT,MDT-ECC,MDT-ECC-00,0,pc-mdt-ros-ecc-00,16,2
!64,MDT,MDT-ECC,MDT-ECC-00,0,pc-mdt-ros-ecc-00,17,2
!64,MDT,MDT-ECC,MDT-ECC-00,0,pc-mdt-ros-ecc-00,24,4
!64,MDT,MDT-ECC,MDT-ECC-00,0,pc-mdt-ros-ecc-00,25,4
!64,MDT,MDT-ECC,MDT-ECC-00,0,pc-mdt-ros-ecc-00,32,4
!64,MDT,MDT-ECC,MDT-ECC-00,0,pc-mdt-ros-ecc-00,33,5
!64,MDT,MDT-ECC,MDT-ECC-00,0,pc-mdt-ros-ecc-00,40,5
!64,MDT,MDT-ECC,MDT-ECC-00,0,pc-mdt-ros-ecc-00,41,5
!64,MDT,MDT-ECC,MDT-ECC-01,1,pc-mdt-ros-ecc-01,48,0
!64,MDT,MDT-ECC,MDT-ECC-01,1,pc-mdt-ros-ecc-01,49,0
!64,MDT,MDT-ECC,MDT-ECC-01,1,pc-mdt-ros-ecc-01,2,1
!64,MDT,MDT-ECC,MDT-ECC-01,1,pc-mdt-ros-ecc-01,3,1
!64,MDT,MDT-ECC,MDT-ECC-01,1,pc-mdt-ros-ecc-01,10,1
!64,MDT,MDT-ECC,MDT-ECC-01,1,pc-mdt-ros-ecc-01,11,2
!64,MDT,MDT-ECC,MDT-ECC-01,1,pc-mdt-ros-ecc-01,18,2
!64,MDT,MDT-ECC,MDT-ECC-01,1,pc-mdt-ros-ecc-01,19,2
!64,MDT,MDT-ECC,MDT-ECC-01,1,pc-mdt-ros-ecc-01,26,4
!64,MDT,MDT-ECC,MDT-ECC-01,1,pc-mdt-ros-ecc-01,27,4
!64,MDT,MDT-ECC,MDT-ECC-01,1,pc-mdt-ros-ecc-01,34,4
!64,MDT,MDT-ECC,MDT-ECC-01,1,pc-mdt-ros-ecc-01,35,5
!64,MDT,MDT-ECC,MDT-ECC-01,1,pc-mdt-ros-ecc-01,42,5
!64,MDT,MDT-ECC,MDT-ECC-01,1,pc-mdt-ros-ecc-01,43,5
!64,MDT,MDT-ECC,MDT-ECC-02,2,pc-mdt-ros-ecc-02,4,1
!64,MDT,MDT-ECC,MDT-ECC-02,2,pc-mdt-ros-ecc-02,5,1
!64,MDT,MDT-ECC,MDT-ECC-02,2,pc-mdt-ros-ecc-02,12,1
!64,MDT,MDT-ECC,MDT-ECC-02,2,pc-mdt-ros-ecc-02,13,2
!64,MDT,MDT-ECC,MDT-ECC-02,2,pc-mdt-ros-ecc-02,20,2
!64,MDT,MDT-ECC,MDT-ECC-02,2,pc-mdt-ros-ecc-02,21,2
!64,MDT,MDT-ECC,MDT-ECC-02,2,pc-mdt-ros-ecc-02,28,4
!64,MDT,MDT-ECC,MDT-ECC-02,2,pc-mdt-ros-ecc-02,29,4
!64,MDT,MDT-ECC,MDT-ECC-02,2,pc-mdt-ros-ecc-02,36,4
!64,MDT,MDT-ECC,MDT-ECC-02,2,pc-mdt-ros-ecc-02,37,5
!64,MDT,MDT-ECC,MDT-ECC-02,2,pc-mdt-ros-ecc-02,44,5
!64,MDT,MDT-ECC,MDT-ECC-02,2,pc-mdt-ros-ecc-02,45,5
!64,MDT,MDT-ECC,MDT-ECC-03,3,pc-mdt-ros-ecc-03,50,0
!64,MDT,MDT-ECC,MDT-ECC-03,3,pc-mdt-ros-ecc-03,51,0
!64,MDT,MDT-ECC,MDT-ECC-03,3,pc-mdt-ros-ecc-03,6,1
!64,MDT,MDT-ECC,MDT-ECC-03,3,pc-mdt-ros-ecc-03,7,1
!64,MDT,MDT-ECC,MDT-ECC-03,3,pc-mdt-ros-ecc-03,14,1
!64,MDT,MDT-ECC,MDT-ECC-03,3,pc-mdt-ros-ecc-03,15,2
!64,MDT,MDT-ECC,MDT-ECC-03,3,pc-mdt-ros-ecc-03,22,2
!64,MDT,MDT-ECC,MDT-ECC-03,3,pc-mdt-ros-ecc-03,23,2
!64,MDT,MDT-ECC,MDT-ECC-03,3,pc-mdt-ros-ecc-03,30,4
!64,MDT,MDT-ECC,MDT-ECC-03,3,pc-mdt-ros-ecc-03,31,4
!64,MDT,MDT-ECC,MDT-ECC-03,3,pc-mdt-ros-ecc-03,38,4
!64,MDT,MDT-ECC,MDT-ECC-03,3,pc-mdt-ros-ecc-03,39,5
!64,MDT,MDT-ECC,MDT-ECC-03,3,pc-mdt-ros-ecc-03,46,5
!64,MDT,MDT-ECC,MDT-ECC-03,3,pc-mdt-ros-ecc-03,47,5
65,RPC,RPC-BA,RPC-BA-00,0,lnxatd4017,0,1
65,RPC,RPC-BA,RPC-BA-00,0,lnxatd4017,1,1
65,RPC,RPC-BA,RPC-BA-00,0,lnxatd4017,2,1
65,RPC,RPC-BA,RPC-BA-00,0,lnxatd4017,3,2
65,RPC,RPC-BA,RPC-BA-00,0,lnxatd4017,4,2
65,RPC,RPC-BA,RPC-BA-00,0,lnxatd4017,5,2
65,RPC,RPC-BA,RPC-BA-00,0,lnxatd4017,6,4
65,RPC,RPC-BA,RPC-BA-00,0,lnxatd4017,7,4
65,RPC,RPC-BA,RPC-BA-01,1,lnxatd4018,8,1
65,RPC,RPC-BA,RPC-BA-01,1,lnxatd4018,9,1
65,RPC,RPC-BA,RPC-BA-01,1,lnxatd4018,10,1
65,RPC,RPC-BA,RPC-BA-01,1,lnxatd4018,11,2
65,RPC,RPC-BA,RPC-BA-01,1,lnxatd4018,12,2
65,RPC,RPC-BA,RPC-BA-01,1,lnxatd4018,13,2
65,RPC,RPC-BA,RPC-BA-01,1,lnxatd4018,14,4
65,RPC,RPC-BA,RPC-BA-01,1,lnxatd4018,15,4
!66,RPC,RPC-BC,RPC-BC-00,0,pc-rpc-ros-bc-00,0,1
!66,RPC,RPC-BC,RPC-BC-00,0,pc-rpc-ros-bc-00,1,1
!66,RPC,RPC-BC,RPC-BC-00,0,pc-rpc-ros-bc-00,2,1
!66,RPC,RPC-BC,RPC-BC-00,0,pc-rpc-ros-bc-00,3,2
!66,RPC,RPC-BC,RPC-BC-00,0,pc-rpc-ros-bc-00,4,2
!66,RPC,RPC-BC,RPC-BC-00,0,pc-rpc-ros-bc-00,5,2
!66,RPC,RPC-BC,RPC-BC-00,0,pc-rpc-ros-bc-00,6,4
!66,RPC,RPC-BC,RPC-BC-00,0,pc-rpc-ros-bc-00,7,4
!66,RPC,RPC-BC,RPC-BC-01,1,pc-rpc-ros-bc-01,8,1
!66,RPC,RPC-BC,RPC-BC-01,1,pc-rpc-ros-bc-01,9,1
!66,RPC,RPC-BC,RPC-BC-01,1,pc-rpc-ros-bc-01,10,1
!66,RPC,RPC-BC,RPC-BC-01,1,pc-rpc-ros-bc-01,11,2
!66,RPC,RPC-BC,RPC-BC-01,1,pc-rpc-ros-bc-01,12,2
!66,RPC,RPC-BC,RPC-BC-01,1,pc-rpc-ros-bc-01,13,2
!66,RPC,RPC-BC,RPC-BC-01,1,pc-rpc-ros-bc-01,14,4
!66,RPC,RPC-BC,RPC-BC-01,1,pc-rpc-ros-bc-01,15,4
67,TGC,TGC-ECA,TGC-ECA-00,0,lnxatd4017,1,1
67,TGC,TGC-ECA,TGC-ECA-00,0,lnxatd4017,2,1
67,TGC,TGC-ECA,TGC-ECA-00,0,lnxatd4017,3,1
67,TGC,TGC-ECA,TGC-ECA-00,0,lnxatd4017,4,2
67,TGC,TGC-ECA,TGC-ECA-00,0,lnxatd4017,5,2
67,TGC,TGC-ECA,TGC-ECA-00,0,lnxatd4017,6,2
67,TGC,TGC-ECA,TGC-ECA-00,0,lnxatd4017,7,4
67,TGC,TGC-ECA,TGC-ECA-00,0,lnxatd4017,8,4
67,TGC,TGC-ECA,TGC-ECA-00,0,lnxatd4017,9,4
67,TGC,TGC-ECA,TGC-ECA-00,0,lnxatd4017,10,5
67,TGC,TGC-ECA,TGC-ECA-00,0,lnxatd4017,11,5
67,TGC,TGC-ECA,TGC-ECA-00,0,lnxatd4017,12,5
68,TGC,TGC-ECC,TGC-ECC-00,0,lnxatd4018,1,1
68,TGC,TGC-ECC,TGC-ECC-00,0,lnxatd4018,2,1
68,TGC,TGC-ECC,TGC-ECC-00,0,lnxatd4018,3,1
68,TGC,TGC-ECC,TGC-ECC-00,0,lnxatd4018,4,2
68,TGC,TGC-ECC,TGC-ECC-00,0,lnxatd4018,5,2
68,TGC,TGC-ECC,TGC-ECC-00,0,lnxatd4018,6,2
68,TGC,TGC-ECC,TGC-ECC-00,0,lnxatd4018,7,4
68,TGC,TGC-ECC,TGC-ECC-00,0,lnxatd4018,8,4
68,TGC,TGC-ECC,TGC-ECC-00,0,lnxatd4018,9,4
68,TGC,TGC-ECC,TGC-ECC-00,0,lnxatd4018,10,5
68,TGC,TGC-ECC,TGC-ECC-00,0,lnxatd4018,11,5
68,TGC,TGC-ECC,TGC-ECC-00,0,lnxatd4018,12,5
69,CSC,CSC-ECA,CSC-ECA-00,0,lnxatd4017,5,1
69,CSC,CSC-ECA,CSC-ECA-00,0,lnxatd4017,7,1
69,CSC,CSC-ECA,CSC-ECA-00,0,lnxatd4017,9,1
69,CSC,CSC-ECA,CSC-ECA-00,0,lnxatd4017,17,2
69,CSC,CSC-ECA,CSC-ECA-00,0,lnxatd4017,21,2
69,CSC,CSC-ECA,CSC-ECA-00,0,lnxatd4017,23,2
69,CSC,CSC-ECA,CSC-ECA-00,0,lnxatd4017,25,4
69,CSC,CSC-ECA,CSC-ECA-00,0,lnxatd4017,33,4
6a,CSC,CSC-ECC,CSC-ECC-00,0,lnxatd4018,5,1
6a,CSC,CSC-ECC,CSC-ECC-00,0,lnxatd4018,7,1
6a,CSC,CSC-ECC,CSC-ECC-00,0,lnxatd4018,9,1
6a,CSC,CSC-ECC,CSC-ECC-00,0,lnxatd4018,17,2
6a,CSC,CSC-ECC,CSC-ECC-00,0,lnxatd4018,21,2
6a,CSC,CSC-ECC,CSC-ECC-00,0,lnxatd4018,23,2
6a,CSC,CSC-ECC,CSC-ECC-00,0,lnxatd4018,25,4
6a,CSC,CSC-ECC,CSC-ECC-00,0,lnxatd4018,33,4
71,L1C,TDQ-CALPP,TDQ-CALPP-00,0,lnxatd4017,0,1
71,L1C,TDQ-CALPP,TDQ-CALPP-00,0,lnxatd4017,16,1
71,L1C,TDQ-CALPP,TDQ-CALPP-00,0,lnxatd4017,32,1
71,L1C,TDQ-CALPP,TDQ-CALPP-00,0,lnxatd4017,48,2
71,L1C,TDQ-CALPP,TDQ-CALPP-00,0,lnxatd4017,1,2
71,L1C,TDQ-CALPP,TDQ-CALPP-00,0,lnxatd4017,17,2
71,L1C,TDQ-CALPP,TDQ-CALPP-00,0,lnxatd4017,33,4
71,L1C,TDQ-CALPP,TDQ-CALPP-00,0,lnxatd4017,49,4
71,L1C,TDQ-CALPP,TDQ-CALPP-00,0,lnxatd4017,2,4
71,L1C,TDQ-CALPP,TDQ-CALPP-00,0,lnxatd4017,18,5
71,L1C,TDQ-CALPP,TDQ-CALPP-00,0,lnxatd4017,34,5
71,L1C,TDQ-CALPP,TDQ-CALPP-00,0,lnxatd4017,50,5
71,L1C,TDQ-CALPP,TDQ-CALPP-01,1,lnxatd4018,3,1
71,L1C,TDQ-CALPP,TDQ-CALPP-01,1,lnxatd4018,19,1
71,L1C,TDQ-CALPP,TDQ-CALPP-01,1,lnxatd4018,35,1
71,L1C,TDQ-CALPP,TDQ-CALPP-01,1,lnxatd4018,51,2
71,L1C,TDQ-CALPP,TDQ-CALPP-01,1,lnxatd4018,4,2
71,L1C,TDQ-CALPP,TDQ-CALPP-01,1,lnxatd4018,20,2
71,L1C,TDQ-CALPP,TDQ-CALPP-01,1,lnxatd4018,36,4
71,L1C,TDQ-CALPP,TDQ-CALPP-01,1,lnxatd4018,52,4
71,L1C,TDQ-CALPP,TDQ-CALPP-01,1,lnxatd4018,5,4
71,L1C,TDQ-CALPP,TDQ-CALPP-01,1,lnxatd4018,21,5
71,L1C,TDQ-CALPP,TDQ-CALPP-01,1,lnxatd4018,37,5
71,L1C,TDQ-CALPP,TDQ-CALPP-01,1,lnxatd4018,53,5
!71,L1C,TDQ-CALPP,TDQ-CALPP-02,2,pc-tdq-ros-calpp-02,6,1
!71,L1C,TDQ-CALPP,TDQ-CALPP-02,2,pc-tdq-ros-calpp-02,22,1
!71,L1C,TDQ-CALPP,TDQ-CALPP-02,2,pc-tdq-ros-calpp-02,38,1
!71,L1C,TDQ-CALPP,TDQ-CALPP-02,2,pc-tdq-ros-calpp-02,54,2
!71,L1C,TDQ-CALPP,TDQ-CALPP-02,2,pc-tdq-ros-calpp-02,7,2
!71,L1C,TDQ-CALPP,TDQ-CALPP-02,2,pc-tdq-ros-calpp-02,23,2
!71,L1C,TDQ-CALPP,TDQ-CALPP-02,2,pc-tdq-ros-calpp-02,39,4
!71,L1C,TDQ-CALPP,TDQ-CALPP-02,2,pc-tdq-ros-calpp-02,55,4
!72,L1C,TDQ-CALCP,TDQ-CALCP-00,0,pc-tdq-ros-calcp-00,8,1
!72,L1C,TDQ-CALCP,TDQ-CALCP-00,0,pc-tdq-ros-calcp-00,40,1
!72,L1C,TDQ-CALCP,TDQ-CALCP-00,0,pc-tdq-ros-calcp-00,9,1
!72,L1C,TDQ-CALCP,TDQ-CALCP-00,0,pc-tdq-ros-calcp-00,41,2
!72,L1C,TDQ-CALCP,TDQ-CALCP-00,0,pc-tdq-ros-calcp-00,10,2
!72,L1C,TDQ-CALCP,TDQ-CALCP-00,0,pc-tdq-ros-calcp-00,42,2
!72,L1C,TDQ-CALCP,TDQ-CALCP-00,0,pc-tdq-ros-calcp-00,11,4
!72,L1C,TDQ-CALCP,TDQ-CALCP-00,0,pc-tdq-ros-calcp-00,43,4
!73,L1C,TDQ-CALCPROI,TDQ-CALCPROI-00,0,pc-tdq-ros-calcproi-00,136,1
!73,L1C,TDQ-CALCPROI,TDQ-CALCPROI-00,0,pc-tdq-ros-calcproi-00,137,1
!73,L1C,TDQ-CALCPROI,TDQ-CALCPROI-00,0,pc-tdq-ros-calcproi-00,138,1
!73,L1C,TDQ-CALCPROI,TDQ-CALCPROI-00,0,pc-tdq-ros-calcproi-00,139,2
!74,L1C,TDQ-CALJE,TDQ-CALJE-00,0,pc-tdq-ros-calje-00,12,1
!74,L1C,TDQ-CALJE,TDQ-CALJE-00,0,pc-tdq-ros-calje-00,28,1
!74,L1C,TDQ-CALJE,TDQ-CALJE-00,0,pc-tdq-ros-calje-00,44,1
!74,L1C,TDQ-CALJE,TDQ-CALJE-00,0,pc-tdq-ros-calje-00,60,2
!74,L1C,TDQ-CALJE,TDQ-CALJE-00,0,pc-tdq-ros-calje-00,13,2
!74,L1C,TDQ-CALJE,TDQ-CALJE-00,0,pc-tdq-ros-calje-00,29,2
!74,L1C,TDQ-CALJE,TDQ-CALJE-00,0,pc-tdq-ros-calje-00,45,4
!74,L1C,TDQ-CALJE,TDQ-CALJE-00,0,pc-tdq-ros-calje-00,61,4
!75,L1C,TDQ-CALJEROI,TDQ-CALJEROI-00,0,pc-tdq-ros-caljeroi-00,140,1
!75,L1C,TDQ-CALJEROI,TDQ-CALJEROI-00,0,pc-tdq-ros-caljeroi-00,141,1
76,CTP,TDQ-MUCTPI,TDQ-MUCTPI-00,0,lnxatd4017,0,1
77,CTP,TDQ-CTP,TDQ-CTP-00,0,lnxatd4018,0,1
81,FWD,BCM,FWD-BCM-00,0,lnxatd4017,10,1
81,FWD,BCM,FWD-BCM-00,0,lnxatd4017,12,1
81,FWD,BCM,FWD-BCM-00,0,lnxatd4017,15,1
81,FWD,BCM,FWD-BCM-01,0,lnxatd4018,74,1
81,FWD,BCM,FWD-BCM-01,0,lnxatd4018,76,1
82,FWD,LUC,FWD-LUC-00,0,lnxatd4017,0,1
83,FWD,ZDC,FWD-ZDC-00,0,lnxatd4017,0,1
83,FWD,ZDC,FWD-ZDC-00,0,lnxatd4017,1,1
83,FWD,ZDC,FWD-ZDC-00,0,lnxatd4017,2,1
83,FWD,ZDC,FWD-ZDC-00,0,lnxatd4017,3,2
84,FWD,ALFA,FWD-ALFA-00,0,lnxatd4017,0,1
84,FWD,ALFA,FWD-ALFA-00,0,lnxatd4017,1,1
#
#ff,TDQ,TDQ-A,TDQ-SPARE-00,0,lnxatd4017,0,1
#ff,TDQ,TDQ-A,TDQ-SPARE-00,0,lnxatd4017,1,1
#ff,TDQ,TDQ-A,TDQ-SPARE-00,0,lnxatd4017,2,1
#ff,TDQ,TDQ-A,TDQ-SPARE-00,0,lnxatd4017,3,2
#ff,TDQ,TDQ-A,TDQ-SPARE-00,0,lnxatd4017,4,2
#ff,TDQ,TDQ-A,TDQ-SPARE-00,0,lnxatd4017,5,2
#ff,TDQ,TDQ-A,TDQ-SPARE-00,0,lnxatd4017,6,4
#ff,TDQ,TDQ-A,TDQ-SPARE-00,0,lnxatd4017,7,4
#ff,TDQ,TDQ-A,TDQ-SPARE-00,0,lnxatd4017,8,4
#ff,TDQ,TDQ-A,TDQ-SPARE-00,0,lnxatd4017,9,5
#ff,TDQ,TDQ-A,TDQ-SPARE-00,0,lnxatd4017,10,5
#ff,TDQ,TDQ-A,TDQ-SPARE-00,0,lnxatd4017,11,5
#
ff,TDQ,TDQ-A,TDQ-SPARE-11,1,lnxatd4018,0,1
ff,TDQ,TDQ-A,TDQ-SPARE-11,1,lnxatd4018,1,1
ff,TDQ,TDQ-A,TDQ-SPARE-11,1,lnxatd4018,2,1
ff,TDQ,TDQ-A,TDQ-SPARE-11,1,lnxatd4018,3,2
ff,TDQ,TDQ-A,TDQ-SPARE-11,1,lnxatd4018,4,2
ff,TDQ,TDQ-A,TDQ-SPARE-11,1,lnxatd4018,5,2
ff,TDQ,TDQ-A,TDQ-SPARE-11,1,lnxatd4018,6,4
ff,TDQ,TDQ-A,TDQ-SPARE-11,1,lnxatd4018,7,4
ff,TDQ,TDQ-A,TDQ-SPARE-11,1,lnxatd4018,8,4
ff,TDQ,TDQ-A,TDQ-SPARE-11,1,lnxatd4018,9,5
ff,TDQ,TDQ-A,TDQ-SPARE-11,1,lnxatd4018,10,5
ff,TDQ,TDQ-A,TDQ-SPARE-11,1,lnxatd4018,11,5
#
#ff,TDQ,TDQ-C,TDQ-SPARE-02,2,lnxatd4012,0,1
#ff,TDQ,TDQ-C,TDQ-SPARE-02,2,lnxatd4012,1,1
#ff,TDQ,TDQ-C,TDQ-SPARE-02,2,lnxatd4012,2,1
#ff,TDQ,TDQ-C,TDQ-SPARE-02,2,lnxatd4012,3,2
#ff,TDQ,TDQ-C,TDQ-SPARE-02,2,lnxatd4012,4,2
#ff,TDQ,TDQ-C,TDQ-SPARE-02,2,lnxatd4012,5,2
#ff,TDQ,TDQ-C,TDQ-SPARE-02,2,lnxatd4012,6,4
#ff,TDQ,TDQ-C,TDQ-SPARE-02,2,lnxatd4012,7,4
#ff,TDQ,TDQ-C,TDQ-SPARE-02,2,lnxatd4012,8,4
#ff,TDQ,TDQ-C,TDQ-SPARE-02,2,lnxatd4012,9,5
#ff,TDQ,TDQ-C,TDQ-SPARE-02,2,lnxatd4012,10,5
#ff,TDQ,TDQ-C,TDQ-SPARE-02,2,lnxatd4012,11,5
##
#ff,TDQ,TDQ-C,TDQ-SPARE-03,3,lnxatd4013,0,1
#ff,TDQ,TDQ-C,TDQ-SPARE-03,3,lnxatd4013,1,1
#ff,TDQ,TDQ-C,TDQ-SPARE-03,3,lnxatd4013,2,1
#ff,TDQ,TDQ-C,TDQ-SPARE-03,3,lnxatd4013,3,2
#ff,TDQ,TDQ-C,TDQ-SPARE-03,3,lnxatd4013,4,2
#ff,TDQ,TDQ-C,TDQ-SPARE-03,3,lnxatd4013,5,2
#ff,TDQ,TDQ-C,TDQ-SPARE-03,3,lnxatd4013,6,4
#ff,TDQ,TDQ-C,TDQ-SPARE-03,3,lnxatd4013,7,4
#ff,TDQ,TDQ-C,TDQ-SPARE-03,3,lnxatd4013,8,4
#ff,TDQ,TDQ-C,TDQ-SPARE-03,3,lnxatd4013,9,5
#ff,TDQ,TDQ-C,TDQ-SPARE-03,3,lnxatd4013,10,5
#ff,TDQ,TDQ-C,TDQ-SPARE-03,3,lnxatd4013,11,5
###
